\relax 
\providecommand\hyper@newdestlabel[2]{}
\@writefile{toc}{\contentsline {subsection}{\numberline {3.7}Multiplication}{34}{subsection.3.7}\protected@file@percent }
\newlabel{group__Multiplication}{{3.7}{34}{Multiplication}{subsection.3.7}{}}
\gdef \LT@lxv {\LT@entry 
    {3}{19.29791pt}\LT@entry 
    {3}{88.92555pt}}
\@writefile{toc}{\contentsline {subsubsection}{\numberline {3.7.1}Detailed Description}{35}{subsubsection.3.7.1}\protected@file@percent }
\@writefile{toc}{\contentsline {subsubsection}{\numberline {3.7.2}Function Documentation}{35}{subsubsection.3.7.2}\protected@file@percent }
\newlabel{group__Multiplication_gaf41bfe33730249cbd7d6d7dd21b67f8c}{{3.7.2}{35}{Function Documentation}{subsubsection.3.7.2}{}}
\@writefile{toc}{\contentsline {paragraph}{\numberline {3.7.2.1}\discretionary {\unhbox \voidb@x \hbox {\relax \fontsize  {7}{8}\selectfont  $\DOTSB \leftarrow \joinrel  \rhook $}}{}{}\_\discretionary {\unhbox \voidb@x \hbox {\relax \fontsize  {7}{8}\selectfont  $\DOTSB \leftarrow \joinrel  \rhook $}}{}{}mzd\discretionary {\unhbox \voidb@x \hbox {\relax \fontsize  {7}{8}\selectfont  $\DOTSB \leftarrow \joinrel  \rhook $}}{}{}\_\discretionary {\unhbox \voidb@x \hbox {\relax \fontsize  {7}{8}\selectfont  $\DOTSB \leftarrow \joinrel  \rhook $}}{}{}poly\discretionary {\unhbox \voidb@x \hbox {\relax \fontsize  {7}{8}\selectfont  $\DOTSB \leftarrow \joinrel  \rhook $}}{}{}\_\discretionary {\unhbox \voidb@x \hbox {\relax \fontsize  {7}{8}\selectfont  $\DOTSB \leftarrow \joinrel  \rhook $}}{}{}addmul\discretionary {\unhbox \voidb@x \hbox {\relax \fontsize  {7}{8}\selectfont  $\DOTSB \leftarrow \joinrel  \rhook $}}{}{}\_\discretionary {\unhbox \voidb@x \hbox {\relax \fontsize  {7}{8}\selectfont  $\DOTSB \leftarrow \joinrel  \rhook $}}{}{}karatsubs\discretionary {\unhbox \voidb@x \hbox {\relax \fontsize  {7}{8}\selectfont  $\DOTSB \leftarrow \joinrel  \rhook $}}{}{}\_\discretionary {\unhbox \voidb@x \hbox {\relax \fontsize  {7}{8}\selectfont  $\DOTSB \leftarrow \joinrel  \rhook $}}{}{}balanced()}{35}{paragraph.3.7.2.1}\protected@file@percent }
\newlabel{group__Multiplication_ga615868897ca326690e2ad2a301f19681}{{3.7.2.1}{35}{\texorpdfstring {\+\_\+mzd\+\_\+poly\+\_\+addmul\+\_\+karatsubs\+\_\+balanced()}{\_mzd\_poly\_addmul\_karatsubs\_balanced()}}{table.65}{}}
\@writefile{toc}{\contentsline {paragraph}{\numberline {3.7.2.2}\discretionary {\unhbox \voidb@x \hbox {\relax \fontsize  {7}{8}\selectfont  $\DOTSB \leftarrow \joinrel  \rhook $}}{}{}\_\discretionary {\unhbox \voidb@x \hbox {\relax \fontsize  {7}{8}\selectfont  $\DOTSB \leftarrow \joinrel  \rhook $}}{}{}mzd\discretionary {\unhbox \voidb@x \hbox {\relax \fontsize  {7}{8}\selectfont  $\DOTSB \leftarrow \joinrel  \rhook $}}{}{}\_\discretionary {\unhbox \voidb@x \hbox {\relax \fontsize  {7}{8}\selectfont  $\DOTSB \leftarrow \joinrel  \rhook $}}{}{}poly\discretionary {\unhbox \voidb@x \hbox {\relax \fontsize  {7}{8}\selectfont  $\DOTSB \leftarrow \joinrel  \rhook $}}{}{}\_\discretionary {\unhbox \voidb@x \hbox {\relax \fontsize  {7}{8}\selectfont  $\DOTSB \leftarrow \joinrel  \rhook $}}{}{}addmul\discretionary {\unhbox \voidb@x \hbox {\relax \fontsize  {7}{8}\selectfont  $\DOTSB \leftarrow \joinrel  \rhook $}}{}{}\_\discretionary {\unhbox \voidb@x \hbox {\relax \fontsize  {7}{8}\selectfont  $\DOTSB \leftarrow \joinrel  \rhook $}}{}{}naive()}{35}{paragraph.3.7.2.2}\protected@file@percent }
\gdef \LT@lxvi {\LT@entry 
    {3}{19.29791pt}\LT@entry 
    {3}{88.92555pt}}
\gdef \LT@lxvii {\LT@entry 
    {3}{18.80287pt}\LT@entry 
    {3}{310.68422pt}}
\newlabel{group__Multiplication_ga2afc2260c0e044c90c2a31c4819658ba}{{3.7.2.2}{36}{\texorpdfstring {\+\_\+mzd\+\_\+poly\+\_\+addmul\+\_\+naive()}{\_mzd\_poly\_addmul\_naive()}}{table.66}{}}
\@writefile{toc}{\contentsline {paragraph}{\numberline {3.7.2.3}\discretionary {\unhbox \voidb@x \hbox {\relax \fontsize  {7}{8}\selectfont  $\DOTSB \leftarrow \joinrel  \rhook $}}{}{}\_\discretionary {\unhbox \voidb@x \hbox {\relax \fontsize  {7}{8}\selectfont  $\DOTSB \leftarrow \joinrel  \rhook $}}{}{}mzd\discretionary {\unhbox \voidb@x \hbox {\relax \fontsize  {7}{8}\selectfont  $\DOTSB \leftarrow \joinrel  \rhook $}}{}{}\_\discretionary {\unhbox \voidb@x \hbox {\relax \fontsize  {7}{8}\selectfont  $\DOTSB \leftarrow \joinrel  \rhook $}}{}{}ptr\discretionary {\unhbox \voidb@x \hbox {\relax \fontsize  {7}{8}\selectfont  $\DOTSB \leftarrow \joinrel  \rhook $}}{}{}\_\discretionary {\unhbox \voidb@x \hbox {\relax \fontsize  {7}{8}\selectfont  $\DOTSB \leftarrow \joinrel  \rhook $}}{}{}addmul\discretionary {\unhbox \voidb@x \hbox {\relax \fontsize  {7}{8}\selectfont  $\DOTSB \leftarrow \joinrel  \rhook $}}{}{}\_\discretionary {\unhbox \voidb@x \hbox {\relax \fontsize  {7}{8}\selectfont  $\DOTSB \leftarrow \joinrel  \rhook $}}{}{}karatsuba2()}{36}{paragraph.3.7.2.3}\protected@file@percent }
\newlabel{group__Multiplication_gaf83117574c43cee3a4910235414f9140}{{3.7.2.3}{36}{\texorpdfstring {\+\_\+mzd\+\_\+ptr\+\_\+addmul\+\_\+karatsuba2()}{\_mzd\_ptr\_addmul\_karatsuba2()}}{table.67}{}}
\@writefile{toc}{\contentsline {paragraph}{\numberline {3.7.2.4}\discretionary {\unhbox \voidb@x \hbox {\relax \fontsize  {7}{8}\selectfont  $\DOTSB \leftarrow \joinrel  \rhook $}}{}{}\_\discretionary {\unhbox \voidb@x \hbox {\relax \fontsize  {7}{8}\selectfont  $\DOTSB \leftarrow \joinrel  \rhook $}}{}{}mzd\discretionary {\unhbox \voidb@x \hbox {\relax \fontsize  {7}{8}\selectfont  $\DOTSB \leftarrow \joinrel  \rhook $}}{}{}\_\discretionary {\unhbox \voidb@x \hbox {\relax \fontsize  {7}{8}\selectfont  $\DOTSB \leftarrow \joinrel  \rhook $}}{}{}slice\discretionary {\unhbox \voidb@x \hbox {\relax \fontsize  {7}{8}\selectfont  $\DOTSB \leftarrow \joinrel  \rhook $}}{}{}\_\discretionary {\unhbox \voidb@x \hbox {\relax \fontsize  {7}{8}\selectfont  $\DOTSB \leftarrow \joinrel  \rhook $}}{}{}addmul\discretionary {\unhbox \voidb@x \hbox {\relax \fontsize  {7}{8}\selectfont  $\DOTSB \leftarrow \joinrel  \rhook $}}{}{}\_\discretionary {\unhbox \voidb@x \hbox {\relax \fontsize  {7}{8}\selectfont  $\DOTSB \leftarrow \joinrel  \rhook $}}{}{}karatsuba()}{36}{paragraph.3.7.2.4}\protected@file@percent }
\gdef \LT@lxviii {\LT@entry 
    {3}{19.29791pt}\LT@entry 
    {3}{266.80658pt}}
\gdef \LT@lxix {\LT@entry 
    {3}{19.29791pt}\LT@entry 
    {3}{266.80658pt}}
\newlabel{group__Multiplication_ga7e9f1d3446d335ec51bb3cacf9da576f}{{3.7.2.4}{37}{\texorpdfstring {\+\_\+mzd\+\_\+slice\+\_\+addmul\+\_\+karatsuba()}{\_mzd\_slice\_addmul\_karatsuba()}}{table.68}{}}
\@writefile{toc}{\contentsline {paragraph}{\numberline {3.7.2.5}\discretionary {\unhbox \voidb@x \hbox {\relax \fontsize  {7}{8}\selectfont  $\DOTSB \leftarrow \joinrel  \rhook $}}{}{}\_\discretionary {\unhbox \voidb@x \hbox {\relax \fontsize  {7}{8}\selectfont  $\DOTSB \leftarrow \joinrel  \rhook $}}{}{}mzd\discretionary {\unhbox \voidb@x \hbox {\relax \fontsize  {7}{8}\selectfont  $\DOTSB \leftarrow \joinrel  \rhook $}}{}{}\_\discretionary {\unhbox \voidb@x \hbox {\relax \fontsize  {7}{8}\selectfont  $\DOTSB \leftarrow \joinrel  \rhook $}}{}{}slice\discretionary {\unhbox \voidb@x \hbox {\relax \fontsize  {7}{8}\selectfont  $\DOTSB \leftarrow \joinrel  \rhook $}}{}{}\_\discretionary {\unhbox \voidb@x \hbox {\relax \fontsize  {7}{8}\selectfont  $\DOTSB \leftarrow \joinrel  \rhook $}}{}{}addmul\discretionary {\unhbox \voidb@x \hbox {\relax \fontsize  {7}{8}\selectfont  $\DOTSB \leftarrow \joinrel  \rhook $}}{}{}\_\discretionary {\unhbox \voidb@x \hbox {\relax \fontsize  {7}{8}\selectfont  $\DOTSB \leftarrow \joinrel  \rhook $}}{}{}naive()}{37}{paragraph.3.7.2.5}\protected@file@percent }
\newlabel{group__Multiplication_gacd91f4f88af85b93ec5d60a0f29a097a}{{3.7.2.5}{37}{\texorpdfstring {\+\_\+mzd\+\_\+slice\+\_\+addmul\+\_\+naive()}{\_mzd\_slice\_addmul\_naive()}}{table.69}{}}
\@writefile{toc}{\contentsline {paragraph}{\numberline {3.7.2.6}\discretionary {\unhbox \voidb@x \hbox {\relax \fontsize  {7}{8}\selectfont  $\DOTSB \leftarrow \joinrel  \rhook $}}{}{}\_\discretionary {\unhbox \voidb@x \hbox {\relax \fontsize  {7}{8}\selectfont  $\DOTSB \leftarrow \joinrel  \rhook $}}{}{}mzd\discretionary {\unhbox \voidb@x \hbox {\relax \fontsize  {7}{8}\selectfont  $\DOTSB \leftarrow \joinrel  \rhook $}}{}{}\_\discretionary {\unhbox \voidb@x \hbox {\relax \fontsize  {7}{8}\selectfont  $\DOTSB \leftarrow \joinrel  \rhook $}}{}{}slice\discretionary {\unhbox \voidb@x \hbox {\relax \fontsize  {7}{8}\selectfont  $\DOTSB \leftarrow \joinrel  \rhook $}}{}{}\_\discretionary {\unhbox \voidb@x \hbox {\relax \fontsize  {7}{8}\selectfont  $\DOTSB \leftarrow \joinrel  \rhook $}}{}{}mul\discretionary {\unhbox \voidb@x \hbox {\relax \fontsize  {7}{8}\selectfont  $\DOTSB \leftarrow \joinrel  \rhook $}}{}{}\_\discretionary {\unhbox \voidb@x \hbox {\relax \fontsize  {7}{8}\selectfont  $\DOTSB \leftarrow \joinrel  \rhook $}}{}{}blm()}{37}{paragraph.3.7.2.6}\protected@file@percent }
\gdef \LT@lxx {\LT@entry 
    {3}{19.29791pt}\LT@entry 
    {3}{358.55704pt}}
\gdef \LT@lxxi {\LT@entry 
    {3}{19.29791pt}\LT@entry 
    {3}{124.57358pt}}
\gdef \LT@lxxii {\LT@entry 
    {3}{34.81357pt}\LT@entry 
    {3}{170.37611pt}}
\newlabel{group__Multiplication_ga3a1862ea83e40be37faeb8e6bf5d34ca}{{3.7.2.6}{39}{\texorpdfstring {\+\_\+mzd\+\_\+slice\+\_\+mul\+\_\+blm()}{\_mzd\_slice\_mul\_blm()}}{table.70}{}}
\@writefile{toc}{\contentsline {paragraph}{\numberline {3.7.2.7}\discretionary {\unhbox \voidb@x \hbox {\relax \fontsize  {7}{8}\selectfont  $\DOTSB \leftarrow \joinrel  \rhook $}}{}{}\_\discretionary {\unhbox \voidb@x \hbox {\relax \fontsize  {7}{8}\selectfont  $\DOTSB \leftarrow \joinrel  \rhook $}}{}{}mzed\discretionary {\unhbox \voidb@x \hbox {\relax \fontsize  {7}{8}\selectfont  $\DOTSB \leftarrow \joinrel  \rhook $}}{}{}\_\discretionary {\unhbox \voidb@x \hbox {\relax \fontsize  {7}{8}\selectfont  $\DOTSB \leftarrow \joinrel  \rhook $}}{}{}addmul()}{39}{paragraph.3.7.2.7}\protected@file@percent }
\newlabel{group__Multiplication_ga75877be7d7e1a1c4c8915e42f943b9e4}{{3.7.2.7}{39}{\texorpdfstring {\+\_\+mzed\+\_\+addmul()}{\_mzed\_addmul()}}{table.71}{}}
\@writefile{toc}{\contentsline {paragraph}{\numberline {3.7.2.8}\discretionary {\unhbox \voidb@x \hbox {\relax \fontsize  {7}{8}\selectfont  $\DOTSB \leftarrow \joinrel  \rhook $}}{}{}\_\discretionary {\unhbox \voidb@x \hbox {\relax \fontsize  {7}{8}\selectfont  $\DOTSB \leftarrow \joinrel  \rhook $}}{}{}mzed\discretionary {\unhbox \voidb@x \hbox {\relax \fontsize  {7}{8}\selectfont  $\DOTSB \leftarrow \joinrel  \rhook $}}{}{}\_\discretionary {\unhbox \voidb@x \hbox {\relax \fontsize  {7}{8}\selectfont  $\DOTSB \leftarrow \joinrel  \rhook $}}{}{}addmul\discretionary {\unhbox \voidb@x \hbox {\relax \fontsize  {7}{8}\selectfont  $\DOTSB \leftarrow \joinrel  \rhook $}}{}{}\_\discretionary {\unhbox \voidb@x \hbox {\relax \fontsize  {7}{8}\selectfont  $\DOTSB \leftarrow \joinrel  \rhook $}}{}{}strassen()}{39}{paragraph.3.7.2.8}\protected@file@percent }
\gdef \LT@lxxiii {\LT@entry 
    {3}{19.29791pt}\LT@entry 
    {3}{124.57358pt}}
\gdef \LT@lxxiv {\LT@entry 
    {3}{19.29791pt}\LT@entry 
    {3}{124.57358pt}}
\newlabel{group__Multiplication_ga829c90a19af8f5d469a8a7b046ee9866}{{3.7.2.8}{40}{\texorpdfstring {\+\_\+mzed\+\_\+addmul\+\_\+strassen()}{\_mzed\_addmul\_strassen()}}{table.72}{}}
\@writefile{toc}{\contentsline {paragraph}{\numberline {3.7.2.9}\discretionary {\unhbox \voidb@x \hbox {\relax \fontsize  {7}{8}\selectfont  $\DOTSB \leftarrow \joinrel  \rhook $}}{}{}\_\discretionary {\unhbox \voidb@x \hbox {\relax \fontsize  {7}{8}\selectfont  $\DOTSB \leftarrow \joinrel  \rhook $}}{}{}mzed\discretionary {\unhbox \voidb@x \hbox {\relax \fontsize  {7}{8}\selectfont  $\DOTSB \leftarrow \joinrel  \rhook $}}{}{}\_\discretionary {\unhbox \voidb@x \hbox {\relax \fontsize  {7}{8}\selectfont  $\DOTSB \leftarrow \joinrel  \rhook $}}{}{}mul()}{40}{paragraph.3.7.2.9}\protected@file@percent }
\newlabel{group__Multiplication_ga9120eea02a0dfe3db24a41801f30fd52}{{3.7.2.9}{40}{\texorpdfstring {\+\_\+mzed\+\_\+mul()}{\_mzed\_mul()}}{table.73}{}}
\@writefile{toc}{\contentsline {paragraph}{\numberline {3.7.2.10}\discretionary {\unhbox \voidb@x \hbox {\relax \fontsize  {7}{8}\selectfont  $\DOTSB \leftarrow \joinrel  \rhook $}}{}{}\_\discretionary {\unhbox \voidb@x \hbox {\relax \fontsize  {7}{8}\selectfont  $\DOTSB \leftarrow \joinrel  \rhook $}}{}{}mzed\discretionary {\unhbox \voidb@x \hbox {\relax \fontsize  {7}{8}\selectfont  $\DOTSB \leftarrow \joinrel  \rhook $}}{}{}\_\discretionary {\unhbox \voidb@x \hbox {\relax \fontsize  {7}{8}\selectfont  $\DOTSB \leftarrow \joinrel  \rhook $}}{}{}mul\discretionary {\unhbox \voidb@x \hbox {\relax \fontsize  {7}{8}\selectfont  $\DOTSB \leftarrow \joinrel  \rhook $}}{}{}\_\discretionary {\unhbox \voidb@x \hbox {\relax \fontsize  {7}{8}\selectfont  $\DOTSB \leftarrow \joinrel  \rhook $}}{}{}naive()}{40}{paragraph.3.7.2.10}\protected@file@percent }
\newlabel{group__Multiplication_gac5bbcb5d659ead7a150ac6cd75311132}{{3.7.2.10}{40}{\texorpdfstring {\+\_\+mzed\+\_\+mul\+\_\+naive()}{\_mzed\_mul\_naive()}}{table.74}{}}
\@writefile{toc}{\contentsline {paragraph}{\numberline {3.7.2.11}\discretionary {\unhbox \voidb@x \hbox {\relax \fontsize  {7}{8}\selectfont  $\DOTSB \leftarrow \joinrel  \rhook $}}{}{}\_\discretionary {\unhbox \voidb@x \hbox {\relax \fontsize  {7}{8}\selectfont  $\DOTSB \leftarrow \joinrel  \rhook $}}{}{}mzed\discretionary {\unhbox \voidb@x \hbox {\relax \fontsize  {7}{8}\selectfont  $\DOTSB \leftarrow \joinrel  \rhook $}}{}{}\_\discretionary {\unhbox \voidb@x \hbox {\relax \fontsize  {7}{8}\selectfont  $\DOTSB \leftarrow \joinrel  \rhook $}}{}{}mul\discretionary {\unhbox \voidb@x \hbox {\relax \fontsize  {7}{8}\selectfont  $\DOTSB \leftarrow \joinrel  \rhook $}}{}{}\_\discretionary {\unhbox \voidb@x \hbox {\relax \fontsize  {7}{8}\selectfont  $\DOTSB \leftarrow \joinrel  \rhook $}}{}{}newton\discretionary {\unhbox \voidb@x \hbox {\relax \fontsize  {7}{8}\selectfont  $\DOTSB \leftarrow \joinrel  \rhook $}}{}{}\_\discretionary {\unhbox \voidb@x \hbox {\relax \fontsize  {7}{8}\selectfont  $\DOTSB \leftarrow \joinrel  \rhook $}}{}{}john()}{40}{paragraph.3.7.2.11}\protected@file@percent }
\gdef \LT@lxxv {\LT@entry 
    {3}{19.29791pt}\LT@entry 
    {3}{124.57358pt}}
\gdef \LT@lxxvi {\LT@entry 
    {3}{19.29791pt}\LT@entry 
    {3}{124.57358pt}}
\gdef \LT@lxxvii {\LT@entry 
    {3}{34.81357pt}\LT@entry 
    {3}{170.37611pt}}
\newlabel{group__Multiplication_ga4163ba1fafa7177c8e2ab3b07db2af8f}{{3.7.2.11}{41}{\texorpdfstring {\+\_\+mzed\+\_\+mul\+\_\+newton\+\_\+john()}{\_mzed\_mul\_newton\_john()}}{table.75}{}}
\@writefile{toc}{\contentsline {paragraph}{\numberline {3.7.2.12}\discretionary {\unhbox \voidb@x \hbox {\relax \fontsize  {7}{8}\selectfont  $\DOTSB \leftarrow \joinrel  \rhook $}}{}{}\_\discretionary {\unhbox \voidb@x \hbox {\relax \fontsize  {7}{8}\selectfont  $\DOTSB \leftarrow \joinrel  \rhook $}}{}{}mzed\discretionary {\unhbox \voidb@x \hbox {\relax \fontsize  {7}{8}\selectfont  $\DOTSB \leftarrow \joinrel  \rhook $}}{}{}\_\discretionary {\unhbox \voidb@x \hbox {\relax \fontsize  {7}{8}\selectfont  $\DOTSB \leftarrow \joinrel  \rhook $}}{}{}mul\discretionary {\unhbox \voidb@x \hbox {\relax \fontsize  {7}{8}\selectfont  $\DOTSB \leftarrow \joinrel  \rhook $}}{}{}\_\discretionary {\unhbox \voidb@x \hbox {\relax \fontsize  {7}{8}\selectfont  $\DOTSB \leftarrow \joinrel  \rhook $}}{}{}newton\discretionary {\unhbox \voidb@x \hbox {\relax \fontsize  {7}{8}\selectfont  $\DOTSB \leftarrow \joinrel  \rhook $}}{}{}\_\discretionary {\unhbox \voidb@x \hbox {\relax \fontsize  {7}{8}\selectfont  $\DOTSB \leftarrow \joinrel  \rhook $}}{}{}john0()}{41}{paragraph.3.7.2.12}\protected@file@percent }
\newlabel{group__Multiplication_gac816003856572d650cabd6506968ed7b}{{3.7.2.12}{41}{\texorpdfstring {\+\_\+mzed\+\_\+mul\+\_\+newton\+\_\+john0()}{\_mzed\_mul\_newton\_john0()}}{table.76}{}}
\@writefile{toc}{\contentsline {paragraph}{\numberline {3.7.2.13}\discretionary {\unhbox \voidb@x \hbox {\relax \fontsize  {7}{8}\selectfont  $\DOTSB \leftarrow \joinrel  \rhook $}}{}{}\_\discretionary {\unhbox \voidb@x \hbox {\relax \fontsize  {7}{8}\selectfont  $\DOTSB \leftarrow \joinrel  \rhook $}}{}{}mzed\discretionary {\unhbox \voidb@x \hbox {\relax \fontsize  {7}{8}\selectfont  $\DOTSB \leftarrow \joinrel  \rhook $}}{}{}\_\discretionary {\unhbox \voidb@x \hbox {\relax \fontsize  {7}{8}\selectfont  $\DOTSB \leftarrow \joinrel  \rhook $}}{}{}mul\discretionary {\unhbox \voidb@x \hbox {\relax \fontsize  {7}{8}\selectfont  $\DOTSB \leftarrow \joinrel  \rhook $}}{}{}\_\discretionary {\unhbox \voidb@x \hbox {\relax \fontsize  {7}{8}\selectfont  $\DOTSB \leftarrow \joinrel  \rhook $}}{}{}strassen()}{41}{paragraph.3.7.2.13}\protected@file@percent }
\gdef \LT@lxxviii {\LT@entry 
    {3}{19.29791pt}\LT@entry 
    {3}{75.76764pt}}
\gdef \LT@lxxix {\LT@entry 
    {3}{19.29791pt}\LT@entry 
    {3}{118.29163pt}}
\newlabel{group__Multiplication_ga92b33a49698b13cc179b5cfe69674dd8}{{3.7.2.13}{42}{\texorpdfstring {\+\_\+mzed\+\_\+mul\+\_\+strassen()}{\_mzed\_mul\_strassen()}}{table.77}{}}
\@writefile{toc}{\contentsline {paragraph}{\numberline {3.7.2.14}\discretionary {\unhbox \voidb@x \hbox {\relax \fontsize  {7}{8}\selectfont  $\DOTSB \leftarrow \joinrel  \rhook $}}{}{}\_\discretionary {\unhbox \voidb@x \hbox {\relax \fontsize  {7}{8}\selectfont  $\DOTSB \leftarrow \joinrel  \rhook $}}{}{}mzed\discretionary {\unhbox \voidb@x \hbox {\relax \fontsize  {7}{8}\selectfont  $\DOTSB \leftarrow \joinrel  \rhook $}}{}{}\_\discretionary {\unhbox \voidb@x \hbox {\relax \fontsize  {7}{8}\selectfont  $\DOTSB \leftarrow \joinrel  \rhook $}}{}{}strassen\discretionary {\unhbox \voidb@x \hbox {\relax \fontsize  {7}{8}\selectfont  $\DOTSB \leftarrow \joinrel  \rhook $}}{}{}\_\discretionary {\unhbox \voidb@x \hbox {\relax \fontsize  {7}{8}\selectfont  $\DOTSB \leftarrow \joinrel  \rhook $}}{}{}cutoff()}{42}{paragraph.3.7.2.14}\protected@file@percent }
\newlabel{group__Multiplication_gaf9442c84b742ece825741b19b5d84d5f}{{3.7.2.14}{42}{\texorpdfstring {\+\_\+mzed\+\_\+strassen\+\_\+cutoff()}{\_mzed\_strassen\_cutoff()}}{table.78}{}}
\@writefile{toc}{\contentsline {paragraph}{\numberline {3.7.2.15}mzd\discretionary {\unhbox \voidb@x \hbox {\relax \fontsize  {7}{8}\selectfont  $\DOTSB \leftarrow \joinrel  \rhook $}}{}{}\_\discretionary {\unhbox \voidb@x \hbox {\relax \fontsize  {7}{8}\selectfont  $\DOTSB \leftarrow \joinrel  \rhook $}}{}{}slice\discretionary {\unhbox \voidb@x \hbox {\relax \fontsize  {7}{8}\selectfont  $\DOTSB \leftarrow \joinrel  \rhook $}}{}{}\_\discretionary {\unhbox \voidb@x \hbox {\relax \fontsize  {7}{8}\selectfont  $\DOTSB \leftarrow \joinrel  \rhook $}}{}{}addmul()}{42}{paragraph.3.7.2.15}\protected@file@percent }
\newlabel{group__Multiplication_ga859c48ed287becc0940a00f6a99e9dfc}{{3.7.2.15}{42}{\texorpdfstring {mzd\+\_\+slice\+\_\+addmul()}{mzd\_slice\_addmul()}}{table.79}{}}
\@writefile{toc}{\contentsline {paragraph}{\numberline {3.7.2.16}mzd\discretionary {\unhbox \voidb@x \hbox {\relax \fontsize  {7}{8}\selectfont  $\DOTSB \leftarrow \joinrel  \rhook $}}{}{}\_\discretionary {\unhbox \voidb@x \hbox {\relax \fontsize  {7}{8}\selectfont  $\DOTSB \leftarrow \joinrel  \rhook $}}{}{}slice\discretionary {\unhbox \voidb@x \hbox {\relax \fontsize  {7}{8}\selectfont  $\DOTSB \leftarrow \joinrel  \rhook $}}{}{}\_\discretionary {\unhbox \voidb@x \hbox {\relax \fontsize  {7}{8}\selectfont  $\DOTSB \leftarrow \joinrel  \rhook $}}{}{}addmul\discretionary {\unhbox \voidb@x \hbox {\relax \fontsize  {7}{8}\selectfont  $\DOTSB \leftarrow \joinrel  \rhook $}}{}{}\_\discretionary {\unhbox \voidb@x \hbox {\relax \fontsize  {7}{8}\selectfont  $\DOTSB \leftarrow \joinrel  \rhook $}}{}{}blm()}{42}{paragraph.3.7.2.16}\protected@file@percent }
\gdef \LT@lxxx {\LT@entry 
    {3}{19.29791pt}\LT@entry 
    {3}{375.31467pt}}
\gdef \LT@lxxxi {\LT@entry 
    {3}{19.29791pt}\LT@entry 
    {3}{118.29163pt}}
\gdef \LT@lxxxii {\LT@entry 
    {3}{19.29791pt}\LT@entry 
    {3}{124.57358pt}}
\newlabel{group__Multiplication_gae18698a26c9219ec51246ff96785f615}{{3.7.2.16}{43}{\texorpdfstring {mzd\+\_\+slice\+\_\+addmul\+\_\+blm()}{mzd\_slice\_addmul\_blm()}}{table.80}{}}
\@writefile{toc}{\contentsline {paragraph}{\numberline {3.7.2.17}mzd\discretionary {\unhbox \voidb@x \hbox {\relax \fontsize  {7}{8}\selectfont  $\DOTSB \leftarrow \joinrel  \rhook $}}{}{}\_\discretionary {\unhbox \voidb@x \hbox {\relax \fontsize  {7}{8}\selectfont  $\DOTSB \leftarrow \joinrel  \rhook $}}{}{}slice\discretionary {\unhbox \voidb@x \hbox {\relax \fontsize  {7}{8}\selectfont  $\DOTSB \leftarrow \joinrel  \rhook $}}{}{}\_\discretionary {\unhbox \voidb@x \hbox {\relax \fontsize  {7}{8}\selectfont  $\DOTSB \leftarrow \joinrel  \rhook $}}{}{}addmul\discretionary {\unhbox \voidb@x \hbox {\relax \fontsize  {7}{8}\selectfont  $\DOTSB \leftarrow \joinrel  \rhook $}}{}{}\_\discretionary {\unhbox \voidb@x \hbox {\relax \fontsize  {7}{8}\selectfont  $\DOTSB \leftarrow \joinrel  \rhook $}}{}{}karatsuba()}{43}{paragraph.3.7.2.17}\protected@file@percent }
\newlabel{group__Multiplication_ga73d06daa4c77029b1510987e5c8e7131}{{3.7.2.17}{43}{\texorpdfstring {mzd\+\_\+slice\+\_\+addmul\+\_\+karatsuba()}{mzd\_slice\_addmul\_karatsuba()}}{table.81}{}}
\@writefile{toc}{\contentsline {paragraph}{\numberline {3.7.2.18}mzd\discretionary {\unhbox \voidb@x \hbox {\relax \fontsize  {7}{8}\selectfont  $\DOTSB \leftarrow \joinrel  \rhook $}}{}{}\_\discretionary {\unhbox \voidb@x \hbox {\relax \fontsize  {7}{8}\selectfont  $\DOTSB \leftarrow \joinrel  \rhook $}}{}{}slice\discretionary {\unhbox \voidb@x \hbox {\relax \fontsize  {7}{8}\selectfont  $\DOTSB \leftarrow \joinrel  \rhook $}}{}{}\_\discretionary {\unhbox \voidb@x \hbox {\relax \fontsize  {7}{8}\selectfont  $\DOTSB \leftarrow \joinrel  \rhook $}}{}{}addmul\discretionary {\unhbox \voidb@x \hbox {\relax \fontsize  {7}{8}\selectfont  $\DOTSB \leftarrow \joinrel  \rhook $}}{}{}\_\discretionary {\unhbox \voidb@x \hbox {\relax \fontsize  {7}{8}\selectfont  $\DOTSB \leftarrow \joinrel  \rhook $}}{}{}scalar()}{43}{paragraph.3.7.2.18}\protected@file@percent }
\newlabel{group__Multiplication_ga4c2446691c93841bf6f73692f5df7b9b}{{3.7.2.18}{43}{\texorpdfstring {mzd\+\_\+slice\+\_\+addmul\+\_\+scalar()}{mzd\_slice\_addmul\_scalar()}}{table.82}{}}
\gdef \LT@lxxxiii {\LT@entry 
    {3}{19.29791pt}\LT@entry 
    {3}{266.80658pt}}
\gdef \LT@lxxxiv {\LT@entry 
    {3}{19.29791pt}\LT@entry 
    {3}{358.55704pt}}
\@writefile{toc}{\contentsline {paragraph}{\numberline {3.7.2.19}mzd\discretionary {\unhbox \voidb@x \hbox {\relax \fontsize  {7}{8}\selectfont  $\DOTSB \leftarrow \joinrel  \rhook $}}{}{}\_\discretionary {\unhbox \voidb@x \hbox {\relax \fontsize  {7}{8}\selectfont  $\DOTSB \leftarrow \joinrel  \rhook $}}{}{}slice\discretionary {\unhbox \voidb@x \hbox {\relax \fontsize  {7}{8}\selectfont  $\DOTSB \leftarrow \joinrel  \rhook $}}{}{}\_\discretionary {\unhbox \voidb@x \hbox {\relax \fontsize  {7}{8}\selectfont  $\DOTSB \leftarrow \joinrel  \rhook $}}{}{}mul()}{44}{paragraph.3.7.2.19}\protected@file@percent }
\newlabel{group__Multiplication_gac43c76fe294a0178ad6e86401919abd2}{{3.7.2.19}{44}{\texorpdfstring {mzd\+\_\+slice\+\_\+mul()}{mzd\_slice\_mul()}}{table.83}{}}
\@writefile{toc}{\contentsline {paragraph}{\numberline {3.7.2.20}mzd\discretionary {\unhbox \voidb@x \hbox {\relax \fontsize  {7}{8}\selectfont  $\DOTSB \leftarrow \joinrel  \rhook $}}{}{}\_\discretionary {\unhbox \voidb@x \hbox {\relax \fontsize  {7}{8}\selectfont  $\DOTSB \leftarrow \joinrel  \rhook $}}{}{}slice\discretionary {\unhbox \voidb@x \hbox {\relax \fontsize  {7}{8}\selectfont  $\DOTSB \leftarrow \joinrel  \rhook $}}{}{}\_\discretionary {\unhbox \voidb@x \hbox {\relax \fontsize  {7}{8}\selectfont  $\DOTSB \leftarrow \joinrel  \rhook $}}{}{}mul\discretionary {\unhbox \voidb@x \hbox {\relax \fontsize  {7}{8}\selectfont  $\DOTSB \leftarrow \joinrel  \rhook $}}{}{}\_\discretionary {\unhbox \voidb@x \hbox {\relax \fontsize  {7}{8}\selectfont  $\DOTSB \leftarrow \joinrel  \rhook $}}{}{}blm()}{44}{paragraph.3.7.2.20}\protected@file@percent }
\newlabel{group__Multiplication_ga90f6f9112592cfebc95bbf2bc00249ca}{{3.7.2.20}{44}{\texorpdfstring {mzd\+\_\+slice\+\_\+mul\+\_\+blm()}{mzd\_slice\_mul\_blm()}}{table.84}{}}
\@writefile{toc}{\contentsline {paragraph}{\numberline {3.7.2.21}mzd\discretionary {\unhbox \voidb@x \hbox {\relax \fontsize  {7}{8}\selectfont  $\DOTSB \leftarrow \joinrel  \rhook $}}{}{}\_\discretionary {\unhbox \voidb@x \hbox {\relax \fontsize  {7}{8}\selectfont  $\DOTSB \leftarrow \joinrel  \rhook $}}{}{}slice\discretionary {\unhbox \voidb@x \hbox {\relax \fontsize  {7}{8}\selectfont  $\DOTSB \leftarrow \joinrel  \rhook $}}{}{}\_\discretionary {\unhbox \voidb@x \hbox {\relax \fontsize  {7}{8}\selectfont  $\DOTSB \leftarrow \joinrel  \rhook $}}{}{}mul\discretionary {\unhbox \voidb@x \hbox {\relax \fontsize  {7}{8}\selectfont  $\DOTSB \leftarrow \joinrel  \rhook $}}{}{}\_\discretionary {\unhbox \voidb@x \hbox {\relax \fontsize  {7}{8}\selectfont  $\DOTSB \leftarrow \joinrel  \rhook $}}{}{}karatsuba()}{44}{paragraph.3.7.2.21}\protected@file@percent }
\gdef \LT@lxxxv {\LT@entry 
    {3}{19.29791pt}\LT@entry 
    {3}{266.80658pt}}
\gdef \LT@lxxxvi {\LT@entry 
    {3}{19.29791pt}\LT@entry 
    {3}{160.58186pt}}
\gdef \LT@lxxxvii {\LT@entry 
    {3}{19.29791pt}\LT@entry 
    {3}{273.08853pt}}
\newlabel{group__Multiplication_gaa7ff174575a4e9e7693225485d450f7c}{{3.7.2.21}{45}{\texorpdfstring {mzd\+\_\+slice\+\_\+mul\+\_\+karatsuba()}{mzd\_slice\_mul\_karatsuba()}}{table.85}{}}
\@writefile{toc}{\contentsline {paragraph}{\numberline {3.7.2.22}mzd\discretionary {\unhbox \voidb@x \hbox {\relax \fontsize  {7}{8}\selectfont  $\DOTSB \leftarrow \joinrel  \rhook $}}{}{}\_\discretionary {\unhbox \voidb@x \hbox {\relax \fontsize  {7}{8}\selectfont  $\DOTSB \leftarrow \joinrel  \rhook $}}{}{}slice\discretionary {\unhbox \voidb@x \hbox {\relax \fontsize  {7}{8}\selectfont  $\DOTSB \leftarrow \joinrel  \rhook $}}{}{}\_\discretionary {\unhbox \voidb@x \hbox {\relax \fontsize  {7}{8}\selectfont  $\DOTSB \leftarrow \joinrel  \rhook $}}{}{}mul\discretionary {\unhbox \voidb@x \hbox {\relax \fontsize  {7}{8}\selectfont  $\DOTSB \leftarrow \joinrel  \rhook $}}{}{}\_\discretionary {\unhbox \voidb@x \hbox {\relax \fontsize  {7}{8}\selectfont  $\DOTSB \leftarrow \joinrel  \rhook $}}{}{}scalar()}{45}{paragraph.3.7.2.22}\protected@file@percent }
\newlabel{group__Multiplication_ga64eb5b42c7fae5300469b0b0c0e677fa}{{3.7.2.22}{45}{\texorpdfstring {mzd\+\_\+slice\+\_\+mul\+\_\+scalar()}{mzd\_slice\_mul\_scalar()}}{table.86}{}}
\@writefile{toc}{\contentsline {paragraph}{\numberline {3.7.2.23}mzed\discretionary {\unhbox \voidb@x \hbox {\relax \fontsize  {7}{8}\selectfont  $\DOTSB \leftarrow \joinrel  \rhook $}}{}{}\_\discretionary {\unhbox \voidb@x \hbox {\relax \fontsize  {7}{8}\selectfont  $\DOTSB \leftarrow \joinrel  \rhook $}}{}{}addmul()}{45}{paragraph.3.7.2.23}\protected@file@percent }
\newlabel{group__Multiplication_gae1c5439ebd07bb88734da14a4ff1cfd0}{{3.7.2.23}{45}{\texorpdfstring {mzed\+\_\+addmul()}{mzed\_addmul()}}{table.87}{}}
\@writefile{toc}{\contentsline {paragraph}{\numberline {3.7.2.24}mzed\discretionary {\unhbox \voidb@x \hbox {\relax \fontsize  {7}{8}\selectfont  $\DOTSB \leftarrow \joinrel  \rhook $}}{}{}\_\discretionary {\unhbox \voidb@x \hbox {\relax \fontsize  {7}{8}\selectfont  $\DOTSB \leftarrow \joinrel  \rhook $}}{}{}addmul\discretionary {\unhbox \voidb@x \hbox {\relax \fontsize  {7}{8}\selectfont  $\DOTSB \leftarrow \joinrel  \rhook $}}{}{}\_\discretionary {\unhbox \voidb@x \hbox {\relax \fontsize  {7}{8}\selectfont  $\DOTSB \leftarrow \joinrel  \rhook $}}{}{}naive()}{45}{paragraph.3.7.2.24}\protected@file@percent }
\gdef \LT@lxxxviii {\LT@entry 
    {3}{19.29791pt}\LT@entry 
    {3}{124.57358pt}}
\gdef \LT@lxxxix {\LT@entry 
    {3}{19.29791pt}\LT@entry 
    {3}{273.08853pt}}
\newlabel{group__Multiplication_ga99333a162d30006a3348bccd4bb2042e}{{3.7.2.24}{46}{\texorpdfstring {mzed\+\_\+addmul\+\_\+naive()}{mzed\_addmul\_naive()}}{table.88}{}}
\@writefile{toc}{\contentsline {paragraph}{\numberline {3.7.2.25}mzed\discretionary {\unhbox \voidb@x \hbox {\relax \fontsize  {7}{8}\selectfont  $\DOTSB \leftarrow \joinrel  \rhook $}}{}{}\_\discretionary {\unhbox \voidb@x \hbox {\relax \fontsize  {7}{8}\selectfont  $\DOTSB \leftarrow \joinrel  \rhook $}}{}{}addmul\discretionary {\unhbox \voidb@x \hbox {\relax \fontsize  {7}{8}\selectfont  $\DOTSB \leftarrow \joinrel  \rhook $}}{}{}\_\discretionary {\unhbox \voidb@x \hbox {\relax \fontsize  {7}{8}\selectfont  $\DOTSB \leftarrow \joinrel  \rhook $}}{}{}newton\discretionary {\unhbox \voidb@x \hbox {\relax \fontsize  {7}{8}\selectfont  $\DOTSB \leftarrow \joinrel  \rhook $}}{}{}\_\discretionary {\unhbox \voidb@x \hbox {\relax \fontsize  {7}{8}\selectfont  $\DOTSB \leftarrow \joinrel  \rhook $}}{}{}john()}{46}{paragraph.3.7.2.25}\protected@file@percent }
\newlabel{group__Multiplication_ga681444345eaeae6354c2b116db562185}{{3.7.2.25}{46}{\texorpdfstring {mzed\+\_\+addmul\+\_\+newton\+\_\+john()}{mzed\_addmul\_newton\_john()}}{table.89}{}}
\@writefile{toc}{\contentsline {paragraph}{\numberline {3.7.2.26}mzed\discretionary {\unhbox \voidb@x \hbox {\relax \fontsize  {7}{8}\selectfont  $\DOTSB \leftarrow \joinrel  \rhook $}}{}{}\_\discretionary {\unhbox \voidb@x \hbox {\relax \fontsize  {7}{8}\selectfont  $\DOTSB \leftarrow \joinrel  \rhook $}}{}{}addmul\discretionary {\unhbox \voidb@x \hbox {\relax \fontsize  {7}{8}\selectfont  $\DOTSB \leftarrow \joinrel  \rhook $}}{}{}\_\discretionary {\unhbox \voidb@x \hbox {\relax \fontsize  {7}{8}\selectfont  $\DOTSB \leftarrow \joinrel  \rhook $}}{}{}strassen()}{46}{paragraph.3.7.2.26}\protected@file@percent }
\gdef \LT@xc {\LT@entry 
    {3}{34.81357pt}\LT@entry 
    {3}{268.14099pt}}
\gdef \LT@xci {\LT@entry 
    {3}{19.29791pt}\LT@entry 
    {3}{266.80658pt}}
\gdef \LT@xcii {\LT@entry 
    {3}{19.29791pt}\LT@entry 
    {3}{273.08853pt}}
\newlabel{group__Multiplication_ga15872c07702cd45d1a0fec627919ae16}{{3.7.2.26}{47}{\texorpdfstring {mzed\+\_\+addmul\+\_\+strassen()}{mzed\_addmul\_strassen()}}{table.90}{}}
\@writefile{toc}{\contentsline {paragraph}{\numberline {3.7.2.27}mzed\discretionary {\unhbox \voidb@x \hbox {\relax \fontsize  {7}{8}\selectfont  $\DOTSB \leftarrow \joinrel  \rhook $}}{}{}\_\discretionary {\unhbox \voidb@x \hbox {\relax \fontsize  {7}{8}\selectfont  $\DOTSB \leftarrow \joinrel  \rhook $}}{}{}mul()}{47}{paragraph.3.7.2.27}\protected@file@percent }
\newlabel{group__Multiplication_gae529c70053e276cbabcb1824e8ccf6de}{{3.7.2.27}{47}{\texorpdfstring {mzed\+\_\+mul()}{mzed\_mul()}}{table.91}{}}
\@writefile{toc}{\contentsline {paragraph}{\numberline {3.7.2.28}mzed\discretionary {\unhbox \voidb@x \hbox {\relax \fontsize  {7}{8}\selectfont  $\DOTSB \leftarrow \joinrel  \rhook $}}{}{}\_\discretionary {\unhbox \voidb@x \hbox {\relax \fontsize  {7}{8}\selectfont  $\DOTSB \leftarrow \joinrel  \rhook $}}{}{}mul\discretionary {\unhbox \voidb@x \hbox {\relax \fontsize  {7}{8}\selectfont  $\DOTSB \leftarrow \joinrel  \rhook $}}{}{}\_\discretionary {\unhbox \voidb@x \hbox {\relax \fontsize  {7}{8}\selectfont  $\DOTSB \leftarrow \joinrel  \rhook $}}{}{}naive()}{47}{paragraph.3.7.2.28}\protected@file@percent }
\newlabel{group__Multiplication_gacdbcfe3c329e99fa854eb092412982e0}{{3.7.2.28}{47}{\texorpdfstring {mzed\+\_\+mul\+\_\+naive()}{mzed\_mul\_naive()}}{table.92}{}}
\@writefile{toc}{\contentsline {paragraph}{\numberline {3.7.2.29}mzed\discretionary {\unhbox \voidb@x \hbox {\relax \fontsize  {7}{8}\selectfont  $\DOTSB \leftarrow \joinrel  \rhook $}}{}{}\_\discretionary {\unhbox \voidb@x \hbox {\relax \fontsize  {7}{8}\selectfont  $\DOTSB \leftarrow \joinrel  \rhook $}}{}{}mul\discretionary {\unhbox \voidb@x \hbox {\relax \fontsize  {7}{8}\selectfont  $\DOTSB \leftarrow \joinrel  \rhook $}}{}{}\_\discretionary {\unhbox \voidb@x \hbox {\relax \fontsize  {7}{8}\selectfont  $\DOTSB \leftarrow \joinrel  \rhook $}}{}{}newton\discretionary {\unhbox \voidb@x \hbox {\relax \fontsize  {7}{8}\selectfont  $\DOTSB \leftarrow \joinrel  \rhook $}}{}{}\_\discretionary {\unhbox \voidb@x \hbox {\relax \fontsize  {7}{8}\selectfont  $\DOTSB \leftarrow \joinrel  \rhook $}}{}{}john()}{47}{paragraph.3.7.2.29}\protected@file@percent }
\gdef \LT@xciii {\LT@entry 
    {3}{19.29791pt}\LT@entry 
    {3}{266.80658pt}}
\gdef \LT@xciv {\LT@entry 
    {3}{19.29791pt}\LT@entry 
    {3}{160.58186pt}}
\newlabel{group__Multiplication_ga98337471b042780f621232f233242037}{{3.7.2.29}{48}{\texorpdfstring {mzed\+\_\+mul\+\_\+newton\+\_\+john()}{mzed\_mul\_newton\_john()}}{table.93}{}}
\@writefile{toc}{\contentsline {paragraph}{\numberline {3.7.2.30}mzed\discretionary {\unhbox \voidb@x \hbox {\relax \fontsize  {7}{8}\selectfont  $\DOTSB \leftarrow \joinrel  \rhook $}}{}{}\_\discretionary {\unhbox \voidb@x \hbox {\relax \fontsize  {7}{8}\selectfont  $\DOTSB \leftarrow \joinrel  \rhook $}}{}{}mul\discretionary {\unhbox \voidb@x \hbox {\relax \fontsize  {7}{8}\selectfont  $\DOTSB \leftarrow \joinrel  \rhook $}}{}{}\_\discretionary {\unhbox \voidb@x \hbox {\relax \fontsize  {7}{8}\selectfont  $\DOTSB \leftarrow \joinrel  \rhook $}}{}{}scalar()}{48}{paragraph.3.7.2.30}\protected@file@percent }
\newlabel{group__Multiplication_gac57acf4a2307e9fdba3883e82563ec7b}{{3.7.2.30}{48}{\texorpdfstring {mzed\+\_\+mul\+\_\+scalar()}{mzed\_mul\_scalar()}}{table.94}{}}
\@writefile{toc}{\contentsline {paragraph}{\numberline {3.7.2.31}mzed\discretionary {\unhbox \voidb@x \hbox {\relax \fontsize  {7}{8}\selectfont  $\DOTSB \leftarrow \joinrel  \rhook $}}{}{}\_\discretionary {\unhbox \voidb@x \hbox {\relax \fontsize  {7}{8}\selectfont  $\DOTSB \leftarrow \joinrel  \rhook $}}{}{}mul\discretionary {\unhbox \voidb@x \hbox {\relax \fontsize  {7}{8}\selectfont  $\DOTSB \leftarrow \joinrel  \rhook $}}{}{}\_\discretionary {\unhbox \voidb@x \hbox {\relax \fontsize  {7}{8}\selectfont  $\DOTSB \leftarrow \joinrel  \rhook $}}{}{}strassen()}{48}{paragraph.3.7.2.31}\protected@file@percent }
\gdef \LT@xcv {\LT@entry 
    {3}{34.81357pt}\LT@entry 
    {3}{265.77402pt}}
\@setckpt{group__Multiplication}{
\setcounter{page}{50}
\setcounter{equation}{0}
\setcounter{enumi}{0}
\setcounter{enumii}{0}
\setcounter{enumiii}{0}
\setcounter{enumiv}{0}
\setcounter{footnote}{0}
\setcounter{mpfootnote}{0}
\setcounter{part}{0}
\setcounter{section}{3}
\setcounter{subsection}{7}
\setcounter{subsubsection}{2}
\setcounter{paragraph}{31}
\setcounter{subparagraph}{0}
\setcounter{figure}{0}
\setcounter{table}{95}
\setcounter{float@type}{4}
\setcounter{LT@tables}{95}
\setcounter{LT@chunks}{3}
\setcounter{NAT@ctr}{0}
\setcounter{lofdepth}{1}
\setcounter{lotdepth}{1}
\setcounter{parentequation}{0}
\setcounter{Item}{0}
\setcounter{Hfootnote}{0}
\setcounter{bookmark@seq@number}{24}
\setcounter{caption@flags}{0}
\setcounter{ContinuedFloat}{0}
\setcounter{section@level}{4}
}
