\relax 
\providecommand\hyper@newdestlabel[2]{}
\gdef \LT@liii {\LT@entry 
    {3}{18.80287pt}\LT@entry 
    {3}{37.03246pt}}
\gdef \LT@liv {\LT@entry 
    {3}{20.29689pt}\LT@entry 
    {3}{37.03246pt}}
\@writefile{toc}{\contentsline {subsection}{\numberline {3.5}String conversions and I/O}{29}{subsection.3.5}\protected@file@percent }
\newlabel{group__StringConversions}{{3.5}{29}{String conversions and I/O}{subsection.3.5}{}}
\@writefile{toc}{\contentsline {subsubsection}{\numberline {3.5.1}Detailed Description}{29}{subsubsection.3.5.1}\protected@file@percent }
\@writefile{toc}{\contentsline {subsubsection}{\numberline {3.5.2}Function Documentation}{29}{subsubsection.3.5.2}\protected@file@percent }
\newlabel{group__StringConversions_gafca673f0b53f8f4a9ec5f642744ed340}{{3.5.2}{29}{Function Documentation}{subsubsection.3.5.2}{}}
\@writefile{toc}{\contentsline {paragraph}{\numberline {3.5.2.1}mzd\discretionary {\unhbox \voidb@x \hbox {\relax \fontsize  {7}{8}\selectfont  $\DOTSB \leftarrow \joinrel  \rhook $}}{}{}\_\discretionary {\unhbox \voidb@x \hbox {\relax \fontsize  {7}{8}\selectfont  $\DOTSB \leftarrow \joinrel  \rhook $}}{}{}slice\discretionary {\unhbox \voidb@x \hbox {\relax \fontsize  {7}{8}\selectfont  $\DOTSB \leftarrow \joinrel  \rhook $}}{}{}\_\discretionary {\unhbox \voidb@x \hbox {\relax \fontsize  {7}{8}\selectfont  $\DOTSB \leftarrow \joinrel  \rhook $}}{}{}print()}{29}{paragraph.3.5.2.1}\protected@file@percent }
\newlabel{group__StringConversions_gad5a286dc3a9f2ba13e1df8e361b285f8}{{3.5.2.1}{29}{\texorpdfstring {mzd\+\_\+slice\+\_\+print()}{mzd\_slice\_print()}}{table.53}{}}
\@writefile{toc}{\contentsline {paragraph}{\numberline {3.5.2.2}mzed\discretionary {\unhbox \voidb@x \hbox {\relax \fontsize  {7}{8}\selectfont  $\DOTSB \leftarrow \joinrel  \rhook $}}{}{}\_\discretionary {\unhbox \voidb@x \hbox {\relax \fontsize  {7}{8}\selectfont  $\DOTSB \leftarrow \joinrel  \rhook $}}{}{}print()}{29}{paragraph.3.5.2.2}\protected@file@percent }
\@setckpt{group__StringConversions}{
\setcounter{page}{30}
\setcounter{equation}{0}
\setcounter{enumi}{0}
\setcounter{enumii}{0}
\setcounter{enumiii}{0}
\setcounter{enumiv}{0}
\setcounter{footnote}{0}
\setcounter{mpfootnote}{0}
\setcounter{part}{0}
\setcounter{section}{3}
\setcounter{subsection}{5}
\setcounter{subsubsection}{2}
\setcounter{paragraph}{2}
\setcounter{subparagraph}{0}
\setcounter{figure}{0}
\setcounter{table}{54}
\setcounter{float@type}{4}
\setcounter{LT@tables}{54}
\setcounter{LT@chunks}{3}
\setcounter{NAT@ctr}{0}
\setcounter{lofdepth}{1}
\setcounter{lotdepth}{1}
\setcounter{parentequation}{0}
\setcounter{Item}{0}
\setcounter{Hfootnote}{0}
\setcounter{bookmark@seq@number}{17}
\setcounter{caption@flags}{0}
\setcounter{ContinuedFloat}{0}
\setcounter{section@level}{4}
}
