\relax 
\providecommand\hyper@newdestlabel[2]{}
\gdef \LT@xcvi {\LT@entry 
    {3}{34.81357pt}\LT@entry 
    {3}{167.55872pt}}
\@writefile{toc}{\contentsline {subsection}{\numberline {3.8}P\discretionary {\unhbox \voidb@x \hbox {\relax \fontsize  {7}{8}\selectfont  $\DOTSB \leftarrow \joinrel  \rhook $}}{}{}LE and P\discretionary {\unhbox \voidb@x \hbox {\relax \fontsize  {7}{8}\selectfont  $\DOTSB \leftarrow \joinrel  \rhook $}}{}{}L\discretionary {\unhbox \voidb@x \hbox {\relax \fontsize  {7}{8}\selectfont  $\DOTSB \leftarrow \joinrel  \rhook $}}{}{}UQ decomposition}{50}{subsection.3.8}\protected@file@percent }
\newlabel{group__PLE}{{3.8}{50}{P\+LE and P\+L\+UQ decomposition}{subsection.3.8}{}}
\newlabel{group__PLE_ga4d6cca013a726970a518e488473c534f}{{3.8}{50}{Functions}{section*.10}{}}
\@writefile{toc}{\contentsline {subsubsection}{\numberline {3.8.1}Detailed Description}{50}{subsubsection.3.8.1}\protected@file@percent }
\@writefile{toc}{\contentsline {subsubsection}{\numberline {3.8.2}Function Documentation}{50}{subsubsection.3.8.2}\protected@file@percent }
\newlabel{group__PLE_gaa7b1e9b382e2b1023be459cb4cedf54d}{{3.8.2}{50}{Function Documentation}{subsubsection.3.8.2}{}}
\@writefile{toc}{\contentsline {paragraph}{\numberline {3.8.2.1}\discretionary {\unhbox \voidb@x \hbox {\relax \fontsize  {7}{8}\selectfont  $\DOTSB \leftarrow \joinrel  \rhook $}}{}{}\_\discretionary {\unhbox \voidb@x \hbox {\relax \fontsize  {7}{8}\selectfont  $\DOTSB \leftarrow \joinrel  \rhook $}}{}{}mzd\discretionary {\unhbox \voidb@x \hbox {\relax \fontsize  {7}{8}\selectfont  $\DOTSB \leftarrow \joinrel  \rhook $}}{}{}\_\discretionary {\unhbox \voidb@x \hbox {\relax \fontsize  {7}{8}\selectfont  $\DOTSB \leftarrow \joinrel  \rhook $}}{}{}slice\discretionary {\unhbox \voidb@x \hbox {\relax \fontsize  {7}{8}\selectfont  $\DOTSB \leftarrow \joinrel  \rhook $}}{}{}\_\discretionary {\unhbox \voidb@x \hbox {\relax \fontsize  {7}{8}\selectfont  $\DOTSB \leftarrow \joinrel  \rhook $}}{}{}ple()}{50}{paragraph.3.8.2.1}\protected@file@percent }
\gdef \LT@xcvii {\LT@entry 
    {3}{34.81357pt}\LT@entry 
    {3}{327.62215pt}}
\gdef \LT@xcviii {\LT@entry 
    {3}{34.81357pt}\LT@entry 
    {3}{167.55872pt}}
\newlabel{group__PLE_gab45f1c2fc328000182b6eece59b77e17}{{3.8.2.1}{51}{\texorpdfstring {\+\_\+mzd\+\_\+slice\+\_\+ple()}{\_mzd\_slice\_ple()}}{table.96}{}}
\@writefile{toc}{\contentsline {paragraph}{\numberline {3.8.2.2}\discretionary {\unhbox \voidb@x \hbox {\relax \fontsize  {7}{8}\selectfont  $\DOTSB \leftarrow \joinrel  \rhook $}}{}{}\_\discretionary {\unhbox \voidb@x \hbox {\relax \fontsize  {7}{8}\selectfont  $\DOTSB \leftarrow \joinrel  \rhook $}}{}{}mzd\discretionary {\unhbox \voidb@x \hbox {\relax \fontsize  {7}{8}\selectfont  $\DOTSB \leftarrow \joinrel  \rhook $}}{}{}\_\discretionary {\unhbox \voidb@x \hbox {\relax \fontsize  {7}{8}\selectfont  $\DOTSB \leftarrow \joinrel  \rhook $}}{}{}slice\discretionary {\unhbox \voidb@x \hbox {\relax \fontsize  {7}{8}\selectfont  $\DOTSB \leftarrow \joinrel  \rhook $}}{}{}\_\discretionary {\unhbox \voidb@x \hbox {\relax \fontsize  {7}{8}\selectfont  $\DOTSB \leftarrow \joinrel  \rhook $}}{}{}pluq()}{51}{paragraph.3.8.2.2}\protected@file@percent }
\newlabel{group__PLE_ga6771cb243d386328d1b03cf310385879}{{3.8.2.2}{51}{\texorpdfstring {\+\_\+mzd\+\_\+slice\+\_\+pluq()}{\_mzd\_slice\_pluq()}}{table.97}{}}
\@writefile{toc}{\contentsline {paragraph}{\numberline {3.8.2.3}\discretionary {\unhbox \voidb@x \hbox {\relax \fontsize  {7}{8}\selectfont  $\DOTSB \leftarrow \joinrel  \rhook $}}{}{}\_\discretionary {\unhbox \voidb@x \hbox {\relax \fontsize  {7}{8}\selectfont  $\DOTSB \leftarrow \joinrel  \rhook $}}{}{}mzed\discretionary {\unhbox \voidb@x \hbox {\relax \fontsize  {7}{8}\selectfont  $\DOTSB \leftarrow \joinrel  \rhook $}}{}{}\_\discretionary {\unhbox \voidb@x \hbox {\relax \fontsize  {7}{8}\selectfont  $\DOTSB \leftarrow \joinrel  \rhook $}}{}{}ple()}{51}{paragraph.3.8.2.3}\protected@file@percent }
\gdef \LT@xcix {\LT@entry 
    {3}{19.80185pt}\LT@entry 
    {3}{167.55872pt}}
\gdef \LT@c {\LT@entry 
    {3}{19.80185pt}\LT@entry 
    {3}{167.55872pt}}
\newlabel{group__PLE_gab06360c9de92d0183b9e89268cdb65fb}{{3.8.2.3}{52}{\texorpdfstring {\+\_\+mzed\+\_\+ple()}{\_mzed\_ple()}}{table.98}{}}
\@writefile{toc}{\contentsline {paragraph}{\numberline {3.8.2.4}mzd\discretionary {\unhbox \voidb@x \hbox {\relax \fontsize  {7}{8}\selectfont  $\DOTSB \leftarrow \joinrel  \rhook $}}{}{}\_\discretionary {\unhbox \voidb@x \hbox {\relax \fontsize  {7}{8}\selectfont  $\DOTSB \leftarrow \joinrel  \rhook $}}{}{}slice\discretionary {\unhbox \voidb@x \hbox {\relax \fontsize  {7}{8}\selectfont  $\DOTSB \leftarrow \joinrel  \rhook $}}{}{}\_\discretionary {\unhbox \voidb@x \hbox {\relax \fontsize  {7}{8}\selectfont  $\DOTSB \leftarrow \joinrel  \rhook $}}{}{}ple()}{52}{paragraph.3.8.2.4}\protected@file@percent }
\newlabel{group__PLE_ga206aedb14971a7a44e858d5acc03dd58}{{3.8.2.4}{52}{\texorpdfstring {mzd\+\_\+slice\+\_\+ple()}{mzd\_slice\_ple()}}{table.99}{}}
\@writefile{toc}{\contentsline {paragraph}{\numberline {3.8.2.5}mzd\discretionary {\unhbox \voidb@x \hbox {\relax \fontsize  {7}{8}\selectfont  $\DOTSB \leftarrow \joinrel  \rhook $}}{}{}\_\discretionary {\unhbox \voidb@x \hbox {\relax \fontsize  {7}{8}\selectfont  $\DOTSB \leftarrow \joinrel  \rhook $}}{}{}slice\discretionary {\unhbox \voidb@x \hbox {\relax \fontsize  {7}{8}\selectfont  $\DOTSB \leftarrow \joinrel  \rhook $}}{}{}\_\discretionary {\unhbox \voidb@x \hbox {\relax \fontsize  {7}{8}\selectfont  $\DOTSB \leftarrow \joinrel  \rhook $}}{}{}pluq()}{52}{paragraph.3.8.2.5}\protected@file@percent }
\newlabel{group__PLE_gabc157b21911911f5c95a9f5e1c10fd29}{{3.8.2.5}{52}{\texorpdfstring {mzd\+\_\+slice\+\_\+pluq()}{mzd\_slice\_pluq()}}{table.100}{}}
\gdef \LT@ci {\LT@entry 
    {3}{19.80185pt}\LT@entry 
    {3}{167.55872pt}}
\gdef \LT@cii {\LT@entry 
    {3}{19.80185pt}\LT@entry 
    {3}{167.55872pt}}
\@writefile{toc}{\contentsline {paragraph}{\numberline {3.8.2.6}mzed\discretionary {\unhbox \voidb@x \hbox {\relax \fontsize  {7}{8}\selectfont  $\DOTSB \leftarrow \joinrel  \rhook $}}{}{}\_\discretionary {\unhbox \voidb@x \hbox {\relax \fontsize  {7}{8}\selectfont  $\DOTSB \leftarrow \joinrel  \rhook $}}{}{}ple()}{53}{paragraph.3.8.2.6}\protected@file@percent }
\newlabel{group__PLE_gac05e699da6e93be7609ced965db6f545}{{3.8.2.6}{53}{\texorpdfstring {mzed\+\_\+ple()}{mzed\_ple()}}{table.101}{}}
\@writefile{toc}{\contentsline {paragraph}{\numberline {3.8.2.7}mzed\discretionary {\unhbox \voidb@x \hbox {\relax \fontsize  {7}{8}\selectfont  $\DOTSB \leftarrow \joinrel  \rhook $}}{}{}\_\discretionary {\unhbox \voidb@x \hbox {\relax \fontsize  {7}{8}\selectfont  $\DOTSB \leftarrow \joinrel  \rhook $}}{}{}ple\discretionary {\unhbox \voidb@x \hbox {\relax \fontsize  {7}{8}\selectfont  $\DOTSB \leftarrow \joinrel  \rhook $}}{}{}\_\discretionary {\unhbox \voidb@x \hbox {\relax \fontsize  {7}{8}\selectfont  $\DOTSB \leftarrow \joinrel  \rhook $}}{}{}naive()}{53}{paragraph.3.8.2.7}\protected@file@percent }
\@setckpt{group__PLE}{
\setcounter{page}{54}
\setcounter{equation}{0}
\setcounter{enumi}{0}
\setcounter{enumii}{0}
\setcounter{enumiii}{0}
\setcounter{enumiv}{0}
\setcounter{footnote}{0}
\setcounter{mpfootnote}{0}
\setcounter{part}{0}
\setcounter{section}{3}
\setcounter{subsection}{8}
\setcounter{subsubsection}{2}
\setcounter{paragraph}{7}
\setcounter{subparagraph}{0}
\setcounter{figure}{0}
\setcounter{table}{102}
\setcounter{float@type}{4}
\setcounter{LT@tables}{102}
\setcounter{LT@chunks}{3}
\setcounter{NAT@ctr}{0}
\setcounter{lofdepth}{1}
\setcounter{lotdepth}{1}
\setcounter{parentequation}{0}
\setcounter{Item}{0}
\setcounter{Hfootnote}{0}
\setcounter{bookmark@seq@number}{27}
\setcounter{caption@flags}{0}
\setcounter{ContinuedFloat}{0}
\setcounter{section@level}{4}
}
