\relax 
\providecommand\hyper@newdestlabel[2]{}
\gdef \LT@ciii {\LT@entry 
    {3}{24.3017pt}\LT@entry 
    {3}{69.05396pt}}
\@writefile{toc}{\contentsline {subsection}{\numberline {3.9}Echelon forms}{54}{subsection.3.9}\protected@file@percent }
\newlabel{group__Echelon}{{3.9}{54}{Echelon forms}{subsection.3.9}{}}
\@writefile{toc}{\contentsline {subsubsection}{\numberline {3.9.1}Detailed Description}{54}{subsubsection.3.9.1}\protected@file@percent }
\@writefile{toc}{\contentsline {subsubsection}{\numberline {3.9.2}Macro Definition Documentation}{54}{subsubsection.3.9.2}\protected@file@percent }
\newlabel{group__Echelon_ga6f8bb7f81e3dd287b43e68d4a60a2a75}{{3.9.2}{54}{Macro Definition Documentation}{subsubsection.3.9.2}{}}
\@writefile{toc}{\contentsline {paragraph}{\numberline {3.9.2.1}mzd\discretionary {\unhbox \voidb@x \hbox {\relax \fontsize  {7}{8}\selectfont  $\DOTSB \leftarrow \joinrel  \rhook $}}{}{}\_\discretionary {\unhbox \voidb@x \hbox {\relax \fontsize  {7}{8}\selectfont  $\DOTSB \leftarrow \joinrel  \rhook $}}{}{}slice\discretionary {\unhbox \voidb@x \hbox {\relax \fontsize  {7}{8}\selectfont  $\DOTSB \leftarrow \joinrel  \rhook $}}{}{}\_\discretionary {\unhbox \voidb@x \hbox {\relax \fontsize  {7}{8}\selectfont  $\DOTSB \leftarrow \joinrel  \rhook $}}{}{}echelonize}{54}{paragraph.3.9.2.1}\protected@file@percent }
\@writefile{toc}{\contentsline {subsubsection}{\numberline {3.9.3}Function Documentation}{54}{subsubsection.3.9.3}\protected@file@percent }
\newlabel{group__Echelon_gae3e0ad13510d3c99afa0d154fc7f8dca}{{3.9.3}{54}{Function Documentation}{subsubsection.3.9.3}{}}
\@writefile{toc}{\contentsline {paragraph}{\numberline {3.9.3.1}mzd\discretionary {\unhbox \voidb@x \hbox {\relax \fontsize  {7}{8}\selectfont  $\DOTSB \leftarrow \joinrel  \rhook $}}{}{}\_\discretionary {\unhbox \voidb@x \hbox {\relax \fontsize  {7}{8}\selectfont  $\DOTSB \leftarrow \joinrel  \rhook $}}{}{}slice\discretionary {\unhbox \voidb@x \hbox {\relax \fontsize  {7}{8}\selectfont  $\DOTSB \leftarrow \joinrel  \rhook $}}{}{}\_\discretionary {\unhbox \voidb@x \hbox {\relax \fontsize  {7}{8}\selectfont  $\DOTSB \leftarrow \joinrel  \rhook $}}{}{}echelonize\discretionary {\unhbox \voidb@x \hbox {\relax \fontsize  {7}{8}\selectfont  $\DOTSB \leftarrow \joinrel  \rhook $}}{}{}\_\discretionary {\unhbox \voidb@x \hbox {\relax \fontsize  {7}{8}\selectfont  $\DOTSB \leftarrow \joinrel  \rhook $}}{}{}ple()}{54}{paragraph.3.9.3.1}\protected@file@percent }
\gdef \LT@civ {\LT@entry 
    {3}{24.3017pt}\LT@entry 
    {3}{69.05396pt}}
\gdef \LT@cv {\LT@entry 
    {3}{24.3017pt}\LT@entry 
    {3}{69.05396pt}}
\gdef \LT@cvi {\LT@entry 
    {3}{24.3017pt}\LT@entry 
    {3}{224.6605pt}}
\newlabel{group__Echelon_gacee3c5357fb123ba68c81d7a41de6906}{{3.9.3.1}{55}{\texorpdfstring {mzd\+\_\+slice\+\_\+echelonize\+\_\+ple()}{mzd\_slice\_echelonize\_ple()}}{table.104}{}}
\@writefile{toc}{\contentsline {paragraph}{\numberline {3.9.3.2}mzed\discretionary {\unhbox \voidb@x \hbox {\relax \fontsize  {7}{8}\selectfont  $\DOTSB \leftarrow \joinrel  \rhook $}}{}{}\_\discretionary {\unhbox \voidb@x \hbox {\relax \fontsize  {7}{8}\selectfont  $\DOTSB \leftarrow \joinrel  \rhook $}}{}{}echelonize()}{55}{paragraph.3.9.3.2}\protected@file@percent }
\newlabel{group__Echelon_ga7df57ab8cfdff8f6f9eed7b66108b200}{{3.9.3.2}{55}{\texorpdfstring {mzed\+\_\+echelonize()}{mzed\_echelonize()}}{table.105}{}}
\@writefile{toc}{\contentsline {paragraph}{\numberline {3.9.3.3}mzed\discretionary {\unhbox \voidb@x \hbox {\relax \fontsize  {7}{8}\selectfont  $\DOTSB \leftarrow \joinrel  \rhook $}}{}{}\_\discretionary {\unhbox \voidb@x \hbox {\relax \fontsize  {7}{8}\selectfont  $\DOTSB \leftarrow \joinrel  \rhook $}}{}{}echelonize\discretionary {\unhbox \voidb@x \hbox {\relax \fontsize  {7}{8}\selectfont  $\DOTSB \leftarrow \joinrel  \rhook $}}{}{}\_\discretionary {\unhbox \voidb@x \hbox {\relax \fontsize  {7}{8}\selectfont  $\DOTSB \leftarrow \joinrel  \rhook $}}{}{}naive()}{55}{paragraph.3.9.3.3}\protected@file@percent }
\newlabel{group__Echelon_ga54c234712c4570d02564d348c2bdf339}{{3.9.3.3}{55}{\texorpdfstring {mzed\+\_\+echelonize\+\_\+naive()}{mzed\_echelonize\_naive()}}{table.106}{}}
\@writefile{toc}{\contentsline {paragraph}{\numberline {3.9.3.4}mzed\discretionary {\unhbox \voidb@x \hbox {\relax \fontsize  {7}{8}\selectfont  $\DOTSB \leftarrow \joinrel  \rhook $}}{}{}\_\discretionary {\unhbox \voidb@x \hbox {\relax \fontsize  {7}{8}\selectfont  $\DOTSB \leftarrow \joinrel  \rhook $}}{}{}echelonize\discretionary {\unhbox \voidb@x \hbox {\relax \fontsize  {7}{8}\selectfont  $\DOTSB \leftarrow \joinrel  \rhook $}}{}{}\_\discretionary {\unhbox \voidb@x \hbox {\relax \fontsize  {7}{8}\selectfont  $\DOTSB \leftarrow \joinrel  \rhook $}}{}{}newton\discretionary {\unhbox \voidb@x \hbox {\relax \fontsize  {7}{8}\selectfont  $\DOTSB \leftarrow \joinrel  \rhook $}}{}{}\_\discretionary {\unhbox \voidb@x \hbox {\relax \fontsize  {7}{8}\selectfont  $\DOTSB \leftarrow \joinrel  \rhook $}}{}{}john()}{55}{paragraph.3.9.3.4}\protected@file@percent }
\gdef \LT@cvii {\LT@entry 
    {3}{24.3017pt}\LT@entry 
    {3}{255.82658pt}}
\gdef \LT@cviii {\LT@entry 
    {3}{24.3017pt}\LT@entry 
    {3}{69.05396pt}}
\newlabel{group__Echelon_gaf5cd1f3977e60a786f887882c245f08b}{{3.9.3.4}{57}{\texorpdfstring {mzed\+\_\+echelonize\+\_\+newton\+\_\+john()}{mzed\_echelonize\_newton\_john()}}{table.107}{}}
\@writefile{toc}{\contentsline {paragraph}{\numberline {3.9.3.5}mzed\discretionary {\unhbox \voidb@x \hbox {\relax \fontsize  {7}{8}\selectfont  $\DOTSB \leftarrow \joinrel  \rhook $}}{}{}\_\discretionary {\unhbox \voidb@x \hbox {\relax \fontsize  {7}{8}\selectfont  $\DOTSB \leftarrow \joinrel  \rhook $}}{}{}echelonize\discretionary {\unhbox \voidb@x \hbox {\relax \fontsize  {7}{8}\selectfont  $\DOTSB \leftarrow \joinrel  \rhook $}}{}{}\_\discretionary {\unhbox \voidb@x \hbox {\relax \fontsize  {7}{8}\selectfont  $\DOTSB \leftarrow \joinrel  \rhook $}}{}{}ple()}{57}{paragraph.3.9.3.5}\protected@file@percent }
\@setckpt{group__Echelon}{
\setcounter{page}{58}
\setcounter{equation}{0}
\setcounter{enumi}{0}
\setcounter{enumii}{0}
\setcounter{enumiii}{0}
\setcounter{enumiv}{0}
\setcounter{footnote}{0}
\setcounter{mpfootnote}{0}
\setcounter{part}{0}
\setcounter{section}{3}
\setcounter{subsection}{9}
\setcounter{subsubsection}{3}
\setcounter{paragraph}{5}
\setcounter{subparagraph}{0}
\setcounter{figure}{0}
\setcounter{table}{108}
\setcounter{float@type}{4}
\setcounter{LT@tables}{108}
\setcounter{LT@chunks}{3}
\setcounter{NAT@ctr}{0}
\setcounter{lofdepth}{1}
\setcounter{lotdepth}{1}
\setcounter{parentequation}{0}
\setcounter{Item}{0}
\setcounter{Hfootnote}{0}
\setcounter{bookmark@seq@number}{31}
\setcounter{caption@flags}{0}
\setcounter{ContinuedFloat}{0}
\setcounter{section@level}{4}
}
