\relax 
\providecommand\hyper@newdestlabel[2]{}
\gdef \LT@lv {\LT@entry 
    {3}{19.29791pt}\LT@entry 
    {3}{260.07489pt}}
\@writefile{toc}{\contentsline {subsection}{\numberline {3.6}Addition and subtraction}{30}{subsection.3.6}\protected@file@percent }
\newlabel{group__Addition}{{3.6}{30}{Addition and subtraction}{subsection.3.6}{}}
\@writefile{toc}{\contentsline {subsubsection}{\numberline {3.6.1}Detailed Description}{30}{subsubsection.3.6.1}\protected@file@percent }
\@writefile{toc}{\contentsline {subsubsection}{\numberline {3.6.2}Macro Definition Documentation}{30}{subsubsection.3.6.2}\protected@file@percent }
\newlabel{group__Addition_gaf93363b0e4b8da3f7605a814cbf642d1}{{3.6.2}{30}{Macro Definition Documentation}{subsubsection.3.6.2}{}}
\@writefile{toc}{\contentsline {paragraph}{\numberline {3.6.2.1}\discretionary {\unhbox \voidb@x \hbox {\relax \fontsize  {7}{8}\selectfont  $\DOTSB \leftarrow \joinrel  \rhook $}}{}{}\_\discretionary {\unhbox \voidb@x \hbox {\relax \fontsize  {7}{8}\selectfont  $\DOTSB \leftarrow \joinrel  \rhook $}}{}{}mzd\discretionary {\unhbox \voidb@x \hbox {\relax \fontsize  {7}{8}\selectfont  $\DOTSB \leftarrow \joinrel  \rhook $}}{}{}\_\discretionary {\unhbox \voidb@x \hbox {\relax \fontsize  {7}{8}\selectfont  $\DOTSB \leftarrow \joinrel  \rhook $}}{}{}slice\discretionary {\unhbox \voidb@x \hbox {\relax \fontsize  {7}{8}\selectfont  $\DOTSB \leftarrow \joinrel  \rhook $}}{}{}\_\discretionary {\unhbox \voidb@x \hbox {\relax \fontsize  {7}{8}\selectfont  $\DOTSB \leftarrow \joinrel  \rhook $}}{}{}sub}{30}{paragraph.3.6.2.1}\protected@file@percent }
\newlabel{group__Addition_ga87bdef9a784b9ac974ef791a33129c26}{{3.6.2.1}{30}{\texorpdfstring {\+\_\+mzd\+\_\+slice\+\_\+sub}{\_mzd\_slice\_sub}}{table.55}{}}
\gdef \LT@lvi {\LT@entry 
    {3}{19.29791pt}\LT@entry 
    {3}{282.32246pt}}
\gdef \LT@lvii {\LT@entry 
    {3}{19.29791pt}\LT@entry 
    {3}{260.07489pt}}
\gdef \LT@lviii {\LT@entry 
    {3}{19.29791pt}\LT@entry 
    {3}{282.32246pt}}
\@writefile{toc}{\contentsline {paragraph}{\numberline {3.6.2.2}\discretionary {\unhbox \voidb@x \hbox {\relax \fontsize  {7}{8}\selectfont  $\DOTSB \leftarrow \joinrel  \rhook $}}{}{}\_\discretionary {\unhbox \voidb@x \hbox {\relax \fontsize  {7}{8}\selectfont  $\DOTSB \leftarrow \joinrel  \rhook $}}{}{}mzed\discretionary {\unhbox \voidb@x \hbox {\relax \fontsize  {7}{8}\selectfont  $\DOTSB \leftarrow \joinrel  \rhook $}}{}{}\_\discretionary {\unhbox \voidb@x \hbox {\relax \fontsize  {7}{8}\selectfont  $\DOTSB \leftarrow \joinrel  \rhook $}}{}{}sub}{31}{paragraph.3.6.2.2}\protected@file@percent }
\newlabel{group__Addition_gaac92d4a64501f6b6a8a247954b8a30af}{{3.6.2.2}{31}{\texorpdfstring {\+\_\+mzed\+\_\+sub}{\_mzed\_sub}}{table.56}{}}
\@writefile{toc}{\contentsline {paragraph}{\numberline {3.6.2.3}mzd\discretionary {\unhbox \voidb@x \hbox {\relax \fontsize  {7}{8}\selectfont  $\DOTSB \leftarrow \joinrel  \rhook $}}{}{}\_\discretionary {\unhbox \voidb@x \hbox {\relax \fontsize  {7}{8}\selectfont  $\DOTSB \leftarrow \joinrel  \rhook $}}{}{}slice\discretionary {\unhbox \voidb@x \hbox {\relax \fontsize  {7}{8}\selectfont  $\DOTSB \leftarrow \joinrel  \rhook $}}{}{}\_\discretionary {\unhbox \voidb@x \hbox {\relax \fontsize  {7}{8}\selectfont  $\DOTSB \leftarrow \joinrel  \rhook $}}{}{}sub}{31}{paragraph.3.6.2.3}\protected@file@percent }
\newlabel{group__Addition_ga0eed486d1c59bc7e9c98101ebbbf8c6e}{{3.6.2.3}{31}{\texorpdfstring {mzd\+\_\+slice\+\_\+sub}{mzd\_slice\_sub}}{table.57}{}}
\@writefile{toc}{\contentsline {paragraph}{\numberline {3.6.2.4}mzed\discretionary {\unhbox \voidb@x \hbox {\relax \fontsize  {7}{8}\selectfont  $\DOTSB \leftarrow \joinrel  \rhook $}}{}{}\_\discretionary {\unhbox \voidb@x \hbox {\relax \fontsize  {7}{8}\selectfont  $\DOTSB \leftarrow \joinrel  \rhook $}}{}{}sub}{31}{paragraph.3.6.2.4}\protected@file@percent }
\@writefile{toc}{\contentsline {subsubsection}{\numberline {3.6.3}Function Documentation}{31}{subsubsection.3.6.3}\protected@file@percent }
\newlabel{group__Addition_ga135a6b2e1ee302373bbd429cc0eb46d2}{{3.6.3}{31}{Function Documentation}{subsubsection.3.6.3}{}}
\@writefile{toc}{\contentsline {paragraph}{\numberline {3.6.3.1}\discretionary {\unhbox \voidb@x \hbox {\relax \fontsize  {7}{8}\selectfont  $\DOTSB \leftarrow \joinrel  \rhook $}}{}{}\_\discretionary {\unhbox \voidb@x \hbox {\relax \fontsize  {7}{8}\selectfont  $\DOTSB \leftarrow \joinrel  \rhook $}}{}{}mzd\discretionary {\unhbox \voidb@x \hbox {\relax \fontsize  {7}{8}\selectfont  $\DOTSB \leftarrow \joinrel  \rhook $}}{}{}\_\discretionary {\unhbox \voidb@x \hbox {\relax \fontsize  {7}{8}\selectfont  $\DOTSB \leftarrow \joinrel  \rhook $}}{}{}poly\discretionary {\unhbox \voidb@x \hbox {\relax \fontsize  {7}{8}\selectfont  $\DOTSB \leftarrow \joinrel  \rhook $}}{}{}\_\discretionary {\unhbox \voidb@x \hbox {\relax \fontsize  {7}{8}\selectfont  $\DOTSB \leftarrow \joinrel  \rhook $}}{}{}add()}{31}{paragraph.3.6.3.1}\protected@file@percent }
\gdef \LT@lix {\LT@entry 
    {3}{34.81357pt}\LT@entry 
    {3}{183.33348pt}}
\gdef \LT@lx {\LT@entry 
    {3}{19.29791pt}\LT@entry 
    {3}{111.55994pt}}
\gdef \LT@lxi {\LT@entry 
    {3}{19.29791pt}\LT@entry 
    {3}{260.07489pt}}
\newlabel{group__Addition_gaec2195117ba1439c73d1ffbf9694e9c4}{{3.6.3.1}{32}{\texorpdfstring {\+\_\+mzd\+\_\+poly\+\_\+add()}{\_mzd\_poly\_add()}}{table.59}{}}
\@writefile{toc}{\contentsline {paragraph}{\numberline {3.6.3.2}\discretionary {\unhbox \voidb@x \hbox {\relax \fontsize  {7}{8}\selectfont  $\DOTSB \leftarrow \joinrel  \rhook $}}{}{}\_\discretionary {\unhbox \voidb@x \hbox {\relax \fontsize  {7}{8}\selectfont  $\DOTSB \leftarrow \joinrel  \rhook $}}{}{}mzd\discretionary {\unhbox \voidb@x \hbox {\relax \fontsize  {7}{8}\selectfont  $\DOTSB \leftarrow \joinrel  \rhook $}}{}{}\_\discretionary {\unhbox \voidb@x \hbox {\relax \fontsize  {7}{8}\selectfont  $\DOTSB \leftarrow \joinrel  \rhook $}}{}{}slice\discretionary {\unhbox \voidb@x \hbox {\relax \fontsize  {7}{8}\selectfont  $\DOTSB \leftarrow \joinrel  \rhook $}}{}{}\_\discretionary {\unhbox \voidb@x \hbox {\relax \fontsize  {7}{8}\selectfont  $\DOTSB \leftarrow \joinrel  \rhook $}}{}{}add()}{32}{paragraph.3.6.3.2}\protected@file@percent }
\newlabel{group__Addition_ga3c64614f12249e1fbf1720248076ac54}{{3.6.3.2}{32}{\texorpdfstring {\+\_\+mzd\+\_\+slice\+\_\+add()}{\_mzd\_slice\_add()}}{table.60}{}}
\@writefile{toc}{\contentsline {paragraph}{\numberline {3.6.3.3}\discretionary {\unhbox \voidb@x \hbox {\relax \fontsize  {7}{8}\selectfont  $\DOTSB \leftarrow \joinrel  \rhook $}}{}{}\_\discretionary {\unhbox \voidb@x \hbox {\relax \fontsize  {7}{8}\selectfont  $\DOTSB \leftarrow \joinrel  \rhook $}}{}{}mzed\discretionary {\unhbox \voidb@x \hbox {\relax \fontsize  {7}{8}\selectfont  $\DOTSB \leftarrow \joinrel  \rhook $}}{}{}\_\discretionary {\unhbox \voidb@x \hbox {\relax \fontsize  {7}{8}\selectfont  $\DOTSB \leftarrow \joinrel  \rhook $}}{}{}add()}{32}{paragraph.3.6.3.3}\protected@file@percent }
\gdef \LT@lxii {\LT@entry 
    {3}{19.29791pt}\LT@entry 
    {3}{88.92555pt}}
\gdef \LT@lxiii {\LT@entry 
    {3}{19.29791pt}\LT@entry 
    {3}{260.07489pt}}
\gdef \LT@lxiv {\LT@entry 
    {3}{19.29791pt}\LT@entry 
    {3}{260.07489pt}}
\newlabel{group__Addition_ga3d8abd4911d37245ac0f1e5a65422a24}{{3.6.3.3}{33}{\texorpdfstring {\+\_\+mzed\+\_\+add()}{\_mzed\_add()}}{table.61}{}}
\@writefile{toc}{\contentsline {paragraph}{\numberline {3.6.3.4}mzd\discretionary {\unhbox \voidb@x \hbox {\relax \fontsize  {7}{8}\selectfont  $\DOTSB \leftarrow \joinrel  \rhook $}}{}{}\_\discretionary {\unhbox \voidb@x \hbox {\relax \fontsize  {7}{8}\selectfont  $\DOTSB \leftarrow \joinrel  \rhook $}}{}{}poly\discretionary {\unhbox \voidb@x \hbox {\relax \fontsize  {7}{8}\selectfont  $\DOTSB \leftarrow \joinrel  \rhook $}}{}{}\_\discretionary {\unhbox \voidb@x \hbox {\relax \fontsize  {7}{8}\selectfont  $\DOTSB \leftarrow \joinrel  \rhook $}}{}{}add()}{33}{paragraph.3.6.3.4}\protected@file@percent }
\newlabel{group__Addition_ga77f352fe79c80e620ea9e2633e0201dd}{{3.6.3.4}{33}{\texorpdfstring {mzd\+\_\+poly\+\_\+add()}{mzd\_poly\_add()}}{table.62}{}}
\@writefile{toc}{\contentsline {paragraph}{\numberline {3.6.3.5}mzd\discretionary {\unhbox \voidb@x \hbox {\relax \fontsize  {7}{8}\selectfont  $\DOTSB \leftarrow \joinrel  \rhook $}}{}{}\_\discretionary {\unhbox \voidb@x \hbox {\relax \fontsize  {7}{8}\selectfont  $\DOTSB \leftarrow \joinrel  \rhook $}}{}{}slice\discretionary {\unhbox \voidb@x \hbox {\relax \fontsize  {7}{8}\selectfont  $\DOTSB \leftarrow \joinrel  \rhook $}}{}{}\_\discretionary {\unhbox \voidb@x \hbox {\relax \fontsize  {7}{8}\selectfont  $\DOTSB \leftarrow \joinrel  \rhook $}}{}{}add()}{33}{paragraph.3.6.3.5}\protected@file@percent }
\newlabel{group__Addition_ga88f2cfa81b2d2bfdd0b9dfa6d0a47b35}{{3.6.3.5}{33}{\texorpdfstring {mzd\+\_\+slice\+\_\+add()}{mzd\_slice\_add()}}{table.63}{}}
\@writefile{toc}{\contentsline {paragraph}{\numberline {3.6.3.6}mzed\discretionary {\unhbox \voidb@x \hbox {\relax \fontsize  {7}{8}\selectfont  $\DOTSB \leftarrow \joinrel  \rhook $}}{}{}\_\discretionary {\unhbox \voidb@x \hbox {\relax \fontsize  {7}{8}\selectfont  $\DOTSB \leftarrow \joinrel  \rhook $}}{}{}add()}{33}{paragraph.3.6.3.6}\protected@file@percent }
\@setckpt{group__Addition}{
\setcounter{page}{34}
\setcounter{equation}{0}
\setcounter{enumi}{0}
\setcounter{enumii}{0}
\setcounter{enumiii}{0}
\setcounter{enumiv}{0}
\setcounter{footnote}{0}
\setcounter{mpfootnote}{0}
\setcounter{part}{0}
\setcounter{section}{3}
\setcounter{subsection}{6}
\setcounter{subsubsection}{3}
\setcounter{paragraph}{6}
\setcounter{subparagraph}{0}
\setcounter{figure}{0}
\setcounter{table}{64}
\setcounter{float@type}{4}
\setcounter{LT@tables}{64}
\setcounter{LT@chunks}{3}
\setcounter{NAT@ctr}{0}
\setcounter{lofdepth}{1}
\setcounter{lotdepth}{1}
\setcounter{parentequation}{0}
\setcounter{Item}{0}
\setcounter{Hfootnote}{0}
\setcounter{bookmark@seq@number}{21}
\setcounter{caption@flags}{0}
\setcounter{ContinuedFloat}{0}
\setcounter{section@level}{4}
}
