\relax 
\providecommand\hyper@newdestlabel[2]{}
\@writefile{toc}{\contentsline {subsection}{\numberline {3.4}Operations on rows}{19}{subsection.3.4}\protected@file@percent }
\newlabel{group__RowOperations}{{3.4}{19}{Operations on rows}{subsection.3.4}{}}
\gdef \LT@xxxiii {\LT@entry 
    {3}{29.30573pt}\LT@entry 
    {3}{69.64798pt}}
\gdef \LT@xxxiv {\LT@entry 
    {3}{18.80287pt}\LT@entry 
    {3}{84.02072pt}}
\@writefile{toc}{\contentsline {subsubsection}{\numberline {3.4.1}Detailed Description}{20}{subsubsection.3.4.1}\protected@file@percent }
\@writefile{toc}{\contentsline {subsubsection}{\numberline {3.4.2}Function Documentation}{20}{subsubsection.3.4.2}\protected@file@percent }
\newlabel{group__RowOperations_ga3a15cd6d881f2421969973d4ffb10513}{{3.4.2}{20}{Function Documentation}{subsubsection.3.4.2}{}}
\@writefile{toc}{\contentsline {paragraph}{\numberline {3.4.2.1}mzd\discretionary {\unhbox \voidb@x \hbox {\relax \fontsize  {7}{8}\selectfont  $\DOTSB \leftarrow \joinrel  \rhook $}}{}{}\_\discretionary {\unhbox \voidb@x \hbox {\relax \fontsize  {7}{8}\selectfont  $\DOTSB \leftarrow \joinrel  \rhook $}}{}{}slice\discretionary {\unhbox \voidb@x \hbox {\relax \fontsize  {7}{8}\selectfont  $\DOTSB \leftarrow \joinrel  \rhook $}}{}{}\_\discretionary {\unhbox \voidb@x \hbox {\relax \fontsize  {7}{8}\selectfont  $\DOTSB \leftarrow \joinrel  \rhook $}}{}{}col\discretionary {\unhbox \voidb@x \hbox {\relax \fontsize  {7}{8}\selectfont  $\DOTSB \leftarrow \joinrel  \rhook $}}{}{}\_\discretionary {\unhbox \voidb@x \hbox {\relax \fontsize  {7}{8}\selectfont  $\DOTSB \leftarrow \joinrel  \rhook $}}{}{}swap()}{20}{paragraph.3.4.2.1}\protected@file@percent }
\newlabel{group__RowOperations_gaaf772b50bcfa3a073335ac397b82a407}{{3.4.2.1}{20}{\texorpdfstring {mzd\+\_\+slice\+\_\+col\+\_\+swap()}{mzd\_slice\_col\_swap()}}{table.33}{}}
\@writefile{toc}{\contentsline {paragraph}{\numberline {3.4.2.2}mzd\discretionary {\unhbox \voidb@x \hbox {\relax \fontsize  {7}{8}\selectfont  $\DOTSB \leftarrow \joinrel  \rhook $}}{}{}\_\discretionary {\unhbox \voidb@x \hbox {\relax \fontsize  {7}{8}\selectfont  $\DOTSB \leftarrow \joinrel  \rhook $}}{}{}slice\discretionary {\unhbox \voidb@x \hbox {\relax \fontsize  {7}{8}\selectfont  $\DOTSB \leftarrow \joinrel  \rhook $}}{}{}\_\discretionary {\unhbox \voidb@x \hbox {\relax \fontsize  {7}{8}\selectfont  $\DOTSB \leftarrow \joinrel  \rhook $}}{}{}copy\discretionary {\unhbox \voidb@x \hbox {\relax \fontsize  {7}{8}\selectfont  $\DOTSB \leftarrow \joinrel  \rhook $}}{}{}\_\discretionary {\unhbox \voidb@x \hbox {\relax \fontsize  {7}{8}\selectfont  $\DOTSB \leftarrow \joinrel  \rhook $}}{}{}row()}{20}{paragraph.3.4.2.2}\protected@file@percent }
\newlabel{group__RowOperations_gae7243e2eb55b699f5e21a367f3da27b3}{{3.4.2.2}{20}{\texorpdfstring {mzd\+\_\+slice\+\_\+copy\+\_\+row()}{mzd\_slice\_copy\_row()}}{table.34}{}}
\@writefile{toc}{\contentsline {paragraph}{\numberline {3.4.2.3}mzd\discretionary {\unhbox \voidb@x \hbox {\relax \fontsize  {7}{8}\selectfont  $\DOTSB \leftarrow \joinrel  \rhook $}}{}{}\_\discretionary {\unhbox \voidb@x \hbox {\relax \fontsize  {7}{8}\selectfont  $\DOTSB \leftarrow \joinrel  \rhook $}}{}{}slice\discretionary {\unhbox \voidb@x \hbox {\relax \fontsize  {7}{8}\selectfont  $\DOTSB \leftarrow \joinrel  \rhook $}}{}{}\_\discretionary {\unhbox \voidb@x \hbox {\relax \fontsize  {7}{8}\selectfont  $\DOTSB \leftarrow \joinrel  \rhook $}}{}{}rescale\discretionary {\unhbox \voidb@x \hbox {\relax \fontsize  {7}{8}\selectfont  $\DOTSB \leftarrow \joinrel  \rhook $}}{}{}\_\discretionary {\unhbox \voidb@x \hbox {\relax \fontsize  {7}{8}\selectfont  $\DOTSB \leftarrow \joinrel  \rhook $}}{}{}row()}{20}{paragraph.3.4.2.3}\protected@file@percent }
\gdef \LT@xxxv {\LT@entry 
    {3}{18.80287pt}\LT@entry 
    {3}{69.64798pt}}
\gdef \LT@xxxvi {\LT@entry 
    {3}{54.17242pt}\LT@entry 
    {3}{90.52754pt}}
\gdef \LT@xxxvii {\LT@entry 
    {3}{32.16774pt}\LT@entry 
    {3}{56.50832pt}}
\newlabel{group__RowOperations_gaaf2a103ff7f7baf056c735687efe0aa0}{{3.4.2.3}{21}{\texorpdfstring {mzd\+\_\+slice\+\_\+rescale\+\_\+row()}{mzd\_slice\_rescale\_row()}}{table.35}{}}
\@writefile{toc}{\contentsline {paragraph}{\numberline {3.4.2.4}mzd\discretionary {\unhbox \voidb@x \hbox {\relax \fontsize  {7}{8}\selectfont  $\DOTSB \leftarrow \joinrel  \rhook $}}{}{}\_\discretionary {\unhbox \voidb@x \hbox {\relax \fontsize  {7}{8}\selectfont  $\DOTSB \leftarrow \joinrel  \rhook $}}{}{}slice\discretionary {\unhbox \voidb@x \hbox {\relax \fontsize  {7}{8}\selectfont  $\DOTSB \leftarrow \joinrel  \rhook $}}{}{}\_\discretionary {\unhbox \voidb@x \hbox {\relax \fontsize  {7}{8}\selectfont  $\DOTSB \leftarrow \joinrel  \rhook $}}{}{}row\discretionary {\unhbox \voidb@x \hbox {\relax \fontsize  {7}{8}\selectfont  $\DOTSB \leftarrow \joinrel  \rhook $}}{}{}\_\discretionary {\unhbox \voidb@x \hbox {\relax \fontsize  {7}{8}\selectfont  $\DOTSB \leftarrow \joinrel  \rhook $}}{}{}add()}{21}{paragraph.3.4.2.4}\protected@file@percent }
\newlabel{group__RowOperations_ga03a03f0db95f36fbc55e138448229c65}{{3.4.2.4}{21}{\texorpdfstring {mzd\+\_\+slice\+\_\+row\+\_\+add()}{mzd\_slice\_row\_add()}}{table.36}{}}
\@writefile{toc}{\contentsline {paragraph}{\numberline {3.4.2.5}mzd\discretionary {\unhbox \voidb@x \hbox {\relax \fontsize  {7}{8}\selectfont  $\DOTSB \leftarrow \joinrel  \rhook $}}{}{}\_\discretionary {\unhbox \voidb@x \hbox {\relax \fontsize  {7}{8}\selectfont  $\DOTSB \leftarrow \joinrel  \rhook $}}{}{}slice\discretionary {\unhbox \voidb@x \hbox {\relax \fontsize  {7}{8}\selectfont  $\DOTSB \leftarrow \joinrel  \rhook $}}{}{}\_\discretionary {\unhbox \voidb@x \hbox {\relax \fontsize  {7}{8}\selectfont  $\DOTSB \leftarrow \joinrel  \rhook $}}{}{}row\discretionary {\unhbox \voidb@x \hbox {\relax \fontsize  {7}{8}\selectfont  $\DOTSB \leftarrow \joinrel  \rhook $}}{}{}\_\discretionary {\unhbox \voidb@x \hbox {\relax \fontsize  {7}{8}\selectfont  $\DOTSB \leftarrow \joinrel  \rhook $}}{}{}swap()}{21}{paragraph.3.4.2.5}\protected@file@percent }
\newlabel{group__RowOperations_ga4e8fbad8b4252e44572773fe0a2bea59}{{3.4.2.5}{21}{\texorpdfstring {mzd\+\_\+slice\+\_\+row\+\_\+swap()}{mzd\_slice\_row\_swap()}}{table.37}{}}
\@writefile{toc}{\contentsline {paragraph}{\numberline {3.4.2.6}mzed\discretionary {\unhbox \voidb@x \hbox {\relax \fontsize  {7}{8}\selectfont  $\DOTSB \leftarrow \joinrel  \rhook $}}{}{}\_\discretionary {\unhbox \voidb@x \hbox {\relax \fontsize  {7}{8}\selectfont  $\DOTSB \leftarrow \joinrel  \rhook $}}{}{}add\discretionary {\unhbox \voidb@x \hbox {\relax \fontsize  {7}{8}\selectfont  $\DOTSB \leftarrow \joinrel  \rhook $}}{}{}\_\discretionary {\unhbox \voidb@x \hbox {\relax \fontsize  {7}{8}\selectfont  $\DOTSB \leftarrow \joinrel  \rhook $}}{}{}multiple\discretionary {\unhbox \voidb@x \hbox {\relax \fontsize  {7}{8}\selectfont  $\DOTSB \leftarrow \joinrel  \rhook $}}{}{}\_\discretionary {\unhbox \voidb@x \hbox {\relax \fontsize  {7}{8}\selectfont  $\DOTSB \leftarrow \joinrel  \rhook $}}{}{}of\discretionary {\unhbox \voidb@x \hbox {\relax \fontsize  {7}{8}\selectfont  $\DOTSB \leftarrow \joinrel  \rhook $}}{}{}\_\discretionary {\unhbox \voidb@x \hbox {\relax \fontsize  {7}{8}\selectfont  $\DOTSB \leftarrow \joinrel  \rhook $}}{}{}row()}{21}{paragraph.3.4.2.6}\protected@file@percent }
\gdef \LT@xxxviii {\LT@entry 
    {3}{47.17023pt}\LT@entry 
    {3}{90.42834pt}}
\gdef \LT@xxxix {\LT@entry 
    {3}{47.17023pt}\LT@entry 
    {3}{74.51685pt}}
\gdef \LT@xl {\LT@entry 
    {3}{29.30573pt}\LT@entry 
    {3}{69.64798pt}}
\newlabel{group__RowOperations_ga9de047dab211647fd7fccf38b5214306}{{3.4.2.6}{22}{\texorpdfstring {mzed\+\_\+add\+\_\+multiple\+\_\+of\+\_\+row()}{mzed\_add\_multiple\_of\_row()}}{table.38}{}}
\@writefile{toc}{\contentsline {paragraph}{\numberline {3.4.2.7}mzed\discretionary {\unhbox \voidb@x \hbox {\relax \fontsize  {7}{8}\selectfont  $\DOTSB \leftarrow \joinrel  \rhook $}}{}{}\_\discretionary {\unhbox \voidb@x \hbox {\relax \fontsize  {7}{8}\selectfont  $\DOTSB \leftarrow \joinrel  \rhook $}}{}{}add\discretionary {\unhbox \voidb@x \hbox {\relax \fontsize  {7}{8}\selectfont  $\DOTSB \leftarrow \joinrel  \rhook $}}{}{}\_\discretionary {\unhbox \voidb@x \hbox {\relax \fontsize  {7}{8}\selectfont  $\DOTSB \leftarrow \joinrel  \rhook $}}{}{}row()}{22}{paragraph.3.4.2.7}\protected@file@percent }
\newlabel{group__RowOperations_gaa46e9244173f42e6a42e51f31afac16d}{{3.4.2.7}{22}{\texorpdfstring {mzed\+\_\+add\+\_\+row()}{mzed\_add\_row()}}{table.39}{}}
\@writefile{toc}{\contentsline {paragraph}{\numberline {3.4.2.8}mzed\discretionary {\unhbox \voidb@x \hbox {\relax \fontsize  {7}{8}\selectfont  $\DOTSB \leftarrow \joinrel  \rhook $}}{}{}\_\discretionary {\unhbox \voidb@x \hbox {\relax \fontsize  {7}{8}\selectfont  $\DOTSB \leftarrow \joinrel  \rhook $}}{}{}col\discretionary {\unhbox \voidb@x \hbox {\relax \fontsize  {7}{8}\selectfont  $\DOTSB \leftarrow \joinrel  \rhook $}}{}{}\_\discretionary {\unhbox \voidb@x \hbox {\relax \fontsize  {7}{8}\selectfont  $\DOTSB \leftarrow \joinrel  \rhook $}}{}{}swap()}{22}{paragraph.3.4.2.8}\protected@file@percent }
\gdef \LT@xli {\LT@entry 
    {3}{50.03224pt}\LT@entry 
    {3}{101.51663pt}}
\gdef \LT@xlii {\LT@entry 
    {3}{18.80287pt}\LT@entry 
    {3}{84.02072pt}}
\newlabel{group__RowOperations_ga38aeaca268e3071c6b99bfcc342c155c}{{3.4.2.8}{23}{\texorpdfstring {mzed\+\_\+col\+\_\+swap()}{mzed\_col\_swap()}}{table.40}{}}
\@writefile{toc}{\contentsline {paragraph}{\numberline {3.4.2.9}mzed\discretionary {\unhbox \voidb@x \hbox {\relax \fontsize  {7}{8}\selectfont  $\DOTSB \leftarrow \joinrel  \rhook $}}{}{}\_\discretionary {\unhbox \voidb@x \hbox {\relax \fontsize  {7}{8}\selectfont  $\DOTSB \leftarrow \joinrel  \rhook $}}{}{}col\discretionary {\unhbox \voidb@x \hbox {\relax \fontsize  {7}{8}\selectfont  $\DOTSB \leftarrow \joinrel  \rhook $}}{}{}\_\discretionary {\unhbox \voidb@x \hbox {\relax \fontsize  {7}{8}\selectfont  $\DOTSB \leftarrow \joinrel  \rhook $}}{}{}swap\discretionary {\unhbox \voidb@x \hbox {\relax \fontsize  {7}{8}\selectfont  $\DOTSB \leftarrow \joinrel  \rhook $}}{}{}\_\discretionary {\unhbox \voidb@x \hbox {\relax \fontsize  {7}{8}\selectfont  $\DOTSB \leftarrow \joinrel  \rhook $}}{}{}in\discretionary {\unhbox \voidb@x \hbox {\relax \fontsize  {7}{8}\selectfont  $\DOTSB \leftarrow \joinrel  \rhook $}}{}{}\_\discretionary {\unhbox \voidb@x \hbox {\relax \fontsize  {7}{8}\selectfont  $\DOTSB \leftarrow \joinrel  \rhook $}}{}{}rows()}{23}{paragraph.3.4.2.9}\protected@file@percent }
\newlabel{group__RowOperations_ga3a37e53071106b7d144ae379e4d793d9}{{3.4.2.9}{23}{\texorpdfstring {mzed\+\_\+col\+\_\+swap\+\_\+in\+\_\+rows()}{mzed\_col\_swap\_in\_rows()}}{table.41}{}}
\@writefile{toc}{\contentsline {paragraph}{\numberline {3.4.2.10}mzed\discretionary {\unhbox \voidb@x \hbox {\relax \fontsize  {7}{8}\selectfont  $\DOTSB \leftarrow \joinrel  \rhook $}}{}{}\_\discretionary {\unhbox \voidb@x \hbox {\relax \fontsize  {7}{8}\selectfont  $\DOTSB \leftarrow \joinrel  \rhook $}}{}{}copy\discretionary {\unhbox \voidb@x \hbox {\relax \fontsize  {7}{8}\selectfont  $\DOTSB \leftarrow \joinrel  \rhook $}}{}{}\_\discretionary {\unhbox \voidb@x \hbox {\relax \fontsize  {7}{8}\selectfont  $\DOTSB \leftarrow \joinrel  \rhook $}}{}{}row()}{23}{paragraph.3.4.2.10}\protected@file@percent }
\newlabel{group__RowOperations_ga56b86123509148fe9028354ad8ba2f38}{{3.4.2.10}{23}{\texorpdfstring {mzed\+\_\+copy\+\_\+row()}{mzed\_copy\_row()}}{table.42}{}}
\@writefile{toc}{\contentsline {paragraph}{\numberline {3.4.2.11}mzed\discretionary {\unhbox \voidb@x \hbox {\relax \fontsize  {7}{8}\selectfont  $\DOTSB \leftarrow \joinrel  \rhook $}}{}{}\_\discretionary {\unhbox \voidb@x \hbox {\relax \fontsize  {7}{8}\selectfont  $\DOTSB \leftarrow \joinrel  \rhook $}}{}{}first\discretionary {\unhbox \voidb@x \hbox {\relax \fontsize  {7}{8}\selectfont  $\DOTSB \leftarrow \joinrel  \rhook $}}{}{}\_\discretionary {\unhbox \voidb@x \hbox {\relax \fontsize  {7}{8}\selectfont  $\DOTSB \leftarrow \joinrel  \rhook $}}{}{}zero\discretionary {\unhbox \voidb@x \hbox {\relax \fontsize  {7}{8}\selectfont  $\DOTSB \leftarrow \joinrel  \rhook $}}{}{}\_\discretionary {\unhbox \voidb@x \hbox {\relax \fontsize  {7}{8}\selectfont  $\DOTSB \leftarrow \joinrel  \rhook $}}{}{}row()}{23}{paragraph.3.4.2.11}\protected@file@percent }
\gdef \LT@xliii {\LT@entry 
    {3}{18.80287pt}\LT@entry 
    {3}{37.03246pt}}
\gdef \LT@xliv {\LT@entry 
    {3}{45.02834pt}\LT@entry 
    {3}{141.72737pt}}
\gdef \LT@xlv {\LT@entry 
    {3}{45.02834pt}\LT@entry 
    {3}{141.72737pt}}
\newlabel{group__RowOperations_ga190c5e98f42e21075b249dafee39a5ec}{{3.4.2.11}{24}{\texorpdfstring {mzed\+\_\+first\+\_\+zero\+\_\+row()}{mzed\_first\_zero\_row()}}{table.43}{}}
\@writefile{toc}{\contentsline {paragraph}{\numberline {3.4.2.12}mzed\discretionary {\unhbox \voidb@x \hbox {\relax \fontsize  {7}{8}\selectfont  $\DOTSB \leftarrow \joinrel  \rhook $}}{}{}\_\discretionary {\unhbox \voidb@x \hbox {\relax \fontsize  {7}{8}\selectfont  $\DOTSB \leftarrow \joinrel  \rhook $}}{}{}process\discretionary {\unhbox \voidb@x \hbox {\relax \fontsize  {7}{8}\selectfont  $\DOTSB \leftarrow \joinrel  \rhook $}}{}{}\_\discretionary {\unhbox \voidb@x \hbox {\relax \fontsize  {7}{8}\selectfont  $\DOTSB \leftarrow \joinrel  \rhook $}}{}{}rows()}{24}{paragraph.3.4.2.12}\protected@file@percent }
\newlabel{group__RowOperations_gac082ae2c6c55665b14949a33f15feb6c}{{3.4.2.12}{24}{\texorpdfstring {mzed\+\_\+process\+\_\+rows()}{mzed\_process\_rows()}}{table.44}{}}
\@writefile{toc}{\contentsline {paragraph}{\numberline {3.4.2.13}mzed\discretionary {\unhbox \voidb@x \hbox {\relax \fontsize  {7}{8}\selectfont  $\DOTSB \leftarrow \joinrel  \rhook $}}{}{}\_\discretionary {\unhbox \voidb@x \hbox {\relax \fontsize  {7}{8}\selectfont  $\DOTSB \leftarrow \joinrel  \rhook $}}{}{}process\discretionary {\unhbox \voidb@x \hbox {\relax \fontsize  {7}{8}\selectfont  $\DOTSB \leftarrow \joinrel  \rhook $}}{}{}\_\discretionary {\unhbox \voidb@x \hbox {\relax \fontsize  {7}{8}\selectfont  $\DOTSB \leftarrow \joinrel  \rhook $}}{}{}rows2()}{24}{paragraph.3.4.2.13}\protected@file@percent }
\newlabel{group__RowOperations_ga9ae1087d1016b150d3d93dafa4128dd9}{{3.4.2.13}{24}{\texorpdfstring {mzed\+\_\+process\+\_\+rows2()}{mzed\_process\_rows2()}}{table.45}{}}
\gdef \LT@xlvi {\LT@entry 
    {3}{45.02834pt}\LT@entry 
    {3}{141.72737pt}}
\gdef \LT@xlvii {\LT@entry 
    {3}{45.02834pt}\LT@entry 
    {3}{141.72737pt}}
\@writefile{toc}{\contentsline {paragraph}{\numberline {3.4.2.14}mzed\discretionary {\unhbox \voidb@x \hbox {\relax \fontsize  {7}{8}\selectfont  $\DOTSB \leftarrow \joinrel  \rhook $}}{}{}\_\discretionary {\unhbox \voidb@x \hbox {\relax \fontsize  {7}{8}\selectfont  $\DOTSB \leftarrow \joinrel  \rhook $}}{}{}process\discretionary {\unhbox \voidb@x \hbox {\relax \fontsize  {7}{8}\selectfont  $\DOTSB \leftarrow \joinrel  \rhook $}}{}{}\_\discretionary {\unhbox \voidb@x \hbox {\relax \fontsize  {7}{8}\selectfont  $\DOTSB \leftarrow \joinrel  \rhook $}}{}{}rows3()}{25}{paragraph.3.4.2.14}\protected@file@percent }
\newlabel{group__RowOperations_gadd2bb4ea3df3149bbf35914c63cbbd76}{{3.4.2.14}{25}{\texorpdfstring {mzed\+\_\+process\+\_\+rows3()}{mzed\_process\_rows3()}}{table.46}{}}
\@writefile{toc}{\contentsline {paragraph}{\numberline {3.4.2.15}mzed\discretionary {\unhbox \voidb@x \hbox {\relax \fontsize  {7}{8}\selectfont  $\DOTSB \leftarrow \joinrel  \rhook $}}{}{}\_\discretionary {\unhbox \voidb@x \hbox {\relax \fontsize  {7}{8}\selectfont  $\DOTSB \leftarrow \joinrel  \rhook $}}{}{}process\discretionary {\unhbox \voidb@x \hbox {\relax \fontsize  {7}{8}\selectfont  $\DOTSB \leftarrow \joinrel  \rhook $}}{}{}\_\discretionary {\unhbox \voidb@x \hbox {\relax \fontsize  {7}{8}\selectfont  $\DOTSB \leftarrow \joinrel  \rhook $}}{}{}rows4()}{25}{paragraph.3.4.2.15}\protected@file@percent }
\newlabel{group__RowOperations_ga71f7825c81ac091d5cdace8793497778}{{3.4.2.15}{25}{\texorpdfstring {mzed\+\_\+process\+\_\+rows4()}{mzed\_process\_rows4()}}{table.47}{}}
\gdef \LT@xlviii {\LT@entry 
    {3}{45.02834pt}\LT@entry 
    {3}{141.72737pt}}
\gdef \LT@xlix {\LT@entry 
    {3}{45.02834pt}\LT@entry 
    {3}{141.72737pt}}
\@writefile{toc}{\contentsline {paragraph}{\numberline {3.4.2.16}mzed\discretionary {\unhbox \voidb@x \hbox {\relax \fontsize  {7}{8}\selectfont  $\DOTSB \leftarrow \joinrel  \rhook $}}{}{}\_\discretionary {\unhbox \voidb@x \hbox {\relax \fontsize  {7}{8}\selectfont  $\DOTSB \leftarrow \joinrel  \rhook $}}{}{}process\discretionary {\unhbox \voidb@x \hbox {\relax \fontsize  {7}{8}\selectfont  $\DOTSB \leftarrow \joinrel  \rhook $}}{}{}\_\discretionary {\unhbox \voidb@x \hbox {\relax \fontsize  {7}{8}\selectfont  $\DOTSB \leftarrow \joinrel  \rhook $}}{}{}rows5()}{26}{paragraph.3.4.2.16}\protected@file@percent }
\newlabel{group__RowOperations_ga88ad71946fffaade54d89e549ed46a0c}{{3.4.2.16}{26}{\texorpdfstring {mzed\+\_\+process\+\_\+rows5()}{mzed\_process\_rows5()}}{table.48}{}}
\@writefile{toc}{\contentsline {paragraph}{\numberline {3.4.2.17}mzed\discretionary {\unhbox \voidb@x \hbox {\relax \fontsize  {7}{8}\selectfont  $\DOTSB \leftarrow \joinrel  \rhook $}}{}{}\_\discretionary {\unhbox \voidb@x \hbox {\relax \fontsize  {7}{8}\selectfont  $\DOTSB \leftarrow \joinrel  \rhook $}}{}{}process\discretionary {\unhbox \voidb@x \hbox {\relax \fontsize  {7}{8}\selectfont  $\DOTSB \leftarrow \joinrel  \rhook $}}{}{}\_\discretionary {\unhbox \voidb@x \hbox {\relax \fontsize  {7}{8}\selectfont  $\DOTSB \leftarrow \joinrel  \rhook $}}{}{}rows6()}{26}{paragraph.3.4.2.17}\protected@file@percent }
\gdef \LT@l {\LT@entry 
    {3}{47.17023pt}\LT@entry 
    {3}{69.64798pt}}
\gdef \LT@li {\LT@entry 
    {3}{54.17242pt}\LT@entry 
    {3}{90.52754pt}}
\newlabel{group__RowOperations_ga6a0d5057bb0a6f8beafe226254dfc0bd}{{3.4.2.17}{27}{\texorpdfstring {mzed\+\_\+process\+\_\+rows6()}{mzed\_process\_rows6()}}{table.49}{}}
\@writefile{toc}{\contentsline {paragraph}{\numberline {3.4.2.18}mzed\discretionary {\unhbox \voidb@x \hbox {\relax \fontsize  {7}{8}\selectfont  $\DOTSB \leftarrow \joinrel  \rhook $}}{}{}\_\discretionary {\unhbox \voidb@x \hbox {\relax \fontsize  {7}{8}\selectfont  $\DOTSB \leftarrow \joinrel  \rhook $}}{}{}rescale\discretionary {\unhbox \voidb@x \hbox {\relax \fontsize  {7}{8}\selectfont  $\DOTSB \leftarrow \joinrel  \rhook $}}{}{}\_\discretionary {\unhbox \voidb@x \hbox {\relax \fontsize  {7}{8}\selectfont  $\DOTSB \leftarrow \joinrel  \rhook $}}{}{}row()}{27}{paragraph.3.4.2.18}\protected@file@percent }
\newlabel{group__RowOperations_ga81b5c421863803b7bed83580ccdf2629}{{3.4.2.18}{27}{\texorpdfstring {mzed\+\_\+rescale\+\_\+row()}{mzed\_rescale\_row()}}{table.50}{}}
\@writefile{toc}{\contentsline {paragraph}{\numberline {3.4.2.19}mzed\discretionary {\unhbox \voidb@x \hbox {\relax \fontsize  {7}{8}\selectfont  $\DOTSB \leftarrow \joinrel  \rhook $}}{}{}\_\discretionary {\unhbox \voidb@x \hbox {\relax \fontsize  {7}{8}\selectfont  $\DOTSB \leftarrow \joinrel  \rhook $}}{}{}row\discretionary {\unhbox \voidb@x \hbox {\relax \fontsize  {7}{8}\selectfont  $\DOTSB \leftarrow \joinrel  \rhook $}}{}{}\_\discretionary {\unhbox \voidb@x \hbox {\relax \fontsize  {7}{8}\selectfont  $\DOTSB \leftarrow \joinrel  \rhook $}}{}{}add()}{27}{paragraph.3.4.2.19}\protected@file@percent }
\newlabel{group__RowOperations_ga113b0007069254d26a27cbb5dfcf5fdf}{{3.4.2.19}{27}{\texorpdfstring {mzed\+\_\+row\+\_\+add()}{mzed\_row\_add()}}{table.51}{}}
\@writefile{toc}{\contentsline {paragraph}{\numberline {3.4.2.20}mzed\discretionary {\unhbox \voidb@x \hbox {\relax \fontsize  {7}{8}\selectfont  $\DOTSB \leftarrow \joinrel  \rhook $}}{}{}\_\discretionary {\unhbox \voidb@x \hbox {\relax \fontsize  {7}{8}\selectfont  $\DOTSB \leftarrow \joinrel  \rhook $}}{}{}row\discretionary {\unhbox \voidb@x \hbox {\relax \fontsize  {7}{8}\selectfont  $\DOTSB \leftarrow \joinrel  \rhook $}}{}{}\_\discretionary {\unhbox \voidb@x \hbox {\relax \fontsize  {7}{8}\selectfont  $\DOTSB \leftarrow \joinrel  \rhook $}}{}{}swap()}{27}{paragraph.3.4.2.20}\protected@file@percent }
\gdef \LT@lii {\LT@entry 
    {3}{32.16774pt}\LT@entry 
    {3}{56.50832pt}}
\@setckpt{group__RowOperations}{
\setcounter{page}{29}
\setcounter{equation}{0}
\setcounter{enumi}{0}
\setcounter{enumii}{0}
\setcounter{enumiii}{0}
\setcounter{enumiv}{0}
\setcounter{footnote}{0}
\setcounter{mpfootnote}{0}
\setcounter{part}{0}
\setcounter{section}{3}
\setcounter{subsection}{4}
\setcounter{subsubsection}{2}
\setcounter{paragraph}{20}
\setcounter{subparagraph}{0}
\setcounter{figure}{0}
\setcounter{table}{52}
\setcounter{float@type}{4}
\setcounter{LT@tables}{52}
\setcounter{LT@chunks}{3}
\setcounter{NAT@ctr}{0}
\setcounter{lofdepth}{1}
\setcounter{lotdepth}{1}
\setcounter{parentequation}{0}
\setcounter{Item}{0}
\setcounter{Hfootnote}{0}
\setcounter{bookmark@seq@number}{14}
\setcounter{caption@flags}{0}
\setcounter{ContinuedFloat}{0}
\setcounter{section@level}{4}
}
