\relax 
\providecommand\hyper@newdestlabel[2]{}
\gdef \LT@xxi {\LT@entry 
    {3}{18.80287pt}\LT@entry 
    {3}{37.03246pt}}
\@writefile{toc}{\contentsline {subsection}{\numberline {3.3}Assignment and basic manipulation}{14}{subsection.3.3}\protected@file@percent }
\newlabel{group__Assignment}{{3.3}{14}{Assignment and basic manipulation}{subsection.3.3}{}}
\@writefile{toc}{\contentsline {subsubsection}{\numberline {3.3.1}Detailed Description}{14}{subsubsection.3.3.1}\protected@file@percent }
\@writefile{toc}{\contentsline {subsubsection}{\numberline {3.3.2}Function Documentation}{14}{subsubsection.3.3.2}\protected@file@percent }
\newlabel{group__Assignment_ga3b4891908d12b217c12a18d13795d53e}{{3.3.2}{14}{Function Documentation}{subsubsection.3.3.2}{}}
\@writefile{toc}{\contentsline {paragraph}{\numberline {3.3.2.1}mzd\discretionary {\unhbox \voidb@x \hbox {\relax \fontsize  {7}{8}\selectfont  $\DOTSB \leftarrow \joinrel  \rhook $}}{}{}\_\discretionary {\unhbox \voidb@x \hbox {\relax \fontsize  {7}{8}\selectfont  $\DOTSB \leftarrow \joinrel  \rhook $}}{}{}poly\discretionary {\unhbox \voidb@x \hbox {\relax \fontsize  {7}{8}\selectfont  $\DOTSB \leftarrow \joinrel  \rhook $}}{}{}\_\discretionary {\unhbox \voidb@x \hbox {\relax \fontsize  {7}{8}\selectfont  $\DOTSB \leftarrow \joinrel  \rhook $}}{}{}randomize()}{14}{paragraph.3.3.2.1}\protected@file@percent }
\newlabel{group__Assignment_gadac7bff54b10a9edb25204039877dbc0}{{3.3.2.1}{14}{\texorpdfstring {mzd\+\_\+poly\+\_\+randomize()}{mzd\_poly\_randomize()}}{table.21}{}}
\gdef \LT@xxii {\LT@entry 
    {3}{32.30266pt}\LT@entry 
    {3}{87.43141pt}}
\gdef \LT@xxiii {\LT@entry 
    {3}{18.80287pt}\LT@entry 
    {3}{37.03246pt}}
\gdef \LT@xxiv {\LT@entry 
    {3}{27.16383pt}\LT@entry 
    {3}{77.78351pt}}
\@writefile{toc}{\contentsline {paragraph}{\numberline {3.3.2.2}mzd\discretionary {\unhbox \voidb@x \hbox {\relax \fontsize  {7}{8}\selectfont  $\DOTSB \leftarrow \joinrel  \rhook $}}{}{}\_\discretionary {\unhbox \voidb@x \hbox {\relax \fontsize  {7}{8}\selectfont  $\DOTSB \leftarrow \joinrel  \rhook $}}{}{}slice\discretionary {\unhbox \voidb@x \hbox {\relax \fontsize  {7}{8}\selectfont  $\DOTSB \leftarrow \joinrel  \rhook $}}{}{}\_\discretionary {\unhbox \voidb@x \hbox {\relax \fontsize  {7}{8}\selectfont  $\DOTSB \leftarrow \joinrel  \rhook $}}{}{}add\discretionary {\unhbox \voidb@x \hbox {\relax \fontsize  {7}{8}\selectfont  $\DOTSB \leftarrow \joinrel  \rhook $}}{}{}\_\discretionary {\unhbox \voidb@x \hbox {\relax \fontsize  {7}{8}\selectfont  $\DOTSB \leftarrow \joinrel  \rhook $}}{}{}elem()}{15}{paragraph.3.3.2.2}\protected@file@percent }
\newlabel{group__Assignment_ga88862c940d3ee24b00fcc782d8a4bf82}{{3.3.2.2}{15}{\texorpdfstring {mzd\+\_\+slice\+\_\+add\+\_\+elem()}{mzd\_slice\_add\_elem()}}{table.22}{}}
\@writefile{toc}{\contentsline {paragraph}{\numberline {3.3.2.3}mzd\discretionary {\unhbox \voidb@x \hbox {\relax \fontsize  {7}{8}\selectfont  $\DOTSB \leftarrow \joinrel  \rhook $}}{}{}\_\discretionary {\unhbox \voidb@x \hbox {\relax \fontsize  {7}{8}\selectfont  $\DOTSB \leftarrow \joinrel  \rhook $}}{}{}slice\discretionary {\unhbox \voidb@x \hbox {\relax \fontsize  {7}{8}\selectfont  $\DOTSB \leftarrow \joinrel  \rhook $}}{}{}\_\discretionary {\unhbox \voidb@x \hbox {\relax \fontsize  {7}{8}\selectfont  $\DOTSB \leftarrow \joinrel  \rhook $}}{}{}randomize()}{15}{paragraph.3.3.2.3}\protected@file@percent }
\newlabel{group__Assignment_ga8c73edfd8dbd84e9896ba31e418a791a}{{3.3.2.3}{15}{\texorpdfstring {mzd\+\_\+slice\+\_\+randomize()}{mzd\_slice\_randomize()}}{table.23}{}}
\@writefile{toc}{\contentsline {paragraph}{\numberline {3.3.2.4}mzd\discretionary {\unhbox \voidb@x \hbox {\relax \fontsize  {7}{8}\selectfont  $\DOTSB \leftarrow \joinrel  \rhook $}}{}{}\_\discretionary {\unhbox \voidb@x \hbox {\relax \fontsize  {7}{8}\selectfont  $\DOTSB \leftarrow \joinrel  \rhook $}}{}{}slice\discretionary {\unhbox \voidb@x \hbox {\relax \fontsize  {7}{8}\selectfont  $\DOTSB \leftarrow \joinrel  \rhook $}}{}{}\_\discretionary {\unhbox \voidb@x \hbox {\relax \fontsize  {7}{8}\selectfont  $\DOTSB \leftarrow \joinrel  \rhook $}}{}{}read\discretionary {\unhbox \voidb@x \hbox {\relax \fontsize  {7}{8}\selectfont  $\DOTSB \leftarrow \joinrel  \rhook $}}{}{}\_\discretionary {\unhbox \voidb@x \hbox {\relax \fontsize  {7}{8}\selectfont  $\DOTSB \leftarrow \joinrel  \rhook $}}{}{}elem()}{15}{paragraph.3.3.2.4}\protected@file@percent }
\gdef \LT@xxv {\LT@entry 
    {3}{34.08463pt}\LT@entry 
    {3}{93.42528pt}}
\gdef \LT@xxvi {\LT@entry 
    {3}{32.30266pt}\LT@entry 
    {3}{87.43141pt}}
\newlabel{group__Assignment_gadb3c33d92f81a77c83759e6395be8138}{{3.3.2.4}{16}{\texorpdfstring {mzd\+\_\+slice\+\_\+read\+\_\+elem()}{mzd\_slice\_read\_elem()}}{table.24}{}}
\@writefile{toc}{\contentsline {paragraph}{\numberline {3.3.2.5}mzd\discretionary {\unhbox \voidb@x \hbox {\relax \fontsize  {7}{8}\selectfont  $\DOTSB \leftarrow \joinrel  \rhook $}}{}{}\_\discretionary {\unhbox \voidb@x \hbox {\relax \fontsize  {7}{8}\selectfont  $\DOTSB \leftarrow \joinrel  \rhook $}}{}{}slice\discretionary {\unhbox \voidb@x \hbox {\relax \fontsize  {7}{8}\selectfont  $\DOTSB \leftarrow \joinrel  \rhook $}}{}{}\_\discretionary {\unhbox \voidb@x \hbox {\relax \fontsize  {7}{8}\selectfont  $\DOTSB \leftarrow \joinrel  \rhook $}}{}{}set\discretionary {\unhbox \voidb@x \hbox {\relax \fontsize  {7}{8}\selectfont  $\DOTSB \leftarrow \joinrel  \rhook $}}{}{}\_\discretionary {\unhbox \voidb@x \hbox {\relax \fontsize  {7}{8}\selectfont  $\DOTSB \leftarrow \joinrel  \rhook $}}{}{}ui()}{16}{paragraph.3.3.2.5}\protected@file@percent }
\newlabel{group__Assignment_gaf83b2d418e076cad1b932c891e393fc3}{{3.3.2.5}{16}{\texorpdfstring {mzd\+\_\+slice\+\_\+set\+\_\+ui()}{mzd\_slice\_set\_ui()}}{table.25}{}}
\@writefile{toc}{\contentsline {paragraph}{\numberline {3.3.2.6}mzd\discretionary {\unhbox \voidb@x \hbox {\relax \fontsize  {7}{8}\selectfont  $\DOTSB \leftarrow \joinrel  \rhook $}}{}{}\_\discretionary {\unhbox \voidb@x \hbox {\relax \fontsize  {7}{8}\selectfont  $\DOTSB \leftarrow \joinrel  \rhook $}}{}{}slice\discretionary {\unhbox \voidb@x \hbox {\relax \fontsize  {7}{8}\selectfont  $\DOTSB \leftarrow \joinrel  \rhook $}}{}{}\_\discretionary {\unhbox \voidb@x \hbox {\relax \fontsize  {7}{8}\selectfont  $\DOTSB \leftarrow \joinrel  \rhook $}}{}{}write\discretionary {\unhbox \voidb@x \hbox {\relax \fontsize  {7}{8}\selectfont  $\DOTSB \leftarrow \joinrel  \rhook $}}{}{}\_\discretionary {\unhbox \voidb@x \hbox {\relax \fontsize  {7}{8}\selectfont  $\DOTSB \leftarrow \joinrel  \rhook $}}{}{}elem()}{16}{paragraph.3.3.2.6}\protected@file@percent }
\newlabel{group__Assignment_ga593a8e5503b690c9e4647d5b6430a593}{{3.3.2.6}{16}{\texorpdfstring {mzd\+\_\+slice\+\_\+write\+\_\+elem()}{mzd\_slice\_write\_elem()}}{table.26}{}}
\@writefile{toc}{\contentsline {paragraph}{\numberline {3.3.2.7}mzed\discretionary {\unhbox \voidb@x \hbox {\relax \fontsize  {7}{8}\selectfont  $\DOTSB \leftarrow \joinrel  \rhook $}}{}{}\_\discretionary {\unhbox \voidb@x \hbox {\relax \fontsize  {7}{8}\selectfont  $\DOTSB \leftarrow \joinrel  \rhook $}}{}{}add\discretionary {\unhbox \voidb@x \hbox {\relax \fontsize  {7}{8}\selectfont  $\DOTSB \leftarrow \joinrel  \rhook $}}{}{}\_\discretionary {\unhbox \voidb@x \hbox {\relax \fontsize  {7}{8}\selectfont  $\DOTSB \leftarrow \joinrel  \rhook $}}{}{}elem()}{16}{paragraph.3.3.2.7}\protected@file@percent }
\gdef \LT@xxvii {\LT@entry 
    {3}{32.30266pt}\LT@entry 
    {3}{87.43141pt}}
\gdef \LT@xxviii {\LT@entry 
    {3}{18.80287pt}\LT@entry 
    {3}{158.41306pt}}
\gdef \LT@xxix {\LT@entry 
    {3}{18.80287pt}\LT@entry 
    {3}{37.03246pt}}
\newlabel{group__Assignment_gae89b532d969771d6cd241fc616d8535a}{{3.3.2.7}{17}{\texorpdfstring {mzed\+\_\+add\+\_\+elem()}{mzed\_add\_elem()}}{table.27}{}}
\@writefile{toc}{\contentsline {paragraph}{\numberline {3.3.2.8}mzed\discretionary {\unhbox \voidb@x \hbox {\relax \fontsize  {7}{8}\selectfont  $\DOTSB \leftarrow \joinrel  \rhook $}}{}{}\_\discretionary {\unhbox \voidb@x \hbox {\relax \fontsize  {7}{8}\selectfont  $\DOTSB \leftarrow \joinrel  \rhook $}}{}{}copy()}{17}{paragraph.3.3.2.8}\protected@file@percent }
\newlabel{group__Assignment_ga832602c27eef86d6fe89a89e2e87eb36}{{3.3.2.8}{17}{\texorpdfstring {mzed\+\_\+copy()}{mzed\_copy()}}{table.28}{}}
\@writefile{toc}{\contentsline {paragraph}{\numberline {3.3.2.9}mzed\discretionary {\unhbox \voidb@x \hbox {\relax \fontsize  {7}{8}\selectfont  $\DOTSB \leftarrow \joinrel  \rhook $}}{}{}\_\discretionary {\unhbox \voidb@x \hbox {\relax \fontsize  {7}{8}\selectfont  $\DOTSB \leftarrow \joinrel  \rhook $}}{}{}randomize()}{17}{paragraph.3.3.2.9}\protected@file@percent }
\newlabel{group__Assignment_ga58f9f7c7d15e719d6a5a0cf463b24f32}{{3.3.2.9}{17}{\texorpdfstring {mzed\+\_\+randomize()}{mzed\_randomize()}}{table.29}{}}
\@writefile{toc}{\contentsline {paragraph}{\numberline {3.3.2.10}mzed\discretionary {\unhbox \voidb@x \hbox {\relax \fontsize  {7}{8}\selectfont  $\DOTSB \leftarrow \joinrel  \rhook $}}{}{}\_\discretionary {\unhbox \voidb@x \hbox {\relax \fontsize  {7}{8}\selectfont  $\DOTSB \leftarrow \joinrel  \rhook $}}{}{}read\discretionary {\unhbox \voidb@x \hbox {\relax \fontsize  {7}{8}\selectfont  $\DOTSB \leftarrow \joinrel  \rhook $}}{}{}\_\discretionary {\unhbox \voidb@x \hbox {\relax \fontsize  {7}{8}\selectfont  $\DOTSB \leftarrow \joinrel  \rhook $}}{}{}elem()}{17}{paragraph.3.3.2.10}\protected@file@percent }
\gdef \LT@xxx {\LT@entry 
    {3}{27.16383pt}\LT@entry 
    {3}{77.78351pt}}
\gdef \LT@xxxi {\LT@entry 
    {3}{34.08463pt}\LT@entry 
    {3}{90.92339pt}}
\gdef \LT@xxxii {\LT@entry 
    {3}{32.30266pt}\LT@entry 
    {3}{87.43141pt}}
\newlabel{group__Assignment_ga0446481d176886af4ed8d715f4d37471}{{3.3.2.10}{18}{\texorpdfstring {mzed\+\_\+read\+\_\+elem()}{mzed\_read\_elem()}}{table.30}{}}
\@writefile{toc}{\contentsline {paragraph}{\numberline {3.3.2.11}mzed\discretionary {\unhbox \voidb@x \hbox {\relax \fontsize  {7}{8}\selectfont  $\DOTSB \leftarrow \joinrel  \rhook $}}{}{}\_\discretionary {\unhbox \voidb@x \hbox {\relax \fontsize  {7}{8}\selectfont  $\DOTSB \leftarrow \joinrel  \rhook $}}{}{}set\discretionary {\unhbox \voidb@x \hbox {\relax \fontsize  {7}{8}\selectfont  $\DOTSB \leftarrow \joinrel  \rhook $}}{}{}\_\discretionary {\unhbox \voidb@x \hbox {\relax \fontsize  {7}{8}\selectfont  $\DOTSB \leftarrow \joinrel  \rhook $}}{}{}ui()}{18}{paragraph.3.3.2.11}\protected@file@percent }
\newlabel{group__Assignment_ga67b0568650a5239fd82607019c7ce8cc}{{3.3.2.11}{18}{\texorpdfstring {mzed\+\_\+set\+\_\+ui()}{mzed\_set\_ui()}}{table.31}{}}
\@writefile{toc}{\contentsline {paragraph}{\numberline {3.3.2.12}mzed\discretionary {\unhbox \voidb@x \hbox {\relax \fontsize  {7}{8}\selectfont  $\DOTSB \leftarrow \joinrel  \rhook $}}{}{}\_\discretionary {\unhbox \voidb@x \hbox {\relax \fontsize  {7}{8}\selectfont  $\DOTSB \leftarrow \joinrel  \rhook $}}{}{}write\discretionary {\unhbox \voidb@x \hbox {\relax \fontsize  {7}{8}\selectfont  $\DOTSB \leftarrow \joinrel  \rhook $}}{}{}\_\discretionary {\unhbox \voidb@x \hbox {\relax \fontsize  {7}{8}\selectfont  $\DOTSB \leftarrow \joinrel  \rhook $}}{}{}elem()}{18}{paragraph.3.3.2.12}\protected@file@percent }
\@setckpt{group__Assignment}{
\setcounter{page}{19}
\setcounter{equation}{0}
\setcounter{enumi}{0}
\setcounter{enumii}{0}
\setcounter{enumiii}{0}
\setcounter{enumiv}{0}
\setcounter{footnote}{0}
\setcounter{mpfootnote}{0}
\setcounter{part}{0}
\setcounter{section}{3}
\setcounter{subsection}{3}
\setcounter{subsubsection}{2}
\setcounter{paragraph}{12}
\setcounter{subparagraph}{0}
\setcounter{figure}{0}
\setcounter{table}{32}
\setcounter{float@type}{4}
\setcounter{LT@tables}{32}
\setcounter{LT@chunks}{3}
\setcounter{NAT@ctr}{0}
\setcounter{lofdepth}{1}
\setcounter{lotdepth}{1}
\setcounter{parentequation}{0}
\setcounter{Item}{0}
\setcounter{Hfootnote}{0}
\setcounter{bookmark@seq@number}{11}
\setcounter{caption@flags}{0}
\setcounter{ContinuedFloat}{0}
\setcounter{section@level}{4}
}
