\relax 
\providecommand\hyper@newdestlabel[2]{}
\@writefile{toc}{\contentsline {subsection}{\numberline {3.2}Constructions}{4}{subsection.3.2}\protected@file@percent }
\newlabel{group__Constructions}{{3.2}{4}{Constructions}{subsection.3.2}{}}
\gdef \LT@i {\LT@entry 
    {3}{56.64719pt}\LT@entry 
    {3}{199.33884pt}}
\gdef \LT@ii {\LT@entry 
    {3}{18.80287pt}\LT@entry 
    {3}{58.46112pt}}
\gdef \LT@iii {\LT@entry 
    {3}{20.29689pt}\LT@entry 
    {3}{92.78654pt}}
\@writefile{toc}{\contentsline {subsubsection}{\numberline {3.2.1}Detailed Description}{5}{subsubsection.3.2.1}\protected@file@percent }
\@writefile{toc}{\contentsline {subsubsection}{\numberline {3.2.2}Function Documentation}{5}{subsubsection.3.2.2}\protected@file@percent }
\newlabel{group__Constructions_ga18ddb192483565b8f05fee70dcf4d4da}{{3.2.2}{5}{Function Documentation}{subsubsection.3.2.2}{}}
\@writefile{toc}{\contentsline {paragraph}{\numberline {3.2.2.1}\discretionary {\unhbox \voidb@x \hbox {\relax \fontsize  {7}{8}\selectfont  $\DOTSB \leftarrow \joinrel  \rhook $}}{}{}\_\discretionary {\unhbox \voidb@x \hbox {\relax \fontsize  {7}{8}\selectfont  $\DOTSB \leftarrow \joinrel  \rhook $}}{}{}mzd\discretionary {\unhbox \voidb@x \hbox {\relax \fontsize  {7}{8}\selectfont  $\DOTSB \leftarrow \joinrel  \rhook $}}{}{}\_\discretionary {\unhbox \voidb@x \hbox {\relax \fontsize  {7}{8}\selectfont  $\DOTSB \leftarrow \joinrel  \rhook $}}{}{}poly\discretionary {\unhbox \voidb@x \hbox {\relax \fontsize  {7}{8}\selectfont  $\DOTSB \leftarrow \joinrel  \rhook $}}{}{}\_\discretionary {\unhbox \voidb@x \hbox {\relax \fontsize  {7}{8}\selectfont  $\DOTSB \leftarrow \joinrel  \rhook $}}{}{}adapt\discretionary {\unhbox \voidb@x \hbox {\relax \fontsize  {7}{8}\selectfont  $\DOTSB \leftarrow \joinrel  \rhook $}}{}{}\_\discretionary {\unhbox \voidb@x \hbox {\relax \fontsize  {7}{8}\selectfont  $\DOTSB \leftarrow \joinrel  \rhook $}}{}{}depth()}{5}{paragraph.3.2.2.1}\protected@file@percent }
\newlabel{group__Constructions_gaa471d0451775f0af951312f6fc577179}{{3.2.2.1}{5}{\texorpdfstring {\+\_\+mzd\+\_\+poly\+\_\+adapt\+\_\+depth()}{\_mzd\_poly\_adapt\_depth()}}{table.1}{}}
\@writefile{toc}{\contentsline {paragraph}{\numberline {3.2.2.2}mzd\discretionary {\unhbox \voidb@x \hbox {\relax \fontsize  {7}{8}\selectfont  $\DOTSB \leftarrow \joinrel  \rhook $}}{}{}\_\discretionary {\unhbox \voidb@x \hbox {\relax \fontsize  {7}{8}\selectfont  $\DOTSB \leftarrow \joinrel  \rhook $}}{}{}poly\discretionary {\unhbox \voidb@x \hbox {\relax \fontsize  {7}{8}\selectfont  $\DOTSB \leftarrow \joinrel  \rhook $}}{}{}\_\discretionary {\unhbox \voidb@x \hbox {\relax \fontsize  {7}{8}\selectfont  $\DOTSB \leftarrow \joinrel  \rhook $}}{}{}free()}{5}{paragraph.3.2.2.2}\protected@file@percent }
\newlabel{group__Constructions_ga1219940d6f3d56a3396c5d2e930d1726}{{3.2.2.2}{5}{\texorpdfstring {mzd\+\_\+poly\+\_\+free()}{mzd\_poly\_free()}}{table.2}{}}
\@writefile{toc}{\contentsline {paragraph}{\numberline {3.2.2.3}mzd\discretionary {\unhbox \voidb@x \hbox {\relax \fontsize  {7}{8}\selectfont  $\DOTSB \leftarrow \joinrel  \rhook $}}{}{}\_\discretionary {\unhbox \voidb@x \hbox {\relax \fontsize  {7}{8}\selectfont  $\DOTSB \leftarrow \joinrel  \rhook $}}{}{}poly\discretionary {\unhbox \voidb@x \hbox {\relax \fontsize  {7}{8}\selectfont  $\DOTSB \leftarrow \joinrel  \rhook $}}{}{}\_\discretionary {\unhbox \voidb@x \hbox {\relax \fontsize  {7}{8}\selectfont  $\DOTSB \leftarrow \joinrel  \rhook $}}{}{}init()}{5}{paragraph.3.2.2.3}\protected@file@percent }
\newlabel{group__Constructions_ga8ecec132d3dd621f386e82307f644063}{{3.2.2.3}{5}{\texorpdfstring {mzd\+\_\+poly\+\_\+init()}{mzd\_poly\_init()}}{table.3}{}}
\gdef \LT@iv {\LT@entry 
    {3}{19.29791pt}\LT@entry 
    {3}{188.0493pt}}
\gdef \LT@v {\LT@entry 
    {3}{18.80287pt}\LT@entry 
    {3}{39.53435pt}}
\gdef \LT@vi {\LT@entry 
    {3}{18.80287pt}\LT@entry 
    {3}{39.53435pt}}
\@writefile{toc}{\contentsline {paragraph}{\numberline {3.2.2.4}mzd\discretionary {\unhbox \voidb@x \hbox {\relax \fontsize  {7}{8}\selectfont  $\DOTSB \leftarrow \joinrel  \rhook $}}{}{}\_\discretionary {\unhbox \voidb@x \hbox {\relax \fontsize  {7}{8}\selectfont  $\DOTSB \leftarrow \joinrel  \rhook $}}{}{}slice\discretionary {\unhbox \voidb@x \hbox {\relax \fontsize  {7}{8}\selectfont  $\DOTSB \leftarrow \joinrel  \rhook $}}{}{}\_\discretionary {\unhbox \voidb@x \hbox {\relax \fontsize  {7}{8}\selectfont  $\DOTSB \leftarrow \joinrel  \rhook $}}{}{}concat()}{6}{paragraph.3.2.2.4}\protected@file@percent }
\newlabel{group__Constructions_gab42ec55175d7276e30d7ce9d1ab6911a}{{3.2.2.4}{6}{\texorpdfstring {mzd\+\_\+slice\+\_\+concat()}{mzd\_slice\_concat()}}{table.4}{}}
\@writefile{toc}{\contentsline {paragraph}{\numberline {3.2.2.5}mzd\discretionary {\unhbox \voidb@x \hbox {\relax \fontsize  {7}{8}\selectfont  $\DOTSB \leftarrow \joinrel  \rhook $}}{}{}\_\discretionary {\unhbox \voidb@x \hbox {\relax \fontsize  {7}{8}\selectfont  $\DOTSB \leftarrow \joinrel  \rhook $}}{}{}slice\discretionary {\unhbox \voidb@x \hbox {\relax \fontsize  {7}{8}\selectfont  $\DOTSB \leftarrow \joinrel  \rhook $}}{}{}\_\discretionary {\unhbox \voidb@x \hbox {\relax \fontsize  {7}{8}\selectfont  $\DOTSB \leftarrow \joinrel  \rhook $}}{}{}copy()}{6}{paragraph.3.2.2.5}\protected@file@percent }
\newlabel{group__Constructions_gab95007827c8cec614116eb714e399be4}{{3.2.2.5}{6}{\texorpdfstring {mzd\+\_\+slice\+\_\+copy()}{mzd\_slice\_copy()}}{table.5}{}}
\@writefile{toc}{\contentsline {paragraph}{\numberline {3.2.2.6}mzd\discretionary {\unhbox \voidb@x \hbox {\relax \fontsize  {7}{8}\selectfont  $\DOTSB \leftarrow \joinrel  \rhook $}}{}{}\_\discretionary {\unhbox \voidb@x \hbox {\relax \fontsize  {7}{8}\selectfont  $\DOTSB \leftarrow \joinrel  \rhook $}}{}{}slice\discretionary {\unhbox \voidb@x \hbox {\relax \fontsize  {7}{8}\selectfont  $\DOTSB \leftarrow \joinrel  \rhook $}}{}{}\_\discretionary {\unhbox \voidb@x \hbox {\relax \fontsize  {7}{8}\selectfont  $\DOTSB \leftarrow \joinrel  \rhook $}}{}{}free()}{6}{paragraph.3.2.2.6}\protected@file@percent }
\gdef \LT@vii {\LT@entry 
    {3}{18.80287pt}\LT@entry 
    {3}{37.03246pt}}
\gdef \LT@viii {\LT@entry 
    {3}{20.29689pt}\LT@entry 
    {3}{90.41957pt}}
\newlabel{group__Constructions_gad9c5004d26fd8b238f8e606315a6e902}{{3.2.2.6}{7}{\texorpdfstring {mzd\+\_\+slice\+\_\+free()}{mzd\_slice\_free()}}{table.6}{}}
\@writefile{toc}{\contentsline {paragraph}{\numberline {3.2.2.7}mzd\discretionary {\unhbox \voidb@x \hbox {\relax \fontsize  {7}{8}\selectfont  $\DOTSB \leftarrow \joinrel  \rhook $}}{}{}\_\discretionary {\unhbox \voidb@x \hbox {\relax \fontsize  {7}{8}\selectfont  $\DOTSB \leftarrow \joinrel  \rhook $}}{}{}slice\discretionary {\unhbox \voidb@x \hbox {\relax \fontsize  {7}{8}\selectfont  $\DOTSB \leftarrow \joinrel  \rhook $}}{}{}\_\discretionary {\unhbox \voidb@x \hbox {\relax \fontsize  {7}{8}\selectfont  $\DOTSB \leftarrow \joinrel  \rhook $}}{}{}free\discretionary {\unhbox \voidb@x \hbox {\relax \fontsize  {7}{8}\selectfont  $\DOTSB \leftarrow \joinrel  \rhook $}}{}{}\_\discretionary {\unhbox \voidb@x \hbox {\relax \fontsize  {7}{8}\selectfont  $\DOTSB \leftarrow \joinrel  \rhook $}}{}{}window()}{7}{paragraph.3.2.2.7}\protected@file@percent }
\newlabel{group__Constructions_gab795527fe193056b9a0278966bb780cb}{{3.2.2.7}{7}{\texorpdfstring {mzd\+\_\+slice\+\_\+free\+\_\+window()}{mzd\_slice\_free\_window()}}{table.7}{}}
\@writefile{toc}{\contentsline {paragraph}{\numberline {3.2.2.8}mzd\discretionary {\unhbox \voidb@x \hbox {\relax \fontsize  {7}{8}\selectfont  $\DOTSB \leftarrow \joinrel  \rhook $}}{}{}\_\discretionary {\unhbox \voidb@x \hbox {\relax \fontsize  {7}{8}\selectfont  $\DOTSB \leftarrow \joinrel  \rhook $}}{}{}slice\discretionary {\unhbox \voidb@x \hbox {\relax \fontsize  {7}{8}\selectfont  $\DOTSB \leftarrow \joinrel  \rhook $}}{}{}\_\discretionary {\unhbox \voidb@x \hbox {\relax \fontsize  {7}{8}\selectfont  $\DOTSB \leftarrow \joinrel  \rhook $}}{}{}init()}{7}{paragraph.3.2.2.8}\protected@file@percent }
\newlabel{group__Constructions_ga78b630c19ae62ebb12cf54544d7c386d}{{3.2.2.8}{7}{\texorpdfstring {mzd\+\_\+slice\+\_\+init()}{mzd\_slice\_init()}}{table.8}{}}
\@writefile{toc}{\contentsline {paragraph}{\numberline {3.2.2.9}mzd\discretionary {\unhbox \voidb@x \hbox {\relax \fontsize  {7}{8}\selectfont  $\DOTSB \leftarrow \joinrel  \rhook $}}{}{}\_\discretionary {\unhbox \voidb@x \hbox {\relax \fontsize  {7}{8}\selectfont  $\DOTSB \leftarrow \joinrel  \rhook $}}{}{}slice\discretionary {\unhbox \voidb@x \hbox {\relax \fontsize  {7}{8}\selectfont  $\DOTSB \leftarrow \joinrel  \rhook $}}{}{}\_\discretionary {\unhbox \voidb@x \hbox {\relax \fontsize  {7}{8}\selectfont  $\DOTSB \leftarrow \joinrel  \rhook $}}{}{}init\discretionary {\unhbox \voidb@x \hbox {\relax \fontsize  {7}{8}\selectfont  $\DOTSB \leftarrow \joinrel  \rhook $}}{}{}\_\discretionary {\unhbox \voidb@x \hbox {\relax \fontsize  {7}{8}\selectfont  $\DOTSB \leftarrow \joinrel  \rhook $}}{}{}window()}{7}{paragraph.3.2.2.9}\protected@file@percent }
\gdef \LT@ix {\LT@entry 
    {3}{34.30963pt}\LT@entry 
    {3}{118.05786pt}}
\gdef \LT@x {\LT@entry 
    {3}{19.29791pt}\LT@entry 
    {3}{185.54741pt}}
\gdef \LT@xi {\LT@entry 
    {3}{34.30963pt}\LT@entry 
    {3}{294.32823pt}}
\newlabel{group__Constructions_gaca06f1f09646169917cac81cf6516d03}{{3.2.2.9}{8}{\texorpdfstring {mzd\+\_\+slice\+\_\+init\+\_\+window()}{mzd\_slice\_init\_window()}}{table.9}{}}
\@writefile{toc}{\contentsline {paragraph}{\numberline {3.2.2.10}mzd\discretionary {\unhbox \voidb@x \hbox {\relax \fontsize  {7}{8}\selectfont  $\DOTSB \leftarrow \joinrel  \rhook $}}{}{}\_\discretionary {\unhbox \voidb@x \hbox {\relax \fontsize  {7}{8}\selectfont  $\DOTSB \leftarrow \joinrel  \rhook $}}{}{}slice\discretionary {\unhbox \voidb@x \hbox {\relax \fontsize  {7}{8}\selectfont  $\DOTSB \leftarrow \joinrel  \rhook $}}{}{}\_\discretionary {\unhbox \voidb@x \hbox {\relax \fontsize  {7}{8}\selectfont  $\DOTSB \leftarrow \joinrel  \rhook $}}{}{}stack()}{8}{paragraph.3.2.2.10}\protected@file@percent }
\newlabel{group__Constructions_ga3d8305aef4aeaf1fd9f75996301985ce}{{3.2.2.10}{8}{\texorpdfstring {mzd\+\_\+slice\+\_\+stack()}{mzd\_slice\_stack()}}{table.10}{}}
\@writefile{toc}{\contentsline {paragraph}{\numberline {3.2.2.11}mzd\discretionary {\unhbox \voidb@x \hbox {\relax \fontsize  {7}{8}\selectfont  $\DOTSB \leftarrow \joinrel  \rhook $}}{}{}\_\discretionary {\unhbox \voidb@x \hbox {\relax \fontsize  {7}{8}\selectfont  $\DOTSB \leftarrow \joinrel  \rhook $}}{}{}slice\discretionary {\unhbox \voidb@x \hbox {\relax \fontsize  {7}{8}\selectfont  $\DOTSB \leftarrow \joinrel  \rhook $}}{}{}\_\discretionary {\unhbox \voidb@x \hbox {\relax \fontsize  {7}{8}\selectfont  $\DOTSB \leftarrow \joinrel  \rhook $}}{}{}submatrix()}{8}{paragraph.3.2.2.11}\protected@file@percent }
\gdef \LT@xii {\LT@entry 
    {3}{18.80287pt}\LT@entry 
    {3}{109.67165pt}}
\gdef \LT@xiii {\LT@entry 
    {3}{19.29791pt}\LT@entry 
    {3}{185.54741pt}}
\newlabel{group__Constructions_ga5ed1cd9e38e4f4a0e4cfa4173d24ab4e}{{3.2.2.11}{9}{\texorpdfstring {mzd\+\_\+slice\+\_\+submatrix()}{mzd\_slice\_submatrix()}}{table.11}{}}
\@writefile{toc}{\contentsline {paragraph}{\numberline {3.2.2.12}mzed\discretionary {\unhbox \voidb@x \hbox {\relax \fontsize  {7}{8}\selectfont  $\DOTSB \leftarrow \joinrel  \rhook $}}{}{}\_\discretionary {\unhbox \voidb@x \hbox {\relax \fontsize  {7}{8}\selectfont  $\DOTSB \leftarrow \joinrel  \rhook $}}{}{}cling()}{9}{paragraph.3.2.2.12}\protected@file@percent }
\newlabel{group__Constructions_ga324c5b8d091fa6631af18e7a249f007a}{{3.2.2.12}{9}{\texorpdfstring {mzed\+\_\+cling()}{mzed\_cling()}}{table.12}{}}
\@writefile{toc}{\contentsline {paragraph}{\numberline {3.2.2.13}mzed\discretionary {\unhbox \voidb@x \hbox {\relax \fontsize  {7}{8}\selectfont  $\DOTSB \leftarrow \joinrel  \rhook $}}{}{}\_\discretionary {\unhbox \voidb@x \hbox {\relax \fontsize  {7}{8}\selectfont  $\DOTSB \leftarrow \joinrel  \rhook $}}{}{}concat()}{9}{paragraph.3.2.2.13}\protected@file@percent }
\newlabel{group__Constructions_gaff02e7728c7055906add9b07cba840bc}{{3.2.2.13}{9}{\texorpdfstring {mzed\+\_\+concat()}{mzed\_concat()}}{table.13}{}}
\@writefile{toc}{\contentsline {paragraph}{\numberline {3.2.2.14}mzed\discretionary {\unhbox \voidb@x \hbox {\relax \fontsize  {7}{8}\selectfont  $\DOTSB \leftarrow \joinrel  \rhook $}}{}{}\_\discretionary {\unhbox \voidb@x \hbox {\relax \fontsize  {7}{8}\selectfont  $\DOTSB \leftarrow \joinrel  \rhook $}}{}{}free()}{9}{paragraph.3.2.2.14}\protected@file@percent }
\gdef \LT@xiv {\LT@entry 
    {3}{18.80287pt}\LT@entry 
    {3}{37.03246pt}}
\gdef \LT@xv {\LT@entry 
    {3}{18.80287pt}\LT@entry 
    {3}{37.03246pt}}
\gdef \LT@xvi {\LT@entry 
    {3}{20.29689pt}\LT@entry 
    {3}{90.41957pt}}
\newlabel{group__Constructions_ga9861f8dc5ca19b8becadb2affe3020b0}{{3.2.2.14}{10}{\texorpdfstring {mzed\+\_\+free()}{mzed\_free()}}{table.14}{}}
\@writefile{toc}{\contentsline {paragraph}{\numberline {3.2.2.15}mzed\discretionary {\unhbox \voidb@x \hbox {\relax \fontsize  {7}{8}\selectfont  $\DOTSB \leftarrow \joinrel  \rhook $}}{}{}\_\discretionary {\unhbox \voidb@x \hbox {\relax \fontsize  {7}{8}\selectfont  $\DOTSB \leftarrow \joinrel  \rhook $}}{}{}free\discretionary {\unhbox \voidb@x \hbox {\relax \fontsize  {7}{8}\selectfont  $\DOTSB \leftarrow \joinrel  \rhook $}}{}{}\_\discretionary {\unhbox \voidb@x \hbox {\relax \fontsize  {7}{8}\selectfont  $\DOTSB \leftarrow \joinrel  \rhook $}}{}{}window()}{10}{paragraph.3.2.2.15}\protected@file@percent }
\newlabel{group__Constructions_ga963f4207b50501376723a4c7ac7a53ba}{{3.2.2.15}{10}{\texorpdfstring {mzed\+\_\+free\+\_\+window()}{mzed\_free\_window()}}{table.15}{}}
\@writefile{toc}{\contentsline {paragraph}{\numberline {3.2.2.16}mzed\discretionary {\unhbox \voidb@x \hbox {\relax \fontsize  {7}{8}\selectfont  $\DOTSB \leftarrow \joinrel  \rhook $}}{}{}\_\discretionary {\unhbox \voidb@x \hbox {\relax \fontsize  {7}{8}\selectfont  $\DOTSB \leftarrow \joinrel  \rhook $}}{}{}init()}{10}{paragraph.3.2.2.16}\protected@file@percent }
\newlabel{group__Constructions_ga5dc408e3b328bc6a3ec69fb293428df3}{{3.2.2.16}{10}{\texorpdfstring {mzed\+\_\+init()}{mzed\_init()}}{table.16}{}}
\@writefile{toc}{\contentsline {paragraph}{\numberline {3.2.2.17}mzed\discretionary {\unhbox \voidb@x \hbox {\relax \fontsize  {7}{8}\selectfont  $\DOTSB \leftarrow \joinrel  \rhook $}}{}{}\_\discretionary {\unhbox \voidb@x \hbox {\relax \fontsize  {7}{8}\selectfont  $\DOTSB \leftarrow \joinrel  \rhook $}}{}{}init\discretionary {\unhbox \voidb@x \hbox {\relax \fontsize  {7}{8}\selectfont  $\DOTSB \leftarrow \joinrel  \rhook $}}{}{}\_\discretionary {\unhbox \voidb@x \hbox {\relax \fontsize  {7}{8}\selectfont  $\DOTSB \leftarrow \joinrel  \rhook $}}{}{}window()}{10}{paragraph.3.2.2.17}\protected@file@percent }
\gdef \LT@xvii {\LT@entry 
    {3}{34.30963pt}\LT@entry 
    {3}{118.05786pt}}
\gdef \LT@xviii {\LT@entry 
    {3}{18.80287pt}\LT@entry 
    {3}{104.04512pt}}
\gdef \LT@xix {\LT@entry 
    {3}{19.29791pt}\LT@entry 
    {3}{185.54741pt}}
\newlabel{group__Constructions_ga6358ab266b7c297480946c60b4932907}{{3.2.2.17}{12}{\texorpdfstring {mzed\+\_\+init\+\_\+window()}{mzed\_init\_window()}}{table.17}{}}
\@writefile{toc}{\contentsline {paragraph}{\numberline {3.2.2.18}mzed\discretionary {\unhbox \voidb@x \hbox {\relax \fontsize  {7}{8}\selectfont  $\DOTSB \leftarrow \joinrel  \rhook $}}{}{}\_\discretionary {\unhbox \voidb@x \hbox {\relax \fontsize  {7}{8}\selectfont  $\DOTSB \leftarrow \joinrel  \rhook $}}{}{}slice()}{12}{paragraph.3.2.2.18}\protected@file@percent }
\newlabel{group__Constructions_ga4a22b03e76aa20d7a6ecf23e8cb968d4}{{3.2.2.18}{12}{\texorpdfstring {mzed\+\_\+slice()}{mzed\_slice()}}{table.18}{}}
\@writefile{toc}{\contentsline {paragraph}{\numberline {3.2.2.19}mzed\discretionary {\unhbox \voidb@x \hbox {\relax \fontsize  {7}{8}\selectfont  $\DOTSB \leftarrow \joinrel  \rhook $}}{}{}\_\discretionary {\unhbox \voidb@x \hbox {\relax \fontsize  {7}{8}\selectfont  $\DOTSB \leftarrow \joinrel  \rhook $}}{}{}stack()}{12}{paragraph.3.2.2.19}\protected@file@percent }
\newlabel{group__Constructions_ga4161dd6018efa6497a56f17a46663940}{{3.2.2.19}{12}{\texorpdfstring {mzed\+\_\+stack()}{mzed\_stack()}}{table.19}{}}
\gdef \LT@xx {\LT@entry 
    {3}{34.30963pt}\LT@entry 
    {3}{294.32823pt}}
\@writefile{toc}{\contentsline {paragraph}{\numberline {3.2.2.20}mzed\discretionary {\unhbox \voidb@x \hbox {\relax \fontsize  {7}{8}\selectfont  $\DOTSB \leftarrow \joinrel  \rhook $}}{}{}\_\discretionary {\unhbox \voidb@x \hbox {\relax \fontsize  {7}{8}\selectfont  $\DOTSB \leftarrow \joinrel  \rhook $}}{}{}submatrix()}{13}{paragraph.3.2.2.20}\protected@file@percent }
\@setckpt{group__Constructions}{
\setcounter{page}{14}
\setcounter{equation}{0}
\setcounter{enumi}{0}
\setcounter{enumii}{0}
\setcounter{enumiii}{0}
\setcounter{enumiv}{0}
\setcounter{footnote}{0}
\setcounter{mpfootnote}{0}
\setcounter{part}{0}
\setcounter{section}{3}
\setcounter{subsection}{2}
\setcounter{subsubsection}{2}
\setcounter{paragraph}{20}
\setcounter{subparagraph}{0}
\setcounter{figure}{0}
\setcounter{table}{20}
\setcounter{float@type}{4}
\setcounter{LT@tables}{20}
\setcounter{LT@chunks}{3}
\setcounter{NAT@ctr}{0}
\setcounter{lofdepth}{1}
\setcounter{lotdepth}{1}
\setcounter{parentequation}{0}
\setcounter{Item}{0}
\setcounter{Hfootnote}{0}
\setcounter{bookmark@seq@number}{8}
\setcounter{caption@flags}{0}
\setcounter{ContinuedFloat}{0}
\setcounter{section@level}{4}
}
