\relax 
\providecommand\hyper@newdestlabel[2]{}
\providecommand\HyperFirstAtBeginDocument{\AtBeginDocument}
\HyperFirstAtBeginDocument{\ifx\hyper@anchor\@undefined
\global\let\oldcontentsline\contentsline
\gdef\contentsline#1#2#3#4{\oldcontentsline{#1}{#2}{#3}}
\global\let\oldnewlabel\newlabel
\gdef\newlabel#1#2{\newlabelxx{#1}#2}
\gdef\newlabelxx#1#2#3#4#5#6{\oldnewlabel{#1}{{#2}{#3}}}
\AtEndDocument{\ifx\hyper@anchor\@undefined
\let\contentsline\oldcontentsline
\let\newlabel\oldnewlabel
\fi}
\fi}
\global\let\hyper@last\relax 
\gdef\HyperFirstAtBeginDocument#1{#1}
\providecommand\HyField@AuxAddToFields[1]{}
\providecommand\HyField@AuxAddToCoFields[2]{}
\providecommand \oddpage@label [2]{}
\@writefile{toc}{\contentsline {section}{\numberline {1}Main Page}{2}{section.1}\protected@file@percent }
\newlabel{index}{{1}{2}{Main Page}{section.1}{}}
\@writefile{toc}{\contentsline {section}{\numberline {2}Todo List}{2}{section.2}\protected@file@percent }
\newlabel{todo}{{2}{2}{Todo List}{section.2}{}}
\newlabel{todo__todo000001}{{2}{2}{Todo List}{section.2}{}}
\newlabel{todo__todo000002}{{2}{2}{Todo List}{section.2}{}}
\newlabel{todo__todo000004}{{2}{2}{Todo List}{section.2}{}}
\newlabel{todo__todo000006}{{2}{2}{Todo List}{section.2}{}}
\newlabel{todo__todo000003}{{2}{2}{Todo List}{section.2}{}}
\newlabel{todo__todo000005}{{2}{2}{Todo List}{section.2}{}}
\newlabel{todo__todo000008}{{2}{2}{Todo List}{section.2}{}}
\newlabel{todo__todo000007}{{2}{2}{Todo List}{section.2}{}}
\@writefile{toc}{\contentsline {section}{\numberline {3}Module Documentation}{3}{section.3}\protected@file@percent }
\@writefile{toc}{\contentsline {subsection}{\numberline {3.1}Type definitions}{3}{subsection.3.1}\protected@file@percent }
\newlabel{group__Definitions}{{3.1}{3}{Type definitions}{subsection.3.1}{}}
\@writefile{toc}{\contentsline {subsubsection}{\numberline {3.1.1}Detailed Description}{3}{subsubsection.3.1.1}\protected@file@percent }
\@input{group__Constructions.aux}
\@input{group__Assignment.aux}
\@input{group__RowOperations.aux}
\@input{group__StringConversions.aux}
\@input{group__Addition.aux}
\@input{group__Multiplication.aux}
\@input{group__PLE.aux}
\@input{group__Echelon.aux}
\@input{group__Triangular.aux}
\@writefile{toc}{\contentsline {section}{\numberline {4}Data Structure Documentation}{64}{section.4}\protected@file@percent }
\@writefile{toc}{\contentsline {subsection}{\numberline {4.1}blm\discretionary {\unhbox \voidb@x \hbox {\relax \fontsize  {7}{8}\selectfont  $\DOTSB \leftarrow \joinrel  \rhook $}}{}{}\_\discretionary {\unhbox \voidb@x \hbox {\relax \fontsize  {7}{8}\selectfont  $\DOTSB \leftarrow \joinrel  \rhook $}}{}{}t Struct Reference}{64}{subsection.4.1}\protected@file@percent }
\newlabel{structblm__t}{{4.1}{64}{blm\+\_\+t Struct Reference}{subsection.4.1}{}}
\@writefile{toc}{\contentsline {subsubsection}{\numberline {4.1.1}Detailed Description}{64}{subsubsection.4.1.1}\protected@file@percent }
\@writefile{toc}{\contentsline {subsubsection}{\numberline {4.1.2}Field Documentation}{64}{subsubsection.4.1.2}\protected@file@percent }
\newlabel{structblm__t_aa6e97613b0ab8bcac31696f60b524bea}{{4.1.2}{64}{Field Documentation}{subsubsection.4.1.2}{}}
\@writefile{toc}{\contentsline {paragraph}{\numberline {4.1.2.1}F}{64}{paragraph.4.1.2.1}\protected@file@percent }
\newlabel{structblm__t_a8a1b16b0e0b8948d466fc4ad6b8f1986}{{4.1.2.1}{64}{\texorpdfstring {F}{F}}{paragraph.4.1.2.1}{}}
\@writefile{toc}{\contentsline {paragraph}{\numberline {4.1.2.2}f}{64}{paragraph.4.1.2.2}\protected@file@percent }
\newlabel{structblm__t_a86a47699f4b753d5a5fc44ab689f7eb8}{{4.1.2.2}{64}{\texorpdfstring {f}{f}}{paragraph.4.1.2.2}{}}
\@writefile{toc}{\contentsline {paragraph}{\numberline {4.1.2.3}G}{64}{paragraph.4.1.2.3}\protected@file@percent }
\newlabel{structblm__t_a3126db6a62ac3868099f7f07ba66e1d6}{{4.1.2.3}{64}{\texorpdfstring {G}{G}}{paragraph.4.1.2.3}{}}
\@writefile{toc}{\contentsline {paragraph}{\numberline {4.1.2.4}g}{65}{paragraph.4.1.2.4}\protected@file@percent }
\newlabel{structblm__t_a72dbd00c2b173d8e7454d146c3588d49}{{4.1.2.4}{65}{\texorpdfstring {g}{g}}{paragraph.4.1.2.4}{}}
\@writefile{toc}{\contentsline {paragraph}{\numberline {4.1.2.5}H}{65}{paragraph.4.1.2.5}\protected@file@percent }
\newlabel{structblm__t_a461a99912c25d16e9b4754f1dce64986}{{4.1.2.5}{65}{\texorpdfstring {H}{H}}{paragraph.4.1.2.5}{}}
\@writefile{toc}{\contentsline {paragraph}{\numberline {4.1.2.6}h}{65}{paragraph.4.1.2.6}\protected@file@percent }
\@writefile{toc}{\contentsline {subsection}{\numberline {4.2}gf2e\discretionary {\unhbox \voidb@x \hbox {\relax \fontsize  {7}{8}\selectfont  $\DOTSB \leftarrow \joinrel  \rhook $}}{}{}\_\discretionary {\unhbox \voidb@x \hbox {\relax \fontsize  {7}{8}\selectfont  $\DOTSB \leftarrow \joinrel  \rhook $}}{}{}struct Struct Reference}{65}{subsection.4.2}\protected@file@percent }
\newlabel{structgf2e__struct}{{4.2}{65}{gf2e\+\_\+struct Struct Reference}{subsection.4.2}{}}
\@writefile{toc}{\contentsline {subsubsection}{\numberline {4.2.1}Detailed Description}{65}{subsubsection.4.2.1}\protected@file@percent }
\@writefile{toc}{\contentsline {subsubsection}{\numberline {4.2.2}Field Documentation}{65}{subsubsection.4.2.2}\protected@file@percent }
\newlabel{structgf2e__struct_a5611696592e55d9aa112766875c07a12}{{4.2.2}{65}{Field Documentation}{subsubsection.4.2.2}{}}
\@writefile{toc}{\contentsline {paragraph}{\numberline {4.2.2.1}\discretionary {\unhbox \voidb@x \hbox {\relax \fontsize  {7}{8}\selectfont  $\DOTSB \leftarrow \joinrel  \rhook $}}{}{}\_\discretionary {\unhbox \voidb@x \hbox {\relax \fontsize  {7}{8}\selectfont  $\DOTSB \leftarrow \joinrel  \rhook $}}{}{}mul}{66}{paragraph.4.2.2.1}\protected@file@percent }
\newlabel{structgf2e__struct_a024c3df956552849088e61a0ac3c973a}{{4.2.2.1}{66}{\texorpdfstring {\+\_\+mul}{\_mul}}{paragraph.4.2.2.1}{}}
\@writefile{toc}{\contentsline {paragraph}{\numberline {4.2.2.2}degree}{66}{paragraph.4.2.2.2}\protected@file@percent }
\newlabel{structgf2e__struct_a94d24b4160b232059a84b8ea26ca6655}{{4.2.2.2}{66}{\texorpdfstring {degree}{degree}}{paragraph.4.2.2.2}{}}
\@writefile{toc}{\contentsline {paragraph}{\numberline {4.2.2.3}inv}{66}{paragraph.4.2.2.3}\protected@file@percent }
\newlabel{structgf2e__struct_a7f16801a887d944f9918f3090d353d1d}{{4.2.2.3}{66}{\texorpdfstring {inv}{inv}}{paragraph.4.2.2.3}{}}
\@writefile{toc}{\contentsline {paragraph}{\numberline {4.2.2.4}minpoly}{66}{paragraph.4.2.2.4}\protected@file@percent }
\newlabel{structgf2e__struct_ab8f03953dab1f1c5e787a4fced2bfb46}{{4.2.2.4}{66}{\texorpdfstring {minpoly}{minpoly}}{paragraph.4.2.2.4}{}}
\@writefile{toc}{\contentsline {paragraph}{\numberline {4.2.2.5}mul}{66}{paragraph.4.2.2.5}\protected@file@percent }
\newlabel{structgf2e__struct_a9d290d3253df3a82640cd01f744bc253}{{4.2.2.5}{66}{\texorpdfstring {mul}{mul}}{paragraph.4.2.2.5}{}}
\@writefile{toc}{\contentsline {paragraph}{\numberline {4.2.2.6}pow\discretionary {\unhbox \voidb@x \hbox {\relax \fontsize  {7}{8}\selectfont  $\DOTSB \leftarrow \joinrel  \rhook $}}{}{}\_\discretionary {\unhbox \voidb@x \hbox {\relax \fontsize  {7}{8}\selectfont  $\DOTSB \leftarrow \joinrel  \rhook $}}{}{}gen}{66}{paragraph.4.2.2.6}\protected@file@percent }
\newlabel{structgf2e__struct_a8e9af5231c1d761f87db12c3cfc18796}{{4.2.2.6}{66}{\texorpdfstring {pow\+\_\+gen}{pow\_gen}}{paragraph.4.2.2.6}{}}
\@writefile{toc}{\contentsline {paragraph}{\numberline {4.2.2.7}red}{67}{paragraph.4.2.2.7}\protected@file@percent }
\@writefile{toc}{\contentsline {subsection}{\numberline {4.3}mzd\discretionary {\unhbox \voidb@x \hbox {\relax \fontsize  {7}{8}\selectfont  $\DOTSB \leftarrow \joinrel  \rhook $}}{}{}\_\discretionary {\unhbox \voidb@x \hbox {\relax \fontsize  {7}{8}\selectfont  $\DOTSB \leftarrow \joinrel  \rhook $}}{}{}poly\discretionary {\unhbox \voidb@x \hbox {\relax \fontsize  {7}{8}\selectfont  $\DOTSB \leftarrow \joinrel  \rhook $}}{}{}\_\discretionary {\unhbox \voidb@x \hbox {\relax \fontsize  {7}{8}\selectfont  $\DOTSB \leftarrow \joinrel  \rhook $}}{}{}t Struct Reference}{67}{subsection.4.3}\protected@file@percent }
\newlabel{structmzd__poly__t}{{4.3}{67}{mzd\+\_\+poly\+\_\+t Struct Reference}{subsection.4.3}{}}
\@writefile{toc}{\contentsline {subsubsection}{\numberline {4.3.1}Detailed Description}{67}{subsubsection.4.3.1}\protected@file@percent }
\@writefile{toc}{\contentsline {subsubsection}{\numberline {4.3.2}Field Documentation}{67}{subsubsection.4.3.2}\protected@file@percent }
\newlabel{structmzd__poly__t_a8edc58244a3e8532d7fe415062ffd935}{{4.3.2}{67}{Field Documentation}{subsubsection.4.3.2}{}}
\@writefile{toc}{\contentsline {paragraph}{\numberline {4.3.2.1}depth}{67}{paragraph.4.3.2.1}\protected@file@percent }
\newlabel{structmzd__poly__t_a3315a54e105c23f95b03838bd6570379}{{4.3.2.1}{67}{\texorpdfstring {depth}{depth}}{paragraph.4.3.2.1}{}}
\@writefile{toc}{\contentsline {paragraph}{\numberline {4.3.2.2}ncols}{67}{paragraph.4.3.2.2}\protected@file@percent }
\newlabel{structmzd__poly__t_adefa5f5a4557a284f5955a1f95c1b935}{{4.3.2.2}{67}{\texorpdfstring {ncols}{ncols}}{paragraph.4.3.2.2}{}}
\@writefile{toc}{\contentsline {paragraph}{\numberline {4.3.2.3}nrows}{67}{paragraph.4.3.2.3}\protected@file@percent }
\newlabel{structmzd__poly__t_afad181006bcb6fb0b572c2b379e88368}{{4.3.2.3}{67}{\texorpdfstring {nrows}{nrows}}{paragraph.4.3.2.3}{}}
\@writefile{toc}{\contentsline {paragraph}{\numberline {4.3.2.4}x}{68}{paragraph.4.3.2.4}\protected@file@percent }
\@writefile{toc}{\contentsline {subsection}{\numberline {4.4}mzd\discretionary {\unhbox \voidb@x \hbox {\relax \fontsize  {7}{8}\selectfont  $\DOTSB \leftarrow \joinrel  \rhook $}}{}{}\_\discretionary {\unhbox \voidb@x \hbox {\relax \fontsize  {7}{8}\selectfont  $\DOTSB \leftarrow \joinrel  \rhook $}}{}{}slice\discretionary {\unhbox \voidb@x \hbox {\relax \fontsize  {7}{8}\selectfont  $\DOTSB \leftarrow \joinrel  \rhook $}}{}{}\_\discretionary {\unhbox \voidb@x \hbox {\relax \fontsize  {7}{8}\selectfont  $\DOTSB \leftarrow \joinrel  \rhook $}}{}{}t Struct Reference}{68}{subsection.4.4}\protected@file@percent }
\newlabel{structmzd__slice__t}{{4.4}{68}{mzd\+\_\+slice\+\_\+t Struct Reference}{subsection.4.4}{}}
\@writefile{toc}{\contentsline {subsubsection}{\numberline {4.4.1}Detailed Description}{68}{subsubsection.4.4.1}\protected@file@percent }
\@writefile{toc}{\contentsline {subsubsection}{\numberline {4.4.2}Field Documentation}{68}{subsubsection.4.4.2}\protected@file@percent }
\newlabel{structmzd__slice__t_ace2c6649328657934469d6a1213aff27}{{4.4.2}{68}{Field Documentation}{subsubsection.4.4.2}{}}
\@writefile{toc}{\contentsline {paragraph}{\numberline {4.4.2.1}depth}{68}{paragraph.4.4.2.1}\protected@file@percent }
\newlabel{structmzd__slice__t_a0ba384fb09515636107318a1968ec86a}{{4.4.2.1}{68}{\texorpdfstring {depth}{depth}}{paragraph.4.4.2.1}{}}
\@writefile{toc}{\contentsline {paragraph}{\numberline {4.4.2.2}finite\discretionary {\unhbox \voidb@x \hbox {\relax \fontsize  {7}{8}\selectfont  $\DOTSB \leftarrow \joinrel  \rhook $}}{}{}\_\discretionary {\unhbox \voidb@x \hbox {\relax \fontsize  {7}{8}\selectfont  $\DOTSB \leftarrow \joinrel  \rhook $}}{}{}field}{69}{paragraph.4.4.2.2}\protected@file@percent }
\newlabel{structmzd__slice__t_a6e158046f14964e5bcdac5d907a26116}{{4.4.2.2}{69}{\texorpdfstring {finite\+\_\+field}{finite\_field}}{paragraph.4.4.2.2}{}}
\@writefile{toc}{\contentsline {paragraph}{\numberline {4.4.2.3}ncols}{69}{paragraph.4.4.2.3}\protected@file@percent }
\newlabel{structmzd__slice__t_a0413b0a48033a22a2a4c1c05b55ec2b4}{{4.4.2.3}{69}{\texorpdfstring {ncols}{ncols}}{paragraph.4.4.2.3}{}}
\@writefile{toc}{\contentsline {paragraph}{\numberline {4.4.2.4}nrows}{69}{paragraph.4.4.2.4}\protected@file@percent }
\newlabel{structmzd__slice__t_a63c9d6ebe385f6ada4956de966aa9b99}{{4.4.2.4}{69}{\texorpdfstring {nrows}{nrows}}{paragraph.4.4.2.4}{}}
\@writefile{toc}{\contentsline {paragraph}{\numberline {4.4.2.5}x}{69}{paragraph.4.4.2.5}\protected@file@percent }
\@writefile{toc}{\contentsline {subsection}{\numberline {4.5}mzed\discretionary {\unhbox \voidb@x \hbox {\relax \fontsize  {7}{8}\selectfont  $\DOTSB \leftarrow \joinrel  \rhook $}}{}{}\_\discretionary {\unhbox \voidb@x \hbox {\relax \fontsize  {7}{8}\selectfont  $\DOTSB \leftarrow \joinrel  \rhook $}}{}{}t Struct Reference}{69}{subsection.4.5}\protected@file@percent }
\newlabel{structmzed__t}{{4.5}{69}{mzed\+\_\+t Struct Reference}{subsection.4.5}{}}
\@writefile{toc}{\contentsline {subsubsection}{\numberline {4.5.1}Detailed Description}{69}{subsubsection.4.5.1}\protected@file@percent }
\@writefile{toc}{\contentsline {subsubsection}{\numberline {4.5.2}Field Documentation}{70}{subsubsection.4.5.2}\protected@file@percent }
\newlabel{structmzed__t_a0d907fa8df83f62598e534e90fcfd8c1}{{4.5.2}{70}{Field Documentation}{subsubsection.4.5.2}{}}
\@writefile{toc}{\contentsline {paragraph}{\numberline {4.5.2.1}finite\discretionary {\unhbox \voidb@x \hbox {\relax \fontsize  {7}{8}\selectfont  $\DOTSB \leftarrow \joinrel  \rhook $}}{}{}\_\discretionary {\unhbox \voidb@x \hbox {\relax \fontsize  {7}{8}\selectfont  $\DOTSB \leftarrow \joinrel  \rhook $}}{}{}field}{70}{paragraph.4.5.2.1}\protected@file@percent }
\newlabel{structmzed__t_a24a031a95d2d1427becb0571b7c15d34}{{4.5.2.1}{70}{\texorpdfstring {finite\+\_\+field}{finite\_field}}{paragraph.4.5.2.1}{}}
\@writefile{toc}{\contentsline {paragraph}{\numberline {4.5.2.2}ncols}{70}{paragraph.4.5.2.2}\protected@file@percent }
\newlabel{structmzed__t_a1ce48de2fae36b008ba96609c797d58f}{{4.5.2.2}{70}{\texorpdfstring {ncols}{ncols}}{paragraph.4.5.2.2}{}}
\@writefile{toc}{\contentsline {paragraph}{\numberline {4.5.2.3}nrows}{70}{paragraph.4.5.2.3}\protected@file@percent }
\newlabel{structmzed__t_a42286f0f62118f072be263246df5407c}{{4.5.2.3}{70}{\texorpdfstring {nrows}{nrows}}{paragraph.4.5.2.3}{}}
\@writefile{toc}{\contentsline {paragraph}{\numberline {4.5.2.4}w}{70}{paragraph.4.5.2.4}\protected@file@percent }
\newlabel{structmzed__t_af5b2d96c01115342172073e83eb9d12e}{{4.5.2.4}{70}{\texorpdfstring {w}{w}}{paragraph.4.5.2.4}{}}
\@writefile{toc}{\contentsline {paragraph}{\numberline {4.5.2.5}x}{70}{paragraph.4.5.2.5}\protected@file@percent }
\@writefile{toc}{\contentsline {subsection}{\numberline {4.6}njt\discretionary {\unhbox \voidb@x \hbox {\relax \fontsize  {7}{8}\selectfont  $\DOTSB \leftarrow \joinrel  \rhook $}}{}{}\_\discretionary {\unhbox \voidb@x \hbox {\relax \fontsize  {7}{8}\selectfont  $\DOTSB \leftarrow \joinrel  \rhook $}}{}{}mzed\discretionary {\unhbox \voidb@x \hbox {\relax \fontsize  {7}{8}\selectfont  $\DOTSB \leftarrow \joinrel  \rhook $}}{}{}\_\discretionary {\unhbox \voidb@x \hbox {\relax \fontsize  {7}{8}\selectfont  $\DOTSB \leftarrow \joinrel  \rhook $}}{}{}t Struct Reference}{70}{subsection.4.6}\protected@file@percent }
\newlabel{structnjt__mzed__t}{{4.6}{70}{njt\+\_\+mzed\+\_\+t Struct Reference}{subsection.4.6}{}}
\@writefile{toc}{\contentsline {subsubsection}{\numberline {4.6.1}Detailed Description}{71}{subsubsection.4.6.1}\protected@file@percent }
\@writefile{toc}{\contentsline {subsubsection}{\numberline {4.6.2}Field Documentation}{71}{subsubsection.4.6.2}\protected@file@percent }
\newlabel{structnjt__mzed__t_aa79f6d799be4596905850fb1ae92461c}{{4.6.2}{71}{Field Documentation}{subsubsection.4.6.2}{}}
\@writefile{toc}{\contentsline {paragraph}{\numberline {4.6.2.1}L}{71}{paragraph.4.6.2.1}\protected@file@percent }
\newlabel{structnjt__mzed__t_aa6f93b0d5064c47c0c5353f5f8292146}{{4.6.2.1}{71}{\texorpdfstring {L}{L}}{paragraph.4.6.2.1}{}}
\@writefile{toc}{\contentsline {paragraph}{\numberline {4.6.2.2}M}{71}{paragraph.4.6.2.2}\protected@file@percent }
\newlabel{structnjt__mzed__t_a927eaeeced9994bbac645481471ab3c8}{{4.6.2.2}{71}{\texorpdfstring {M}{M}}{paragraph.4.6.2.2}{}}
\@writefile{toc}{\contentsline {paragraph}{\numberline {4.6.2.3}T}{71}{paragraph.4.6.2.3}\protected@file@percent }
\@writefile{toc}{\contentsline {section}{\numberline {5}File Documentation}{71}{section.5}\protected@file@percent }
\@writefile{toc}{\contentsline {subsection}{\numberline {5.1}blm.\discretionary {\unhbox \voidb@x \hbox {\relax \fontsize  {7}{8}\selectfont  $\DOTSB \leftarrow \joinrel  \rhook $}}{}{}h File Reference}{71}{subsection.5.1}\protected@file@percent }
\newlabel{blm_8h}{{5.1}{71}{blm.\+h File Reference}{subsection.5.1}{}}
\gdef \LT@cxxv {\LT@entry 
    {3}{15.30188pt}\LT@entry 
    {3}{62.412pt}}
\newlabel{blm_8h_abeca33988d0aa83c81208c638dad2640}{{5.1}{72}{Macros}{section*.21}{}}
\@writefile{toc}{\contentsline {subsubsection}{\numberline {5.1.1}Detailed Description}{72}{subsubsection.5.1.1}\protected@file@percent }
\@writefile{toc}{\contentsline {subsubsection}{\numberline {5.1.2}Function Documentation}{72}{subsubsection.5.1.2}\protected@file@percent }
\newlabel{blm_8h_a50743e8010868df7955709986ede65af}{{5.1.2}{72}{Function Documentation}{subsubsection.5.1.2}{}}
\@writefile{toc}{\contentsline {paragraph}{\numberline {5.1.2.1}\discretionary {\unhbox \voidb@x \hbox {\relax \fontsize  {7}{8}\selectfont  $\DOTSB \leftarrow \joinrel  \rhook $}}{}{}\_\discretionary {\unhbox \voidb@x \hbox {\relax \fontsize  {7}{8}\selectfont  $\DOTSB \leftarrow \joinrel  \rhook $}}{}{}blm\discretionary {\unhbox \voidb@x \hbox {\relax \fontsize  {7}{8}\selectfont  $\DOTSB \leftarrow \joinrel  \rhook $}}{}{}\_\discretionary {\unhbox \voidb@x \hbox {\relax \fontsize  {7}{8}\selectfont  $\DOTSB \leftarrow \joinrel  \rhook $}}{}{}djb\discretionary {\unhbox \voidb@x \hbox {\relax \fontsize  {7}{8}\selectfont  $\DOTSB \leftarrow \joinrel  \rhook $}}{}{}\_\discretionary {\unhbox \voidb@x \hbox {\relax \fontsize  {7}{8}\selectfont  $\DOTSB \leftarrow \joinrel  \rhook $}}{}{}compile()}{72}{paragraph.5.1.2.1}\protected@file@percent }
\gdef \LT@cxxvi {\LT@entry 
    {3}{17.8039pt}\LT@entry 
    {3}{192.46823pt}}
\gdef \LT@cxxvii {\LT@entry 
    {3}{18.80287pt}\LT@entry 
    {3}{80.1866pt}}
\gdef \LT@cxxviii {\LT@entry 
    {3}{18.80287pt}\LT@entry 
    {3}{80.1866pt}}
\newlabel{blm_8h_a7e87dbef599ca2808b6ba57419019299}{{5.1.2.1}{73}{\texorpdfstring {\+\_\+blm\+\_\+djb\+\_\+compile()}{\_blm\_djb\_compile()}}{table.125}{}}
\@writefile{toc}{\contentsline {paragraph}{\numberline {5.1.2.2}\discretionary {\unhbox \voidb@x \hbox {\relax \fontsize  {7}{8}\selectfont  $\DOTSB \leftarrow \joinrel  \rhook $}}{}{}\_\discretionary {\unhbox \voidb@x \hbox {\relax \fontsize  {7}{8}\selectfont  $\DOTSB \leftarrow \joinrel  \rhook $}}{}{}blm\discretionary {\unhbox \voidb@x \hbox {\relax \fontsize  {7}{8}\selectfont  $\DOTSB \leftarrow \joinrel  \rhook $}}{}{}\_\discretionary {\unhbox \voidb@x \hbox {\relax \fontsize  {7}{8}\selectfont  $\DOTSB \leftarrow \joinrel  \rhook $}}{}{}finish\discretionary {\unhbox \voidb@x \hbox {\relax \fontsize  {7}{8}\selectfont  $\DOTSB \leftarrow \joinrel  \rhook $}}{}{}\_\discretionary {\unhbox \voidb@x \hbox {\relax \fontsize  {7}{8}\selectfont  $\DOTSB \leftarrow \joinrel  \rhook $}}{}{}polymult()}{73}{paragraph.5.1.2.2}\protected@file@percent }
\newlabel{blm_8h_ac21b42ad174bb0ab06971999febcec6f}{{5.1.2.2}{73}{\texorpdfstring {\+\_\+blm\+\_\+finish\+\_\+polymult()}{\_blm\_finish\_polymult()}}{table.126}{}}
\@writefile{toc}{\contentsline {paragraph}{\numberline {5.1.2.3}\discretionary {\unhbox \voidb@x \hbox {\relax \fontsize  {7}{8}\selectfont  $\DOTSB \leftarrow \joinrel  \rhook $}}{}{}\_\discretionary {\unhbox \voidb@x \hbox {\relax \fontsize  {7}{8}\selectfont  $\DOTSB \leftarrow \joinrel  \rhook $}}{}{}mzd\discretionary {\unhbox \voidb@x \hbox {\relax \fontsize  {7}{8}\selectfont  $\DOTSB \leftarrow \joinrel  \rhook $}}{}{}\_\discretionary {\unhbox \voidb@x \hbox {\relax \fontsize  {7}{8}\selectfont  $\DOTSB \leftarrow \joinrel  \rhook $}}{}{}ptr\discretionary {\unhbox \voidb@x \hbox {\relax \fontsize  {7}{8}\selectfont  $\DOTSB \leftarrow \joinrel  \rhook $}}{}{}\_\discretionary {\unhbox \voidb@x \hbox {\relax \fontsize  {7}{8}\selectfont  $\DOTSB \leftarrow \joinrel  \rhook $}}{}{}apply\discretionary {\unhbox \voidb@x \hbox {\relax \fontsize  {7}{8}\selectfont  $\DOTSB \leftarrow \joinrel  \rhook $}}{}{}\_\discretionary {\unhbox \voidb@x \hbox {\relax \fontsize  {7}{8}\selectfont  $\DOTSB \leftarrow \joinrel  \rhook $}}{}{}blm()}{73}{paragraph.5.1.2.3}\protected@file@percent }
\newlabel{blm_8h_a6623cf06f30a7ad3be41ae6996ed04fc}{{5.1.2.3}{73}{\texorpdfstring {\+\_\+mzd\+\_\+ptr\+\_\+apply\+\_\+blm()}{\_mzd\_ptr\_apply\_blm()}}{table.127}{}}
\@writefile{toc}{\contentsline {paragraph}{\numberline {5.1.2.4}\discretionary {\unhbox \voidb@x \hbox {\relax \fontsize  {7}{8}\selectfont  $\DOTSB \leftarrow \joinrel  \rhook $}}{}{}\_\discretionary {\unhbox \voidb@x \hbox {\relax \fontsize  {7}{8}\selectfont  $\DOTSB \leftarrow \joinrel  \rhook $}}{}{}mzd\discretionary {\unhbox \voidb@x \hbox {\relax \fontsize  {7}{8}\selectfont  $\DOTSB \leftarrow \joinrel  \rhook $}}{}{}\_\discretionary {\unhbox \voidb@x \hbox {\relax \fontsize  {7}{8}\selectfont  $\DOTSB \leftarrow \joinrel  \rhook $}}{}{}ptr\discretionary {\unhbox \voidb@x \hbox {\relax \fontsize  {7}{8}\selectfont  $\DOTSB \leftarrow \joinrel  \rhook $}}{}{}\_\discretionary {\unhbox \voidb@x \hbox {\relax \fontsize  {7}{8}\selectfont  $\DOTSB \leftarrow \joinrel  \rhook $}}{}{}apply\discretionary {\unhbox \voidb@x \hbox {\relax \fontsize  {7}{8}\selectfont  $\DOTSB \leftarrow \joinrel  \rhook $}}{}{}\_\discretionary {\unhbox \voidb@x \hbox {\relax \fontsize  {7}{8}\selectfont  $\DOTSB \leftarrow \joinrel  \rhook $}}{}{}blm\discretionary {\unhbox \voidb@x \hbox {\relax \fontsize  {7}{8}\selectfont  $\DOTSB \leftarrow \joinrel  \rhook $}}{}{}\_\discretionary {\unhbox \voidb@x \hbox {\relax \fontsize  {7}{8}\selectfont  $\DOTSB \leftarrow \joinrel  \rhook $}}{}{}djb()}{73}{paragraph.5.1.2.4}\protected@file@percent }
\gdef \LT@cxxix {\LT@entry 
    {3}{18.80287pt}\LT@entry 
    {3}{80.1866pt}}
\newlabel{blm_8h_ad1c39b3456f5a22f1c91811870fe53a5}{{5.1.2.4}{74}{\texorpdfstring {\+\_\+mzd\+\_\+ptr\+\_\+apply\+\_\+blm\+\_\+djb()}{\_mzd\_ptr\_apply\_blm\_djb()}}{table.128}{}}
\@writefile{toc}{\contentsline {paragraph}{\numberline {5.1.2.5}\discretionary {\unhbox \voidb@x \hbox {\relax \fontsize  {7}{8}\selectfont  $\DOTSB \leftarrow \joinrel  \rhook $}}{}{}\_\discretionary {\unhbox \voidb@x \hbox {\relax \fontsize  {7}{8}\selectfont  $\DOTSB \leftarrow \joinrel  \rhook $}}{}{}mzd\discretionary {\unhbox \voidb@x \hbox {\relax \fontsize  {7}{8}\selectfont  $\DOTSB \leftarrow \joinrel  \rhook $}}{}{}\_\discretionary {\unhbox \voidb@x \hbox {\relax \fontsize  {7}{8}\selectfont  $\DOTSB \leftarrow \joinrel  \rhook $}}{}{}ptr\discretionary {\unhbox \voidb@x \hbox {\relax \fontsize  {7}{8}\selectfont  $\DOTSB \leftarrow \joinrel  \rhook $}}{}{}\_\discretionary {\unhbox \voidb@x \hbox {\relax \fontsize  {7}{8}\selectfont  $\DOTSB \leftarrow \joinrel  \rhook $}}{}{}apply\discretionary {\unhbox \voidb@x \hbox {\relax \fontsize  {7}{8}\selectfont  $\DOTSB \leftarrow \joinrel  \rhook $}}{}{}\_\discretionary {\unhbox \voidb@x \hbox {\relax \fontsize  {7}{8}\selectfont  $\DOTSB \leftarrow \joinrel  \rhook $}}{}{}blm\discretionary {\unhbox \voidb@x \hbox {\relax \fontsize  {7}{8}\selectfont  $\DOTSB \leftarrow \joinrel  \rhook $}}{}{}\_\discretionary {\unhbox \voidb@x \hbox {\relax \fontsize  {7}{8}\selectfont  $\DOTSB \leftarrow \joinrel  \rhook $}}{}{}mzd()}{74}{paragraph.5.1.2.5}\protected@file@percent }
\newlabel{blm_8h_a4327793f63743e52877632fbccbe860a}{{5.1.2.5}{74}{\texorpdfstring {\+\_\+mzd\+\_\+ptr\+\_\+apply\+\_\+blm\+\_\+mzd()}{\_mzd\_ptr\_apply\_blm\_mzd()}}{table.129}{}}
\@writefile{toc}{\contentsline {paragraph}{\numberline {5.1.2.6}blm\discretionary {\unhbox \voidb@x \hbox {\relax \fontsize  {7}{8}\selectfont  $\DOTSB \leftarrow \joinrel  \rhook $}}{}{}\_\discretionary {\unhbox \voidb@x \hbox {\relax \fontsize  {7}{8}\selectfont  $\DOTSB \leftarrow \joinrel  \rhook $}}{}{}cost\discretionary {\unhbox \voidb@x \hbox {\relax \fontsize  {7}{8}\selectfont  $\DOTSB \leftarrow \joinrel  \rhook $}}{}{}\_\discretionary {\unhbox \voidb@x \hbox {\relax \fontsize  {7}{8}\selectfont  $\DOTSB \leftarrow \joinrel  \rhook $}}{}{}crt()}{74}{paragraph.5.1.2.6}\protected@file@percent }
\newlabel{blm_8h_ae1efbb36e08c0a1740afe76dfcd14c16}{{5.1.2.6}{74}{\texorpdfstring {blm\+\_\+cost\+\_\+crt()}{blm\_cost\_crt()}}{paragraph.5.1.2.6}{}}
\@writefile{toc}{\contentsline {paragraph}{\numberline {5.1.2.7}blm\discretionary {\unhbox \voidb@x \hbox {\relax \fontsize  {7}{8}\selectfont  $\DOTSB \leftarrow \joinrel  \rhook $}}{}{}\_\discretionary {\unhbox \voidb@x \hbox {\relax \fontsize  {7}{8}\selectfont  $\DOTSB \leftarrow \joinrel  \rhook $}}{}{}free()}{74}{paragraph.5.1.2.7}\protected@file@percent }
\newlabel{blm_8h_a5e2a947664e2a733c4d00886b4468471}{{5.1.2.7}{74}{\texorpdfstring {blm\+\_\+free()}{blm\_free()}}{paragraph.5.1.2.7}{}}
\@writefile{toc}{\contentsline {paragraph}{\numberline {5.1.2.8}blm\discretionary {\unhbox \voidb@x \hbox {\relax \fontsize  {7}{8}\selectfont  $\DOTSB \leftarrow \joinrel  \rhook $}}{}{}\_\discretionary {\unhbox \voidb@x \hbox {\relax \fontsize  {7}{8}\selectfont  $\DOTSB \leftarrow \joinrel  \rhook $}}{}{}init\discretionary {\unhbox \voidb@x \hbox {\relax \fontsize  {7}{8}\selectfont  $\DOTSB \leftarrow \joinrel  \rhook $}}{}{}\_\discretionary {\unhbox \voidb@x \hbox {\relax \fontsize  {7}{8}\selectfont  $\DOTSB \leftarrow \joinrel  \rhook $}}{}{}crt()}{74}{paragraph.5.1.2.8}\protected@file@percent }
\newlabel{blm_8h_aae1ecbdc620069190c23fab05a74109d}{{5.1.2.8}{74}{\texorpdfstring {blm\+\_\+init\+\_\+crt()}{blm\_init\_crt()}}{paragraph.5.1.2.8}{}}
\@writefile{toc}{\contentsline {paragraph}{\numberline {5.1.2.9}crt\discretionary {\unhbox \voidb@x \hbox {\relax \fontsize  {7}{8}\selectfont  $\DOTSB \leftarrow \joinrel  \rhook $}}{}{}\_\discretionary {\unhbox \voidb@x \hbox {\relax \fontsize  {7}{8}\selectfont  $\DOTSB \leftarrow \joinrel  \rhook $}}{}{}init()}{75}{paragraph.5.1.2.9}\protected@file@percent }
\@writefile{toc}{\contentsline {subsubsection}{\numberline {5.1.3}Variable Documentation}{75}{subsubsection.5.1.3}\protected@file@percent }
\newlabel{blm_8h_a24d1fcf4a6bcddc23268bfa137328cdb}{{5.1.3}{75}{Variable Documentation}{subsubsection.5.1.3}{}}
\@writefile{toc}{\contentsline {paragraph}{\numberline {5.1.3.1}costs}{75}{paragraph.5.1.3.1}\protected@file@percent }
\@writefile{toc}{\contentsline {subsection}{\numberline {5.2}conversion.\discretionary {\unhbox \voidb@x \hbox {\relax \fontsize  {7}{8}\selectfont  $\DOTSB \leftarrow \joinrel  \rhook $}}{}{}h File Reference}{75}{subsection.5.2}\protected@file@percent }
\newlabel{conversion_8h}{{5.2}{75}{conversion.\+h File Reference}{subsection.5.2}{}}
\gdef \LT@cxxx {\LT@entry 
    {3}{19.29791pt}\LT@entry 
    {3}{266.80658pt}}
\@writefile{toc}{\contentsline {subsubsection}{\numberline {5.2.1}Detailed Description}{76}{subsubsection.5.2.1}\protected@file@percent }
\@writefile{toc}{\contentsline {subsubsection}{\numberline {5.2.2}Function Documentation}{76}{subsubsection.5.2.2}\protected@file@percent }
\newlabel{conversion_8h_aaed71bcc5bf39f885fc71dcc9819746e}{{5.2.2}{76}{Function Documentation}{subsubsection.5.2.2}{}}
\@writefile{toc}{\contentsline {paragraph}{\numberline {5.2.2.1}\discretionary {\unhbox \voidb@x \hbox {\relax \fontsize  {7}{8}\selectfont  $\DOTSB \leftarrow \joinrel  \rhook $}}{}{}\_\discretionary {\unhbox \voidb@x \hbox {\relax \fontsize  {7}{8}\selectfont  $\DOTSB \leftarrow \joinrel  \rhook $}}{}{}mzed\discretionary {\unhbox \voidb@x \hbox {\relax \fontsize  {7}{8}\selectfont  $\DOTSB \leftarrow \joinrel  \rhook $}}{}{}\_\discretionary {\unhbox \voidb@x \hbox {\relax \fontsize  {7}{8}\selectfont  $\DOTSB \leftarrow \joinrel  \rhook $}}{}{}addmul\discretionary {\unhbox \voidb@x \hbox {\relax \fontsize  {7}{8}\selectfont  $\DOTSB \leftarrow \joinrel  \rhook $}}{}{}\_\discretionary {\unhbox \voidb@x \hbox {\relax \fontsize  {7}{8}\selectfont  $\DOTSB \leftarrow \joinrel  \rhook $}}{}{}blm()}{76}{paragraph.5.2.2.1}\protected@file@percent }
\newlabel{conversion_8h_ab2b7923f45e27b95eb0a594a40754464}{{5.2.2.1}{76}{\texorpdfstring {\+\_\+mzed\+\_\+addmul\+\_\+blm()}{\_mzed\_addmul\_blm()}}{table.130}{}}
\gdef \LT@cxxxi {\LT@entry 
    {3}{19.29791pt}\LT@entry 
    {3}{266.80658pt}}
\gdef \LT@cxxxii {\LT@entry 
    {3}{18.80287pt}\LT@entry 
    {3}{130.46121pt}}
\gdef \LT@cxxxiii {\LT@entry 
    {3}{18.80287pt}\LT@entry 
    {3}{150.37027pt}}
\@writefile{toc}{\contentsline {paragraph}{\numberline {5.2.2.2}\discretionary {\unhbox \voidb@x \hbox {\relax \fontsize  {7}{8}\selectfont  $\DOTSB \leftarrow \joinrel  \rhook $}}{}{}\_\discretionary {\unhbox \voidb@x \hbox {\relax \fontsize  {7}{8}\selectfont  $\DOTSB \leftarrow \joinrel  \rhook $}}{}{}mzed\discretionary {\unhbox \voidb@x \hbox {\relax \fontsize  {7}{8}\selectfont  $\DOTSB \leftarrow \joinrel  \rhook $}}{}{}\_\discretionary {\unhbox \voidb@x \hbox {\relax \fontsize  {7}{8}\selectfont  $\DOTSB \leftarrow \joinrel  \rhook $}}{}{}addmul\discretionary {\unhbox \voidb@x \hbox {\relax \fontsize  {7}{8}\selectfont  $\DOTSB \leftarrow \joinrel  \rhook $}}{}{}\_\discretionary {\unhbox \voidb@x \hbox {\relax \fontsize  {7}{8}\selectfont  $\DOTSB \leftarrow \joinrel  \rhook $}}{}{}karatsuba()}{77}{paragraph.5.2.2.2}\protected@file@percent }
\newlabel{conversion_8h_af3536676a9a6b68805a0e49e00c23830}{{5.2.2.2}{77}{\texorpdfstring {\+\_\+mzed\+\_\+addmul\+\_\+karatsuba()}{\_mzed\_addmul\_karatsuba()}}{table.131}{}}
\@writefile{toc}{\contentsline {paragraph}{\numberline {5.2.2.3}\discretionary {\unhbox \voidb@x \hbox {\relax \fontsize  {7}{8}\selectfont  $\DOTSB \leftarrow \joinrel  \rhook $}}{}{}\_\discretionary {\unhbox \voidb@x \hbox {\relax \fontsize  {7}{8}\selectfont  $\DOTSB \leftarrow \joinrel  \rhook $}}{}{}mzed\discretionary {\unhbox \voidb@x \hbox {\relax \fontsize  {7}{8}\selectfont  $\DOTSB \leftarrow \joinrel  \rhook $}}{}{}\_\discretionary {\unhbox \voidb@x \hbox {\relax \fontsize  {7}{8}\selectfont  $\DOTSB \leftarrow \joinrel  \rhook $}}{}{}cling16()}{77}{paragraph.5.2.2.3}\protected@file@percent }
\newlabel{conversion_8h_a3eeefc974330e80e643e9eec98b9cdfa}{{5.2.2.3}{77}{\texorpdfstring {\+\_\+mzed\+\_\+cling16()}{\_mzed\_cling16()}}{table.132}{}}
\@writefile{toc}{\contentsline {paragraph}{\numberline {5.2.2.4}\discretionary {\unhbox \voidb@x \hbox {\relax \fontsize  {7}{8}\selectfont  $\DOTSB \leftarrow \joinrel  \rhook $}}{}{}\_\discretionary {\unhbox \voidb@x \hbox {\relax \fontsize  {7}{8}\selectfont  $\DOTSB \leftarrow \joinrel  \rhook $}}{}{}mzed\discretionary {\unhbox \voidb@x \hbox {\relax \fontsize  {7}{8}\selectfont  $\DOTSB \leftarrow \joinrel  \rhook $}}{}{}\_\discretionary {\unhbox \voidb@x \hbox {\relax \fontsize  {7}{8}\selectfont  $\DOTSB \leftarrow \joinrel  \rhook $}}{}{}cling2()}{77}{paragraph.5.2.2.4}\protected@file@percent }
\gdef \LT@cxxxiv {\LT@entry 
    {3}{18.80287pt}\LT@entry 
    {3}{130.46121pt}}
\gdef \LT@cxxxv {\LT@entry 
    {3}{18.80287pt}\LT@entry 
    {3}{130.46121pt}}
\gdef \LT@cxxxvi {\LT@entry 
    {3}{18.80287pt}\LT@entry 
    {3}{124.67435pt}}
\newlabel{conversion_8h_a80345ba388ddccb7562af48f02866dc1}{{5.2.2.4}{78}{\texorpdfstring {\+\_\+mzed\+\_\+cling2()}{\_mzed\_cling2()}}{table.133}{}}
\@writefile{toc}{\contentsline {paragraph}{\numberline {5.2.2.5}\discretionary {\unhbox \voidb@x \hbox {\relax \fontsize  {7}{8}\selectfont  $\DOTSB \leftarrow \joinrel  \rhook $}}{}{}\_\discretionary {\unhbox \voidb@x \hbox {\relax \fontsize  {7}{8}\selectfont  $\DOTSB \leftarrow \joinrel  \rhook $}}{}{}mzed\discretionary {\unhbox \voidb@x \hbox {\relax \fontsize  {7}{8}\selectfont  $\DOTSB \leftarrow \joinrel  \rhook $}}{}{}\_\discretionary {\unhbox \voidb@x \hbox {\relax \fontsize  {7}{8}\selectfont  $\DOTSB \leftarrow \joinrel  \rhook $}}{}{}cling4()}{78}{paragraph.5.2.2.5}\protected@file@percent }
\newlabel{conversion_8h_ac81a6ead5b5ac39dccb3d067ef0b9299}{{5.2.2.5}{78}{\texorpdfstring {\+\_\+mzed\+\_\+cling4()}{\_mzed\_cling4()}}{table.134}{}}
\@writefile{toc}{\contentsline {paragraph}{\numberline {5.2.2.6}\discretionary {\unhbox \voidb@x \hbox {\relax \fontsize  {7}{8}\selectfont  $\DOTSB \leftarrow \joinrel  \rhook $}}{}{}\_\discretionary {\unhbox \voidb@x \hbox {\relax \fontsize  {7}{8}\selectfont  $\DOTSB \leftarrow \joinrel  \rhook $}}{}{}mzed\discretionary {\unhbox \voidb@x \hbox {\relax \fontsize  {7}{8}\selectfont  $\DOTSB \leftarrow \joinrel  \rhook $}}{}{}\_\discretionary {\unhbox \voidb@x \hbox {\relax \fontsize  {7}{8}\selectfont  $\DOTSB \leftarrow \joinrel  \rhook $}}{}{}cling8()}{78}{paragraph.5.2.2.6}\protected@file@percent }
\newlabel{conversion_8h_a6a06e3f7554871d2cf5712e3bf21f37c}{{5.2.2.6}{78}{\texorpdfstring {\+\_\+mzed\+\_\+cling8()}{\_mzed\_cling8()}}{table.135}{}}
\@writefile{toc}{\contentsline {paragraph}{\numberline {5.2.2.7}\discretionary {\unhbox \voidb@x \hbox {\relax \fontsize  {7}{8}\selectfont  $\DOTSB \leftarrow \joinrel  \rhook $}}{}{}\_\discretionary {\unhbox \voidb@x \hbox {\relax \fontsize  {7}{8}\selectfont  $\DOTSB \leftarrow \joinrel  \rhook $}}{}{}mzed\discretionary {\unhbox \voidb@x \hbox {\relax \fontsize  {7}{8}\selectfont  $\DOTSB \leftarrow \joinrel  \rhook $}}{}{}\_\discretionary {\unhbox \voidb@x \hbox {\relax \fontsize  {7}{8}\selectfont  $\DOTSB \leftarrow \joinrel  \rhook $}}{}{}slice16()}{78}{paragraph.5.2.2.7}\protected@file@percent }
\newlabel{conversion_8h_a33669fcce1b641e7492f1403cc29d216}{{5.2.2.7}{78}{\texorpdfstring {\+\_\+mzed\+\_\+slice16()}{\_mzed\_slice16()}}{table.136}{}}
\@writefile{toc}{\contentsline {paragraph}{\numberline {5.2.2.8}\discretionary {\unhbox \voidb@x \hbox {\relax \fontsize  {7}{8}\selectfont  $\DOTSB \leftarrow \joinrel  \rhook $}}{}{}\_\discretionary {\unhbox \voidb@x \hbox {\relax \fontsize  {7}{8}\selectfont  $\DOTSB \leftarrow \joinrel  \rhook $}}{}{}mzed\discretionary {\unhbox \voidb@x \hbox {\relax \fontsize  {7}{8}\selectfont  $\DOTSB \leftarrow \joinrel  \rhook $}}{}{}\_\discretionary {\unhbox \voidb@x \hbox {\relax \fontsize  {7}{8}\selectfont  $\DOTSB \leftarrow \joinrel  \rhook $}}{}{}slice2()}{78}{paragraph.5.2.2.8}\protected@file@percent }
\gdef \LT@cxxxvii {\LT@entry 
    {3}{18.80287pt}\LT@entry 
    {3}{144.5834pt}}
\gdef \LT@cxxxviii {\LT@entry 
    {3}{18.80287pt}\LT@entry 
    {3}{124.67435pt}}
\gdef \LT@cxxxix {\LT@entry 
    {3}{18.80287pt}\LT@entry 
    {3}{124.67435pt}}
\newlabel{conversion_8h_a7def2b27900ae0cb2d69ee4aec8246a7}{{5.2.2.8}{79}{\texorpdfstring {\+\_\+mzed\+\_\+slice2()}{\_mzed\_slice2()}}{table.137}{}}
\@writefile{toc}{\contentsline {paragraph}{\numberline {5.2.2.9}\discretionary {\unhbox \voidb@x \hbox {\relax \fontsize  {7}{8}\selectfont  $\DOTSB \leftarrow \joinrel  \rhook $}}{}{}\_\discretionary {\unhbox \voidb@x \hbox {\relax \fontsize  {7}{8}\selectfont  $\DOTSB \leftarrow \joinrel  \rhook $}}{}{}mzed\discretionary {\unhbox \voidb@x \hbox {\relax \fontsize  {7}{8}\selectfont  $\DOTSB \leftarrow \joinrel  \rhook $}}{}{}\_\discretionary {\unhbox \voidb@x \hbox {\relax \fontsize  {7}{8}\selectfont  $\DOTSB \leftarrow \joinrel  \rhook $}}{}{}slice4()}{79}{paragraph.5.2.2.9}\protected@file@percent }
\newlabel{conversion_8h_adea8e3a97ca8a0fd844a47058e7db83c}{{5.2.2.9}{79}{\texorpdfstring {\+\_\+mzed\+\_\+slice4()}{\_mzed\_slice4()}}{table.138}{}}
\@writefile{toc}{\contentsline {paragraph}{\numberline {5.2.2.10}\discretionary {\unhbox \voidb@x \hbox {\relax \fontsize  {7}{8}\selectfont  $\DOTSB \leftarrow \joinrel  \rhook $}}{}{}\_\discretionary {\unhbox \voidb@x \hbox {\relax \fontsize  {7}{8}\selectfont  $\DOTSB \leftarrow \joinrel  \rhook $}}{}{}mzed\discretionary {\unhbox \voidb@x \hbox {\relax \fontsize  {7}{8}\selectfont  $\DOTSB \leftarrow \joinrel  \rhook $}}{}{}\_\discretionary {\unhbox \voidb@x \hbox {\relax \fontsize  {7}{8}\selectfont  $\DOTSB \leftarrow \joinrel  \rhook $}}{}{}slice8()}{79}{paragraph.5.2.2.10}\protected@file@percent }
\newlabel{conversion_8h_ad9f9a1fbde2def2a49886499c5f95aa6}{{5.2.2.10}{79}{\texorpdfstring {\+\_\+mzed\+\_\+slice8()}{\_mzed\_slice8()}}{table.139}{}}
\@writefile{toc}{\contentsline {paragraph}{\numberline {5.2.2.11}mzed\discretionary {\unhbox \voidb@x \hbox {\relax \fontsize  {7}{8}\selectfont  $\DOTSB \leftarrow \joinrel  \rhook $}}{}{}\_\discretionary {\unhbox \voidb@x \hbox {\relax \fontsize  {7}{8}\selectfont  $\DOTSB \leftarrow \joinrel  \rhook $}}{}{}addmul\discretionary {\unhbox \voidb@x \hbox {\relax \fontsize  {7}{8}\selectfont  $\DOTSB \leftarrow \joinrel  \rhook $}}{}{}\_\discretionary {\unhbox \voidb@x \hbox {\relax \fontsize  {7}{8}\selectfont  $\DOTSB \leftarrow \joinrel  \rhook $}}{}{}blm()}{79}{paragraph.5.2.2.11}\protected@file@percent }
\gdef \LT@cxl {\LT@entry 
    {3}{19.29791pt}\LT@entry 
    {3}{118.29163pt}}
\gdef \LT@cxli {\LT@entry 
    {3}{19.29791pt}\LT@entry 
    {3}{118.29163pt}}
\gdef \LT@cxlii {\LT@entry 
    {3}{19.29791pt}\LT@entry 
    {3}{266.80658pt}}
\newlabel{conversion_8h_ae6e296975322d98e84adf91ece13c59e}{{5.2.2.11}{80}{\texorpdfstring {mzed\+\_\+addmul\+\_\+blm()}{mzed\_addmul\_blm()}}{table.140}{}}
\@writefile{toc}{\contentsline {paragraph}{\numberline {5.2.2.12}mzed\discretionary {\unhbox \voidb@x \hbox {\relax \fontsize  {7}{8}\selectfont  $\DOTSB \leftarrow \joinrel  \rhook $}}{}{}\_\discretionary {\unhbox \voidb@x \hbox {\relax \fontsize  {7}{8}\selectfont  $\DOTSB \leftarrow \joinrel  \rhook $}}{}{}addmul\discretionary {\unhbox \voidb@x \hbox {\relax \fontsize  {7}{8}\selectfont  $\DOTSB \leftarrow \joinrel  \rhook $}}{}{}\_\discretionary {\unhbox \voidb@x \hbox {\relax \fontsize  {7}{8}\selectfont  $\DOTSB \leftarrow \joinrel  \rhook $}}{}{}karatsuba()}{80}{paragraph.5.2.2.12}\protected@file@percent }
\newlabel{conversion_8h_afbf234f91bc518ec65460bd2696527a0}{{5.2.2.12}{80}{\texorpdfstring {mzed\+\_\+addmul\+\_\+karatsuba()}{mzed\_addmul\_karatsuba()}}{table.141}{}}
\@writefile{toc}{\contentsline {paragraph}{\numberline {5.2.2.13}mzed\discretionary {\unhbox \voidb@x \hbox {\relax \fontsize  {7}{8}\selectfont  $\DOTSB \leftarrow \joinrel  \rhook $}}{}{}\_\discretionary {\unhbox \voidb@x \hbox {\relax \fontsize  {7}{8}\selectfont  $\DOTSB \leftarrow \joinrel  \rhook $}}{}{}mul\discretionary {\unhbox \voidb@x \hbox {\relax \fontsize  {7}{8}\selectfont  $\DOTSB \leftarrow \joinrel  \rhook $}}{}{}\_\discretionary {\unhbox \voidb@x \hbox {\relax \fontsize  {7}{8}\selectfont  $\DOTSB \leftarrow \joinrel  \rhook $}}{}{}blm()}{80}{paragraph.5.2.2.13}\protected@file@percent }
\gdef \LT@cxliii {\LT@entry 
    {3}{19.29791pt}\LT@entry 
    {3}{266.80658pt}}
\newlabel{conversion_8h_ac5ec2a92b1147839ffc88ed2f9a5364d}{{5.2.2.13}{81}{\texorpdfstring {mzed\+\_\+mul\+\_\+blm()}{mzed\_mul\_blm()}}{table.142}{}}
\@writefile{toc}{\contentsline {paragraph}{\numberline {5.2.2.14}mzed\discretionary {\unhbox \voidb@x \hbox {\relax \fontsize  {7}{8}\selectfont  $\DOTSB \leftarrow \joinrel  \rhook $}}{}{}\_\discretionary {\unhbox \voidb@x \hbox {\relax \fontsize  {7}{8}\selectfont  $\DOTSB \leftarrow \joinrel  \rhook $}}{}{}mul\discretionary {\unhbox \voidb@x \hbox {\relax \fontsize  {7}{8}\selectfont  $\DOTSB \leftarrow \joinrel  \rhook $}}{}{}\_\discretionary {\unhbox \voidb@x \hbox {\relax \fontsize  {7}{8}\selectfont  $\DOTSB \leftarrow \joinrel  \rhook $}}{}{}karatsuba()}{81}{paragraph.5.2.2.14}\protected@file@percent }
\@writefile{toc}{\contentsline {subsection}{\numberline {5.3}echelonform.\discretionary {\unhbox \voidb@x \hbox {\relax \fontsize  {7}{8}\selectfont  $\DOTSB \leftarrow \joinrel  \rhook $}}{}{}h File Reference}{81}{subsection.5.3}\protected@file@percent }
\newlabel{echelonform_8h}{{5.3}{81}{echelonform.\+h File Reference}{subsection.5.3}{}}
\@writefile{toc}{\contentsline {subsubsection}{\numberline {5.3.1}Detailed Description}{82}{subsubsection.5.3.1}\protected@file@percent }
\@writefile{toc}{\contentsline {subsection}{\numberline {5.4}gf2e.\discretionary {\unhbox \voidb@x \hbox {\relax \fontsize  {7}{8}\selectfont  $\DOTSB \leftarrow \joinrel  \rhook $}}{}{}h File Reference}{82}{subsection.5.4}\protected@file@percent }
\newlabel{gf2e_8h}{{5.4}{82}{gf2e.\+h File Reference}{subsection.5.4}{}}
\newlabel{gf2e_8h_a9e10582e316e74ded3daa3c177b90c16}{{5.4}{82}{Macros}{section*.28}{}}
\newlabel{gf2e_8h_a8128e4cfd2b8ee3b70dc6c39c1774063}{{5.4}{82}{Typedefs}{section*.29}{}}
\newlabel{gf2e_8h_af9a9452dceae37060317bb0543d7d2eb}{{5.4}{82}{Functions}{section*.30}{}}
\newlabel{gf2e_8h_a113270bd5e01a312914cf8303f36361b}{{5.4}{82}{Functions}{section*.30}{}}
\newlabel{gf2e_8h_a9c61ed74731e8130cc3dce1aab118522}{{5.4}{82}{Functions}{section*.30}{}}
\newlabel{gf2e_8h_aedd9e27e729776a9faef9adb154565b7}{{5.4}{82}{Functions}{section*.30}{}}
\gdef \LT@cxliv {\LT@entry 
    {3}{17.8039pt}\LT@entry 
    {3}{55.91408pt}}
\gdef \LT@cxlv {\LT@entry 
    {3}{17.8039pt}\LT@entry 
    {3}{55.91408pt}}
\newlabel{gf2e_8h_a293e5ac6a0390798bbbd8add25a1ff37}{{5.4}{83}{Variables}{section*.31}{}}
\@writefile{toc}{\contentsline {subsubsection}{\numberline {5.4.1}Detailed Description}{83}{subsubsection.5.4.1}\protected@file@percent }
\@writefile{toc}{\contentsline {subsubsection}{\numberline {5.4.2}Function Documentation}{83}{subsubsection.5.4.2}\protected@file@percent }
\newlabel{gf2e_8h_a2e4ebaa5d546af55cc38cbef33ea4e9a}{{5.4.2}{83}{Function Documentation}{subsubsection.5.4.2}{}}
\@writefile{toc}{\contentsline {paragraph}{\numberline {5.4.2.1}gf2e\discretionary {\unhbox \voidb@x \hbox {\relax \fontsize  {7}{8}\selectfont  $\DOTSB \leftarrow \joinrel  \rhook $}}{}{}\_\discretionary {\unhbox \voidb@x \hbox {\relax \fontsize  {7}{8}\selectfont  $\DOTSB \leftarrow \joinrel  \rhook $}}{}{}degree\discretionary {\unhbox \voidb@x \hbox {\relax \fontsize  {7}{8}\selectfont  $\DOTSB \leftarrow \joinrel  \rhook $}}{}{}\_\discretionary {\unhbox \voidb@x \hbox {\relax \fontsize  {7}{8}\selectfont  $\DOTSB \leftarrow \joinrel  \rhook $}}{}{}to\discretionary {\unhbox \voidb@x \hbox {\relax \fontsize  {7}{8}\selectfont  $\DOTSB \leftarrow \joinrel  \rhook $}}{}{}\_\discretionary {\unhbox \voidb@x \hbox {\relax \fontsize  {7}{8}\selectfont  $\DOTSB \leftarrow \joinrel  \rhook $}}{}{}w()}{83}{paragraph.5.4.2.1}\protected@file@percent }
\newlabel{gf2e_8h_a0d71fa325427a39f20aaa90a7ef04029}{{5.4.2.1}{83}{\texorpdfstring {gf2e\+\_\+degree\+\_\+to\+\_\+w()}{gf2e\_degree\_to\_w()}}{table.144}{}}
\@writefile{toc}{\contentsline {paragraph}{\numberline {5.4.2.2}gf2e\discretionary {\unhbox \voidb@x \hbox {\relax \fontsize  {7}{8}\selectfont  $\DOTSB \leftarrow \joinrel  \rhook $}}{}{}\_\discretionary {\unhbox \voidb@x \hbox {\relax \fontsize  {7}{8}\selectfont  $\DOTSB \leftarrow \joinrel  \rhook $}}{}{}free()}{83}{paragraph.5.4.2.2}\protected@file@percent }
\newlabel{gf2e_8h_a3b942b4f7e986b67358003fb3532a42a}{{5.4.2.2}{83}{\texorpdfstring {gf2e\+\_\+free()}{gf2e\_free()}}{table.145}{}}
\gdef \LT@cxlvi {\LT@entry 
    {3}{43.80449pt}\LT@entry 
    {3}{174.00967pt}}
\gdef \LT@cxlvii {\LT@entry 
    {3}{27.20876pt}\LT@entry 
    {3}{86.24345pt}}
\gdef \LT@cxlviii {\LT@entry 
    {3}{17.8039pt}\LT@entry 
    {3}{90.42834pt}}
\@writefile{toc}{\contentsline {paragraph}{\numberline {5.4.2.3}gf2e\discretionary {\unhbox \voidb@x \hbox {\relax \fontsize  {7}{8}\selectfont  $\DOTSB \leftarrow \joinrel  \rhook $}}{}{}\_\discretionary {\unhbox \voidb@x \hbox {\relax \fontsize  {7}{8}\selectfont  $\DOTSB \leftarrow \joinrel  \rhook $}}{}{}init()}{84}{paragraph.5.4.2.3}\protected@file@percent }
\newlabel{gf2e_8h_a57ed74d76e66d7a249ca4762690dcb8b}{{5.4.2.3}{84}{\texorpdfstring {gf2e\+\_\+init()}{gf2e\_init()}}{table.146}{}}
\@writefile{toc}{\contentsline {paragraph}{\numberline {5.4.2.4}gf2e\discretionary {\unhbox \voidb@x \hbox {\relax \fontsize  {7}{8}\selectfont  $\DOTSB \leftarrow \joinrel  \rhook $}}{}{}\_\discretionary {\unhbox \voidb@x \hbox {\relax \fontsize  {7}{8}\selectfont  $\DOTSB \leftarrow \joinrel  \rhook $}}{}{}t16\discretionary {\unhbox \voidb@x \hbox {\relax \fontsize  {7}{8}\selectfont  $\DOTSB \leftarrow \joinrel  \rhook $}}{}{}\_\discretionary {\unhbox \voidb@x \hbox {\relax \fontsize  {7}{8}\selectfont  $\DOTSB \leftarrow \joinrel  \rhook $}}{}{}free()}{84}{paragraph.5.4.2.4}\protected@file@percent }
\newlabel{gf2e_8h_aa5383498df3bffe3e4fba79760a45a6b}{{5.4.2.4}{84}{\texorpdfstring {gf2e\+\_\+t16\+\_\+free()}{gf2e\_t16\_free()}}{table.147}{}}
\@writefile{toc}{\contentsline {paragraph}{\numberline {5.4.2.5}gf2e\discretionary {\unhbox \voidb@x \hbox {\relax \fontsize  {7}{8}\selectfont  $\DOTSB \leftarrow \joinrel  \rhook $}}{}{}\_\discretionary {\unhbox \voidb@x \hbox {\relax \fontsize  {7}{8}\selectfont  $\DOTSB \leftarrow \joinrel  \rhook $}}{}{}t16\discretionary {\unhbox \voidb@x \hbox {\relax \fontsize  {7}{8}\selectfont  $\DOTSB \leftarrow \joinrel  \rhook $}}{}{}\_\discretionary {\unhbox \voidb@x \hbox {\relax \fontsize  {7}{8}\selectfont  $\DOTSB \leftarrow \joinrel  \rhook $}}{}{}init()}{84}{paragraph.5.4.2.5}\protected@file@percent }
\@writefile{toc}{\contentsline {subsection}{\numberline {5.5}gf2x.\discretionary {\unhbox \voidb@x \hbox {\relax \fontsize  {7}{8}\selectfont  $\DOTSB \leftarrow \joinrel  \rhook $}}{}{}h File Reference}{85}{subsection.5.5}\protected@file@percent }
\newlabel{gf2x_8h}{{5.5}{85}{gf2x.\+h File Reference}{subsection.5.5}{}}
\newlabel{gf2x_8h_a5ed68b1364fe253552bb4aa01ab2b9a2}{{5.5}{85}{Functions}{section*.34}{}}
\newlabel{gf2x_8h_af273b269279c55c10f7650f499dbb972}{{5.5}{85}{Functions}{section*.34}{}}
\newlabel{gf2x_8h_a92aa6c1cf5cf2968876b3a3953b6a7c1}{{5.5}{85}{Functions}{section*.34}{}}
\newlabel{gf2x_8h_a9881ca6384e7274ff353f7d3c3f93e13}{{5.5}{85}{Functions}{section*.34}{}}
\newlabel{gf2x_8h_a6022eb7f0046018037007ea579eaa2b3}{{5.5}{85}{Functions}{section*.34}{}}
\@writefile{toc}{\contentsline {subsubsection}{\numberline {5.5.1}Detailed Description}{85}{subsubsection.5.5.1}\protected@file@percent }
\@writefile{toc}{\contentsline {subsubsection}{\numberline {5.5.2}Macro Definition Documentation}{85}{subsubsection.5.5.2}\protected@file@percent }
\newlabel{gf2x_8h_a0ef6a9e3493cb79b8405f19102e1504a}{{5.5.2}{85}{Macro Definition Documentation}{subsubsection.5.5.2}{}}
\gdef \LT@cxlix {\LT@entry 
    {3}{17.8039pt}\LT@entry 
    {3}{126.94249pt}}
\@writefile{toc}{\contentsline {paragraph}{\numberline {5.5.2.1}\discretionary {\unhbox \voidb@x \hbox {\relax \fontsize  {7}{8}\selectfont  $\DOTSB \leftarrow \joinrel  \rhook $}}{}{}\_\discretionary {\unhbox \voidb@x \hbox {\relax \fontsize  {7}{8}\selectfont  $\DOTSB \leftarrow \joinrel  \rhook $}}{}{}\discretionary {\unhbox \voidb@x \hbox {\relax \fontsize  {7}{8}\selectfont  $\DOTSB \leftarrow \joinrel  \rhook $}}{}{}\_\discretionary {\unhbox \voidb@x \hbox {\relax \fontsize  {7}{8}\selectfont  $\DOTSB \leftarrow \joinrel  \rhook $}}{}{}\discretionary {\unhbox \voidb@x \hbox {\relax \fontsize  {7}{8}\selectfont  $\DOTSB \leftarrow \joinrel  \rhook $}}{}{}M4\discretionary {\unhbox \voidb@x \hbox {\relax \fontsize  {7}{8}\selectfont  $\DOTSB \leftarrow \joinrel  \rhook $}}{}{}R\discretionary {\unhbox \voidb@x \hbox {\relax \fontsize  {7}{8}\selectfont  $\DOTSB \leftarrow \joinrel  \rhook $}}{}{}I\discretionary {\unhbox \voidb@x \hbox {\relax \fontsize  {7}{8}\selectfont  $\DOTSB \leftarrow \joinrel  \rhook $}}{}{}E\discretionary {\unhbox \voidb@x \hbox {\relax \fontsize  {7}{8}\selectfont  $\DOTSB \leftarrow \joinrel  \rhook $}}{}{}\_\discretionary {\unhbox \voidb@x \hbox {\relax \fontsize  {7}{8}\selectfont  $\DOTSB \leftarrow \joinrel  \rhook $}}{}{}1tF}{86}{paragraph.5.5.2.1}\protected@file@percent }
\@writefile{toc}{\contentsline {subsubsection}{\numberline {5.5.3}Typedef Documentation}{86}{subsubsection.5.5.3}\protected@file@percent }
\newlabel{gf2x_8h_a05c7cda5df79ad60b684b2d4981137a6}{{5.5.3}{86}{Typedef Documentation}{subsubsection.5.5.3}{}}
\@writefile{toc}{\contentsline {paragraph}{\numberline {5.5.3.1}deg\discretionary {\unhbox \voidb@x \hbox {\relax \fontsize  {7}{8}\selectfont  $\DOTSB \leftarrow \joinrel  \rhook $}}{}{}\_\discretionary {\unhbox \voidb@x \hbox {\relax \fontsize  {7}{8}\selectfont  $\DOTSB \leftarrow \joinrel  \rhook $}}{}{}t}{86}{paragraph.5.5.3.1}\protected@file@percent }
\@writefile{toc}{\contentsline {subsubsection}{\numberline {5.5.4}Function Documentation}{86}{subsubsection.5.5.4}\protected@file@percent }
\newlabel{gf2x_8h_a079b8b1f799055ec0ce9e7c1c2e85d29}{{5.5.4}{86}{Function Documentation}{subsubsection.5.5.4}{}}
\@writefile{toc}{\contentsline {paragraph}{\numberline {5.5.4.1}gf2x\discretionary {\unhbox \voidb@x \hbox {\relax \fontsize  {7}{8}\selectfont  $\DOTSB \leftarrow \joinrel  \rhook $}}{}{}\_\discretionary {\unhbox \voidb@x \hbox {\relax \fontsize  {7}{8}\selectfont  $\DOTSB \leftarrow \joinrel  \rhook $}}{}{}deg()}{86}{paragraph.5.5.4.1}\protected@file@percent }
\@writefile{toc}{\contentsline {subsection}{\numberline {5.6}m4rie.\discretionary {\unhbox \voidb@x \hbox {\relax \fontsize  {7}{8}\selectfont  $\DOTSB \leftarrow \joinrel  \rhook $}}{}{}h File Reference}{86}{subsection.5.6}\protected@file@percent }
\newlabel{m4rie_8h}{{5.6}{86}{m4rie.\+h File Reference}{subsection.5.6}{}}
\@writefile{toc}{\contentsline {subsubsection}{\numberline {5.6.1}Detailed Description}{87}{subsubsection.5.6.1}\protected@file@percent }
\@writefile{toc}{\contentsline {subsection}{\numberline {5.7}mzd\discretionary {\unhbox \voidb@x \hbox {\relax \fontsize  {7}{8}\selectfont  $\DOTSB \leftarrow \joinrel  \rhook $}}{}{}\_\discretionary {\unhbox \voidb@x \hbox {\relax \fontsize  {7}{8}\selectfont  $\DOTSB \leftarrow \joinrel  \rhook $}}{}{}poly.\discretionary {\unhbox \voidb@x \hbox {\relax \fontsize  {7}{8}\selectfont  $\DOTSB \leftarrow \joinrel  \rhook $}}{}{}h File Reference}{87}{subsection.5.7}\protected@file@percent }
\newlabel{mzd__poly_8h}{{5.7}{87}{mzd\+\_\+poly.\+h File Reference}{subsection.5.7}{}}
\newlabel{mzd__poly_8h_a57bfd56fce3474e4a1c78df5d6152514}{{5.7}{87}{Functions}{section*.36}{}}
\newlabel{mzd__poly_8h_a4f7ac2ef980e0aaded4f915865de97c3}{{5.7}{87}{Functions}{section*.36}{}}
\newlabel{mzd__poly_8h_a0c409d3e03917e0bd37e0148ad6e5817}{{5.7}{87}{Functions}{section*.36}{}}
\gdef \LT@cl {\LT@entry 
    {3}{18.80287pt}\LT@entry 
    {3}{39.53435pt}}
\@writefile{toc}{\contentsline {subsubsection}{\numberline {5.7.1}Detailed Description}{88}{subsubsection.5.7.1}\protected@file@percent }
\@writefile{toc}{\contentsline {subsubsection}{\numberline {5.7.2}Function Documentation}{88}{subsubsection.5.7.2}\protected@file@percent }
\newlabel{mzd__poly_8h_a1446bf7ce7ce9ed859bd27fbc64435e3}{{5.7.2}{88}{Function Documentation}{subsubsection.5.7.2}{}}
\@writefile{toc}{\contentsline {paragraph}{\numberline {5.7.2.1}mzd\discretionary {\unhbox \voidb@x \hbox {\relax \fontsize  {7}{8}\selectfont  $\DOTSB \leftarrow \joinrel  \rhook $}}{}{}\_\discretionary {\unhbox \voidb@x \hbox {\relax \fontsize  {7}{8}\selectfont  $\DOTSB \leftarrow \joinrel  \rhook $}}{}{}poly\discretionary {\unhbox \voidb@x \hbox {\relax \fontsize  {7}{8}\selectfont  $\DOTSB \leftarrow \joinrel  \rhook $}}{}{}\_\discretionary {\unhbox \voidb@x \hbox {\relax \fontsize  {7}{8}\selectfont  $\DOTSB \leftarrow \joinrel  \rhook $}}{}{}cmp()}{88}{paragraph.5.7.2.1}\protected@file@percent }
\@writefile{toc}{\contentsline {subsection}{\numberline {5.8}mzd\discretionary {\unhbox \voidb@x \hbox {\relax \fontsize  {7}{8}\selectfont  $\DOTSB \leftarrow \joinrel  \rhook $}}{}{}\_\discretionary {\unhbox \voidb@x \hbox {\relax \fontsize  {7}{8}\selectfont  $\DOTSB \leftarrow \joinrel  \rhook $}}{}{}slice.\discretionary {\unhbox \voidb@x \hbox {\relax \fontsize  {7}{8}\selectfont  $\DOTSB \leftarrow \joinrel  \rhook $}}{}{}h File Reference}{88}{subsection.5.8}\protected@file@percent }
\newlabel{mzd__slice_8h}{{5.8}{88}{mzd\+\_\+slice.\+h File Reference}{subsection.5.8}{}}
\@writefile{toc}{\contentsline {subsubsection}{\numberline {5.8.1}Detailed Description}{90}{subsubsection.5.8.1}\protected@file@percent }
\@writefile{toc}{\contentsline {subsubsection}{\numberline {5.8.2}Function Documentation}{90}{subsubsection.5.8.2}\protected@file@percent }
\newlabel{mzd__slice_8h_af21977bfcf9c6b403e92e5e73633d408}{{5.8.2}{90}{Function Documentation}{subsubsection.5.8.2}{}}
\gdef \LT@cli {\LT@entry 
    {3}{56.64719pt}\LT@entry 
    {3}{186.78236pt}}
\gdef \LT@clii {\LT@entry 
    {3}{22.8078pt}\LT@entry 
    {3}{114.2457pt}}
\gdef \LT@cliii {\LT@entry 
    {3}{18.80287pt}\LT@entry 
    {3}{39.53435pt}}
\@writefile{toc}{\contentsline {paragraph}{\numberline {5.8.2.1}\discretionary {\unhbox \voidb@x \hbox {\relax \fontsize  {7}{8}\selectfont  $\DOTSB \leftarrow \joinrel  \rhook $}}{}{}\_\discretionary {\unhbox \voidb@x \hbox {\relax \fontsize  {7}{8}\selectfont  $\DOTSB \leftarrow \joinrel  \rhook $}}{}{}mzd\discretionary {\unhbox \voidb@x \hbox {\relax \fontsize  {7}{8}\selectfont  $\DOTSB \leftarrow \joinrel  \rhook $}}{}{}\_\discretionary {\unhbox \voidb@x \hbox {\relax \fontsize  {7}{8}\selectfont  $\DOTSB \leftarrow \joinrel  \rhook $}}{}{}slice\discretionary {\unhbox \voidb@x \hbox {\relax \fontsize  {7}{8}\selectfont  $\DOTSB \leftarrow \joinrel  \rhook $}}{}{}\_\discretionary {\unhbox \voidb@x \hbox {\relax \fontsize  {7}{8}\selectfont  $\DOTSB \leftarrow \joinrel  \rhook $}}{}{}adapt\discretionary {\unhbox \voidb@x \hbox {\relax \fontsize  {7}{8}\selectfont  $\DOTSB \leftarrow \joinrel  \rhook $}}{}{}\_\discretionary {\unhbox \voidb@x \hbox {\relax \fontsize  {7}{8}\selectfont  $\DOTSB \leftarrow \joinrel  \rhook $}}{}{}depth()}{91}{paragraph.5.8.2.1}\protected@file@percent }
\newlabel{mzd__slice_8h_a72759803aae9477addebdee2985f7927}{{5.8.2.1}{91}{\texorpdfstring {\+\_\+mzd\+\_\+slice\+\_\+adapt\+\_\+depth()}{\_mzd\_slice\_adapt\_depth()}}{table.151}{}}
\@writefile{toc}{\contentsline {paragraph}{\numberline {5.8.2.2}\discretionary {\unhbox \voidb@x \hbox {\relax \fontsize  {7}{8}\selectfont  $\DOTSB \leftarrow \joinrel  \rhook $}}{}{}\_\discretionary {\unhbox \voidb@x \hbox {\relax \fontsize  {7}{8}\selectfont  $\DOTSB \leftarrow \joinrel  \rhook $}}{}{}mzd\discretionary {\unhbox \voidb@x \hbox {\relax \fontsize  {7}{8}\selectfont  $\DOTSB \leftarrow \joinrel  \rhook $}}{}{}\_\discretionary {\unhbox \voidb@x \hbox {\relax \fontsize  {7}{8}\selectfont  $\DOTSB \leftarrow \joinrel  \rhook $}}{}{}slice\discretionary {\unhbox \voidb@x \hbox {\relax \fontsize  {7}{8}\selectfont  $\DOTSB \leftarrow \joinrel  \rhook $}}{}{}\_\discretionary {\unhbox \voidb@x \hbox {\relax \fontsize  {7}{8}\selectfont  $\DOTSB \leftarrow \joinrel  \rhook $}}{}{}compress\discretionary {\unhbox \voidb@x \hbox {\relax \fontsize  {7}{8}\selectfont  $\DOTSB \leftarrow \joinrel  \rhook $}}{}{}\_\discretionary {\unhbox \voidb@x \hbox {\relax \fontsize  {7}{8}\selectfont  $\DOTSB \leftarrow \joinrel  \rhook $}}{}{}l()}{91}{paragraph.5.8.2.2}\protected@file@percent }
\newlabel{mzd__slice_8h_a7283c235f3ef30536811379efe23ea86}{{5.8.2.2}{91}{\texorpdfstring {\+\_\+mzd\+\_\+slice\+\_\+compress\+\_\+l()}{\_mzd\_slice\_compress\_l()}}{table.152}{}}
\@writefile{toc}{\contentsline {paragraph}{\numberline {5.8.2.3}mzd\discretionary {\unhbox \voidb@x \hbox {\relax \fontsize  {7}{8}\selectfont  $\DOTSB \leftarrow \joinrel  \rhook $}}{}{}\_\discretionary {\unhbox \voidb@x \hbox {\relax \fontsize  {7}{8}\selectfont  $\DOTSB \leftarrow \joinrel  \rhook $}}{}{}slice\discretionary {\unhbox \voidb@x \hbox {\relax \fontsize  {7}{8}\selectfont  $\DOTSB \leftarrow \joinrel  \rhook $}}{}{}\_\discretionary {\unhbox \voidb@x \hbox {\relax \fontsize  {7}{8}\selectfont  $\DOTSB \leftarrow \joinrel  \rhook $}}{}{}cmp()}{91}{paragraph.5.8.2.3}\protected@file@percent }
\gdef \LT@cliv {\LT@entry 
    {3}{50.03224pt}\LT@entry 
    {3}{101.51663pt}}
\gdef \LT@clv {\LT@entry 
    {3}{18.80287pt}\LT@entry 
    {3}{62.05174pt}}
\newlabel{mzd__slice_8h_ae42460781bf66627a40a73a6c0c48357}{{5.8.2.3}{92}{\texorpdfstring {mzd\+\_\+slice\+\_\+cmp()}{mzd\_slice\_cmp()}}{table.153}{}}
\@writefile{toc}{\contentsline {paragraph}{\numberline {5.8.2.4}mzd\discretionary {\unhbox \voidb@x \hbox {\relax \fontsize  {7}{8}\selectfont  $\DOTSB \leftarrow \joinrel  \rhook $}}{}{}\_\discretionary {\unhbox \voidb@x \hbox {\relax \fontsize  {7}{8}\selectfont  $\DOTSB \leftarrow \joinrel  \rhook $}}{}{}slice\discretionary {\unhbox \voidb@x \hbox {\relax \fontsize  {7}{8}\selectfont  $\DOTSB \leftarrow \joinrel  \rhook $}}{}{}\_\discretionary {\unhbox \voidb@x \hbox {\relax \fontsize  {7}{8}\selectfont  $\DOTSB \leftarrow \joinrel  \rhook $}}{}{}col\discretionary {\unhbox \voidb@x \hbox {\relax \fontsize  {7}{8}\selectfont  $\DOTSB \leftarrow \joinrel  \rhook $}}{}{}\_\discretionary {\unhbox \voidb@x \hbox {\relax \fontsize  {7}{8}\selectfont  $\DOTSB \leftarrow \joinrel  \rhook $}}{}{}swap\discretionary {\unhbox \voidb@x \hbox {\relax \fontsize  {7}{8}\selectfont  $\DOTSB \leftarrow \joinrel  \rhook $}}{}{}\_\discretionary {\unhbox \voidb@x \hbox {\relax \fontsize  {7}{8}\selectfont  $\DOTSB \leftarrow \joinrel  \rhook $}}{}{}in\discretionary {\unhbox \voidb@x \hbox {\relax \fontsize  {7}{8}\selectfont  $\DOTSB \leftarrow \joinrel  \rhook $}}{}{}\_\discretionary {\unhbox \voidb@x \hbox {\relax \fontsize  {7}{8}\selectfont  $\DOTSB \leftarrow \joinrel  \rhook $}}{}{}rows()}{92}{paragraph.5.8.2.4}\protected@file@percent }
\newlabel{mzd__slice_8h_abda040114f819dc9a890a7a405236fcb}{{5.8.2.4}{92}{\texorpdfstring {mzd\+\_\+slice\+\_\+col\+\_\+swap\+\_\+in\+\_\+rows()}{mzd\_slice\_col\_swap\_in\_rows()}}{table.154}{}}
\@writefile{toc}{\contentsline {paragraph}{\numberline {5.8.2.5}mzd\discretionary {\unhbox \voidb@x \hbox {\relax \fontsize  {7}{8}\selectfont  $\DOTSB \leftarrow \joinrel  \rhook $}}{}{}\_\discretionary {\unhbox \voidb@x \hbox {\relax \fontsize  {7}{8}\selectfont  $\DOTSB \leftarrow \joinrel  \rhook $}}{}{}slice\discretionary {\unhbox \voidb@x \hbox {\relax \fontsize  {7}{8}\selectfont  $\DOTSB \leftarrow \joinrel  \rhook $}}{}{}\_\discretionary {\unhbox \voidb@x \hbox {\relax \fontsize  {7}{8}\selectfont  $\DOTSB \leftarrow \joinrel  \rhook $}}{}{}is\discretionary {\unhbox \voidb@x \hbox {\relax \fontsize  {7}{8}\selectfont  $\DOTSB \leftarrow \joinrel  \rhook $}}{}{}\_\discretionary {\unhbox \voidb@x \hbox {\relax \fontsize  {7}{8}\selectfont  $\DOTSB \leftarrow \joinrel  \rhook $}}{}{}zero()}{92}{paragraph.5.8.2.5}\protected@file@percent }
\@writefile{toc}{\contentsline {subsection}{\numberline {5.9}mzed.\discretionary {\unhbox \voidb@x \hbox {\relax \fontsize  {7}{8}\selectfont  $\DOTSB \leftarrow \joinrel  \rhook $}}{}{}h File Reference}{92}{subsection.5.9}\protected@file@percent }
\newlabel{mzed_8h}{{5.9}{92}{mzed.\+h File Reference}{subsection.5.9}{}}
\@writefile{toc}{\contentsline {subsubsection}{\numberline {5.9.1}Detailed Description}{94}{subsubsection.5.9.1}\protected@file@percent }
\gdef \LT@clvi {\LT@entry 
    {3}{32.30266pt}\LT@entry 
    {3}{199.04674pt}}
\gdef \LT@clvii {\LT@entry 
    {3}{18.80287pt}\LT@entry 
    {3}{39.53435pt}}
\@writefile{toc}{\contentsline {subsubsection}{\numberline {5.9.2}Function Documentation}{95}{subsubsection.5.9.2}\protected@file@percent }
\newlabel{mzed_8h_af25de97536af0644d103b8fe23650a9b}{{5.9.2}{95}{Function Documentation}{subsubsection.5.9.2}{}}
\@writefile{toc}{\contentsline {paragraph}{\numberline {5.9.2.1}\discretionary {\unhbox \voidb@x \hbox {\relax \fontsize  {7}{8}\selectfont  $\DOTSB \leftarrow \joinrel  \rhook $}}{}{}\_\discretionary {\unhbox \voidb@x \hbox {\relax \fontsize  {7}{8}\selectfont  $\DOTSB \leftarrow \joinrel  \rhook $}}{}{}mzed\discretionary {\unhbox \voidb@x \hbox {\relax \fontsize  {7}{8}\selectfont  $\DOTSB \leftarrow \joinrel  \rhook $}}{}{}\_\discretionary {\unhbox \voidb@x \hbox {\relax \fontsize  {7}{8}\selectfont  $\DOTSB \leftarrow \joinrel  \rhook $}}{}{}mul\discretionary {\unhbox \voidb@x \hbox {\relax \fontsize  {7}{8}\selectfont  $\DOTSB \leftarrow \joinrel  \rhook $}}{}{}\_\discretionary {\unhbox \voidb@x \hbox {\relax \fontsize  {7}{8}\selectfont  $\DOTSB \leftarrow \joinrel  \rhook $}}{}{}init()}{95}{paragraph.5.9.2.1}\protected@file@percent }
\newlabel{mzed_8h_a343f20e3686c39dbd22bd654d1b8f8ce}{{5.9.2.1}{95}{\texorpdfstring {\+\_\+mzed\+\_\+mul\+\_\+init()}{\_mzed\_mul\_init()}}{table.156}{}}
\@writefile{toc}{\contentsline {paragraph}{\numberline {5.9.2.2}mzed\discretionary {\unhbox \voidb@x \hbox {\relax \fontsize  {7}{8}\selectfont  $\DOTSB \leftarrow \joinrel  \rhook $}}{}{}\_\discretionary {\unhbox \voidb@x \hbox {\relax \fontsize  {7}{8}\selectfont  $\DOTSB \leftarrow \joinrel  \rhook $}}{}{}cmp()}{95}{paragraph.5.9.2.2}\protected@file@percent }
\newlabel{mzed_8h_ab63ad1b909333c29f8c30bbddb973bca}{{5.9.2.2}{95}{\texorpdfstring {mzed\+\_\+cmp()}{mzed\_cmp()}}{table.157}{}}
\@writefile{toc}{\contentsline {paragraph}{\numberline {5.9.2.3}mzed\discretionary {\unhbox \voidb@x \hbox {\relax \fontsize  {7}{8}\selectfont  $\DOTSB \leftarrow \joinrel  \rhook $}}{}{}\_\discretionary {\unhbox \voidb@x \hbox {\relax \fontsize  {7}{8}\selectfont  $\DOTSB \leftarrow \joinrel  \rhook $}}{}{}is\discretionary {\unhbox \voidb@x \hbox {\relax \fontsize  {7}{8}\selectfont  $\DOTSB \leftarrow \joinrel  \rhook $}}{}{}\_\discretionary {\unhbox \voidb@x \hbox {\relax \fontsize  {7}{8}\selectfont  $\DOTSB \leftarrow \joinrel  \rhook $}}{}{}zero()}{95}{paragraph.5.9.2.3}\protected@file@percent }
\gdef \LT@clviii {\LT@entry 
    {3}{18.80287pt}\LT@entry 
    {3}{62.05174pt}}
\@writefile{toc}{\contentsline {subsection}{\numberline {5.10}newton\discretionary {\unhbox \voidb@x \hbox {\relax \fontsize  {7}{8}\selectfont  $\DOTSB \leftarrow \joinrel  \rhook $}}{}{}\_\discretionary {\unhbox \voidb@x \hbox {\relax \fontsize  {7}{8}\selectfont  $\DOTSB \leftarrow \joinrel  \rhook $}}{}{}john.\discretionary {\unhbox \voidb@x \hbox {\relax \fontsize  {7}{8}\selectfont  $\DOTSB \leftarrow \joinrel  \rhook $}}{}{}h File Reference}{96}{subsection.5.10}\protected@file@percent }
\newlabel{newton__john_8h}{{5.10}{96}{newton\+\_\+john.\+h File Reference}{subsection.5.10}{}}
\gdef \LT@clix {\LT@entry 
    {3}{18.80287pt}\LT@entry 
    {3}{317.92578pt}}
\@writefile{toc}{\contentsline {subsubsection}{\numberline {5.10.1}Detailed Description}{97}{subsubsection.5.10.1}\protected@file@percent }
\@writefile{toc}{\contentsline {subsubsection}{\numberline {5.10.2}Function Documentation}{97}{subsubsection.5.10.2}\protected@file@percent }
\newlabel{newton__john_8h_a6b7057330623f931319f478ce1520977}{{5.10.2}{97}{Function Documentation}{subsubsection.5.10.2}{}}
\@writefile{toc}{\contentsline {paragraph}{\numberline {5.10.2.1}mzed\discretionary {\unhbox \voidb@x \hbox {\relax \fontsize  {7}{8}\selectfont  $\DOTSB \leftarrow \joinrel  \rhook $}}{}{}\_\discretionary {\unhbox \voidb@x \hbox {\relax \fontsize  {7}{8}\selectfont  $\DOTSB \leftarrow \joinrel  \rhook $}}{}{}invert\discretionary {\unhbox \voidb@x \hbox {\relax \fontsize  {7}{8}\selectfont  $\DOTSB \leftarrow \joinrel  \rhook $}}{}{}\_\discretionary {\unhbox \voidb@x \hbox {\relax \fontsize  {7}{8}\selectfont  $\DOTSB \leftarrow \joinrel  \rhook $}}{}{}newton\discretionary {\unhbox \voidb@x \hbox {\relax \fontsize  {7}{8}\selectfont  $\DOTSB \leftarrow \joinrel  \rhook $}}{}{}\_\discretionary {\unhbox \voidb@x \hbox {\relax \fontsize  {7}{8}\selectfont  $\DOTSB \leftarrow \joinrel  \rhook $}}{}{}john()}{97}{paragraph.5.10.2.1}\protected@file@percent }
\gdef \LT@clx {\LT@entry 
    {3}{18.80287pt}\LT@entry 
    {3}{178.1047pt}}
\gdef \LT@clxi {\LT@entry 
    {3}{15.30188pt}\LT@entry 
    {3}{33.6487pt}}
\gdef \LT@clxii {\LT@entry 
    {3}{33.8057pt}\LT@entry 
    {3}{60.70372pt}}
\newlabel{newton__john_8h_a6f859ea68744e815f012ea0128ae15b6}{{5.10.2.1}{98}{\texorpdfstring {mzed\+\_\+invert\+\_\+newton\+\_\+john()}{mzed\_invert\_newton\_john()}}{table.159}{}}
\@writefile{toc}{\contentsline {paragraph}{\numberline {5.10.2.2}mzed\discretionary {\unhbox \voidb@x \hbox {\relax \fontsize  {7}{8}\selectfont  $\DOTSB \leftarrow \joinrel  \rhook $}}{}{}\_\discretionary {\unhbox \voidb@x \hbox {\relax \fontsize  {7}{8}\selectfont  $\DOTSB \leftarrow \joinrel  \rhook $}}{}{}make\discretionary {\unhbox \voidb@x \hbox {\relax \fontsize  {7}{8}\selectfont  $\DOTSB \leftarrow \joinrel  \rhook $}}{}{}\_\discretionary {\unhbox \voidb@x \hbox {\relax \fontsize  {7}{8}\selectfont  $\DOTSB \leftarrow \joinrel  \rhook $}}{}{}table()}{98}{paragraph.5.10.2.2}\protected@file@percent }
\newlabel{newton__john_8h_a92e8df4c96751e7b184455eb4af9ceed}{{5.10.2.2}{98}{\texorpdfstring {mzed\+\_\+make\+\_\+table()}{mzed\_make\_table()}}{table.160}{}}
\@writefile{toc}{\contentsline {paragraph}{\numberline {5.10.2.3}njt\discretionary {\unhbox \voidb@x \hbox {\relax \fontsize  {7}{8}\selectfont  $\DOTSB \leftarrow \joinrel  \rhook $}}{}{}\_\discretionary {\unhbox \voidb@x \hbox {\relax \fontsize  {7}{8}\selectfont  $\DOTSB \leftarrow \joinrel  \rhook $}}{}{}mzed\discretionary {\unhbox \voidb@x \hbox {\relax \fontsize  {7}{8}\selectfont  $\DOTSB \leftarrow \joinrel  \rhook $}}{}{}\_\discretionary {\unhbox \voidb@x \hbox {\relax \fontsize  {7}{8}\selectfont  $\DOTSB \leftarrow \joinrel  \rhook $}}{}{}free()}{98}{paragraph.5.10.2.3}\protected@file@percent }
\newlabel{newton__john_8h_a51c118498373dc785d38766f889536e6}{{5.10.2.3}{98}{\texorpdfstring {njt\+\_\+mzed\+\_\+free()}{njt\_mzed\_free()}}{table.161}{}}
\@writefile{toc}{\contentsline {paragraph}{\numberline {5.10.2.4}njt\discretionary {\unhbox \voidb@x \hbox {\relax \fontsize  {7}{8}\selectfont  $\DOTSB \leftarrow \joinrel  \rhook $}}{}{}\_\discretionary {\unhbox \voidb@x \hbox {\relax \fontsize  {7}{8}\selectfont  $\DOTSB \leftarrow \joinrel  \rhook $}}{}{}mzed\discretionary {\unhbox \voidb@x \hbox {\relax \fontsize  {7}{8}\selectfont  $\DOTSB \leftarrow \joinrel  \rhook $}}{}{}\_\discretionary {\unhbox \voidb@x \hbox {\relax \fontsize  {7}{8}\selectfont  $\DOTSB \leftarrow \joinrel  \rhook $}}{}{}init()}{98}{paragraph.5.10.2.4}\protected@file@percent }
\@writefile{toc}{\contentsline {subsection}{\numberline {5.11}permutation.\discretionary {\unhbox \voidb@x \hbox {\relax \fontsize  {7}{8}\selectfont  $\DOTSB \leftarrow \joinrel  \rhook $}}{}{}h File Reference}{98}{subsection.5.11}\protected@file@percent }
\newlabel{permutation_8h}{{5.11}{98}{permutation.\+h File Reference}{subsection.5.11}{}}
\gdef \LT@clxiii {\LT@entry 
    {3}{18.80287pt}\LT@entry 
    {3}{63.10486pt}}
\@writefile{toc}{\contentsline {subsubsection}{\numberline {5.11.1}Detailed Description}{99}{subsubsection.5.11.1}\protected@file@percent }
\@writefile{toc}{\contentsline {subsubsection}{\numberline {5.11.2}Function Documentation}{99}{subsubsection.5.11.2}\protected@file@percent }
\newlabel{permutation_8h_a7242b756a61756f6831b67c3274107d6}{{5.11.2}{99}{Function Documentation}{subsubsection.5.11.2}{}}
\@writefile{toc}{\contentsline {paragraph}{\numberline {5.11.2.1}mzd\discretionary {\unhbox \voidb@x \hbox {\relax \fontsize  {7}{8}\selectfont  $\DOTSB \leftarrow \joinrel  \rhook $}}{}{}\_\discretionary {\unhbox \voidb@x \hbox {\relax \fontsize  {7}{8}\selectfont  $\DOTSB \leftarrow \joinrel  \rhook $}}{}{}slice\discretionary {\unhbox \voidb@x \hbox {\relax \fontsize  {7}{8}\selectfont  $\DOTSB \leftarrow \joinrel  \rhook $}}{}{}\_\discretionary {\unhbox \voidb@x \hbox {\relax \fontsize  {7}{8}\selectfont  $\DOTSB \leftarrow \joinrel  \rhook $}}{}{}apply\discretionary {\unhbox \voidb@x \hbox {\relax \fontsize  {7}{8}\selectfont  $\DOTSB \leftarrow \joinrel  \rhook $}}{}{}\_\discretionary {\unhbox \voidb@x \hbox {\relax \fontsize  {7}{8}\selectfont  $\DOTSB \leftarrow \joinrel  \rhook $}}{}{}p\discretionary {\unhbox \voidb@x \hbox {\relax \fontsize  {7}{8}\selectfont  $\DOTSB \leftarrow \joinrel  \rhook $}}{}{}\_\discretionary {\unhbox \voidb@x \hbox {\relax \fontsize  {7}{8}\selectfont  $\DOTSB \leftarrow \joinrel  \rhook $}}{}{}left()}{99}{paragraph.5.11.2.1}\protected@file@percent }
\newlabel{permutation_8h_afedad1006a9c8fc5a886da3931d96ccc}{{5.11.2.1}{99}{\texorpdfstring {mzd\+\_\+slice\+\_\+apply\+\_\+p\+\_\+left()}{mzd\_slice\_apply\_p\_left()}}{table.163}{}}
\@writefile{toc}{\contentsline {paragraph}{\numberline {5.11.2.2}mzd\discretionary {\unhbox \voidb@x \hbox {\relax \fontsize  {7}{8}\selectfont  $\DOTSB \leftarrow \joinrel  \rhook $}}{}{}\_\discretionary {\unhbox \voidb@x \hbox {\relax \fontsize  {7}{8}\selectfont  $\DOTSB \leftarrow \joinrel  \rhook $}}{}{}slice\discretionary {\unhbox \voidb@x \hbox {\relax \fontsize  {7}{8}\selectfont  $\DOTSB \leftarrow \joinrel  \rhook $}}{}{}\_\discretionary {\unhbox \voidb@x \hbox {\relax \fontsize  {7}{8}\selectfont  $\DOTSB \leftarrow \joinrel  \rhook $}}{}{}apply\discretionary {\unhbox \voidb@x \hbox {\relax \fontsize  {7}{8}\selectfont  $\DOTSB \leftarrow \joinrel  \rhook $}}{}{}\_\discretionary {\unhbox \voidb@x \hbox {\relax \fontsize  {7}{8}\selectfont  $\DOTSB \leftarrow \joinrel  \rhook $}}{}{}p\discretionary {\unhbox \voidb@x \hbox {\relax \fontsize  {7}{8}\selectfont  $\DOTSB \leftarrow \joinrel  \rhook $}}{}{}\_\discretionary {\unhbox \voidb@x \hbox {\relax \fontsize  {7}{8}\selectfont  $\DOTSB \leftarrow \joinrel  \rhook $}}{}{}left\discretionary {\unhbox \voidb@x \hbox {\relax \fontsize  {7}{8}\selectfont  $\DOTSB \leftarrow \joinrel  \rhook $}}{}{}\_\discretionary {\unhbox \voidb@x \hbox {\relax \fontsize  {7}{8}\selectfont  $\DOTSB \leftarrow \joinrel  \rhook $}}{}{}trans()}{99}{paragraph.5.11.2.2}\protected@file@percent }
\gdef \LT@clxiv {\LT@entry 
    {3}{18.80287pt}\LT@entry 
    {3}{63.10486pt}}
\gdef \LT@clxv {\LT@entry 
    {3}{18.80287pt}\LT@entry 
    {3}{63.10486pt}}
\gdef \LT@clxvi {\LT@entry 
    {3}{18.80287pt}\LT@entry 
    {3}{63.10486pt}}
\newlabel{permutation_8h_a8f772941b6d1787d7887c7323d71e20f}{{5.11.2.2}{100}{\texorpdfstring {mzd\+\_\+slice\+\_\+apply\+\_\+p\+\_\+left\+\_\+trans()}{mzd\_slice\_apply\_p\_left\_trans()}}{table.164}{}}
\@writefile{toc}{\contentsline {paragraph}{\numberline {5.11.2.3}mzd\discretionary {\unhbox \voidb@x \hbox {\relax \fontsize  {7}{8}\selectfont  $\DOTSB \leftarrow \joinrel  \rhook $}}{}{}\_\discretionary {\unhbox \voidb@x \hbox {\relax \fontsize  {7}{8}\selectfont  $\DOTSB \leftarrow \joinrel  \rhook $}}{}{}slice\discretionary {\unhbox \voidb@x \hbox {\relax \fontsize  {7}{8}\selectfont  $\DOTSB \leftarrow \joinrel  \rhook $}}{}{}\_\discretionary {\unhbox \voidb@x \hbox {\relax \fontsize  {7}{8}\selectfont  $\DOTSB \leftarrow \joinrel  \rhook $}}{}{}apply\discretionary {\unhbox \voidb@x \hbox {\relax \fontsize  {7}{8}\selectfont  $\DOTSB \leftarrow \joinrel  \rhook $}}{}{}\_\discretionary {\unhbox \voidb@x \hbox {\relax \fontsize  {7}{8}\selectfont  $\DOTSB \leftarrow \joinrel  \rhook $}}{}{}p\discretionary {\unhbox \voidb@x \hbox {\relax \fontsize  {7}{8}\selectfont  $\DOTSB \leftarrow \joinrel  \rhook $}}{}{}\_\discretionary {\unhbox \voidb@x \hbox {\relax \fontsize  {7}{8}\selectfont  $\DOTSB \leftarrow \joinrel  \rhook $}}{}{}right()}{100}{paragraph.5.11.2.3}\protected@file@percent }
\newlabel{permutation_8h_ad1c7ad2ce6322044b8f7006cf78e2181}{{5.11.2.3}{100}{\texorpdfstring {mzd\+\_\+slice\+\_\+apply\+\_\+p\+\_\+right()}{mzd\_slice\_apply\_p\_right()}}{table.165}{}}
\@writefile{toc}{\contentsline {paragraph}{\numberline {5.11.2.4}mzd\discretionary {\unhbox \voidb@x \hbox {\relax \fontsize  {7}{8}\selectfont  $\DOTSB \leftarrow \joinrel  \rhook $}}{}{}\_\discretionary {\unhbox \voidb@x \hbox {\relax \fontsize  {7}{8}\selectfont  $\DOTSB \leftarrow \joinrel  \rhook $}}{}{}slice\discretionary {\unhbox \voidb@x \hbox {\relax \fontsize  {7}{8}\selectfont  $\DOTSB \leftarrow \joinrel  \rhook $}}{}{}\_\discretionary {\unhbox \voidb@x \hbox {\relax \fontsize  {7}{8}\selectfont  $\DOTSB \leftarrow \joinrel  \rhook $}}{}{}apply\discretionary {\unhbox \voidb@x \hbox {\relax \fontsize  {7}{8}\selectfont  $\DOTSB \leftarrow \joinrel  \rhook $}}{}{}\_\discretionary {\unhbox \voidb@x \hbox {\relax \fontsize  {7}{8}\selectfont  $\DOTSB \leftarrow \joinrel  \rhook $}}{}{}p\discretionary {\unhbox \voidb@x \hbox {\relax \fontsize  {7}{8}\selectfont  $\DOTSB \leftarrow \joinrel  \rhook $}}{}{}\_\discretionary {\unhbox \voidb@x \hbox {\relax \fontsize  {7}{8}\selectfont  $\DOTSB \leftarrow \joinrel  \rhook $}}{}{}right\discretionary {\unhbox \voidb@x \hbox {\relax \fontsize  {7}{8}\selectfont  $\DOTSB \leftarrow \joinrel  \rhook $}}{}{}\_\discretionary {\unhbox \voidb@x \hbox {\relax \fontsize  {7}{8}\selectfont  $\DOTSB \leftarrow \joinrel  \rhook $}}{}{}trans()}{100}{paragraph.5.11.2.4}\protected@file@percent }
\newlabel{permutation_8h_a7aef5f85cfe3843a48d2256932819154}{{5.11.2.4}{100}{\texorpdfstring {mzd\+\_\+slice\+\_\+apply\+\_\+p\+\_\+right\+\_\+trans()}{mzd\_slice\_apply\_p\_right\_trans()}}{table.166}{}}
\@writefile{toc}{\contentsline {paragraph}{\numberline {5.11.2.5}mzd\discretionary {\unhbox \voidb@x \hbox {\relax \fontsize  {7}{8}\selectfont  $\DOTSB \leftarrow \joinrel  \rhook $}}{}{}\_\discretionary {\unhbox \voidb@x \hbox {\relax \fontsize  {7}{8}\selectfont  $\DOTSB \leftarrow \joinrel  \rhook $}}{}{}slice\discretionary {\unhbox \voidb@x \hbox {\relax \fontsize  {7}{8}\selectfont  $\DOTSB \leftarrow \joinrel  \rhook $}}{}{}\_\discretionary {\unhbox \voidb@x \hbox {\relax \fontsize  {7}{8}\selectfont  $\DOTSB \leftarrow \joinrel  \rhook $}}{}{}apply\discretionary {\unhbox \voidb@x \hbox {\relax \fontsize  {7}{8}\selectfont  $\DOTSB \leftarrow \joinrel  \rhook $}}{}{}\_\discretionary {\unhbox \voidb@x \hbox {\relax \fontsize  {7}{8}\selectfont  $\DOTSB \leftarrow \joinrel  \rhook $}}{}{}p\discretionary {\unhbox \voidb@x \hbox {\relax \fontsize  {7}{8}\selectfont  $\DOTSB \leftarrow \joinrel  \rhook $}}{}{}\_\discretionary {\unhbox \voidb@x \hbox {\relax \fontsize  {7}{8}\selectfont  $\DOTSB \leftarrow \joinrel  \rhook $}}{}{}right\discretionary {\unhbox \voidb@x \hbox {\relax \fontsize  {7}{8}\selectfont  $\DOTSB \leftarrow \joinrel  \rhook $}}{}{}\_\discretionary {\unhbox \voidb@x \hbox {\relax \fontsize  {7}{8}\selectfont  $\DOTSB \leftarrow \joinrel  \rhook $}}{}{}trans\discretionary {\unhbox \voidb@x \hbox {\relax \fontsize  {7}{8}\selectfont  $\DOTSB \leftarrow \joinrel  \rhook $}}{}{}\_\discretionary {\unhbox \voidb@x \hbox {\relax \fontsize  {7}{8}\selectfont  $\DOTSB \leftarrow \joinrel  \rhook $}}{}{}tri()}{100}{paragraph.5.11.2.5}\protected@file@percent }
\gdef \LT@clxvii {\LT@entry 
    {3}{18.80287pt}\LT@entry 
    {3}{63.10486pt}}
\gdef \LT@clxviii {\LT@entry 
    {3}{18.80287pt}\LT@entry 
    {3}{63.10486pt}}
\gdef \LT@clxix {\LT@entry 
    {3}{18.80287pt}\LT@entry 
    {3}{63.10486pt}}
\newlabel{permutation_8h_a293f462257790bb7c264ede18fd19de9}{{5.11.2.5}{101}{\texorpdfstring {mzd\+\_\+slice\+\_\+apply\+\_\+p\+\_\+right\+\_\+trans\+\_\+tri()}{mzd\_slice\_apply\_p\_right\_trans\_tri()}}{table.167}{}}
\@writefile{toc}{\contentsline {paragraph}{\numberline {5.11.2.6}mzed\discretionary {\unhbox \voidb@x \hbox {\relax \fontsize  {7}{8}\selectfont  $\DOTSB \leftarrow \joinrel  \rhook $}}{}{}\_\discretionary {\unhbox \voidb@x \hbox {\relax \fontsize  {7}{8}\selectfont  $\DOTSB \leftarrow \joinrel  \rhook $}}{}{}apply\discretionary {\unhbox \voidb@x \hbox {\relax \fontsize  {7}{8}\selectfont  $\DOTSB \leftarrow \joinrel  \rhook $}}{}{}\_\discretionary {\unhbox \voidb@x \hbox {\relax \fontsize  {7}{8}\selectfont  $\DOTSB \leftarrow \joinrel  \rhook $}}{}{}p\discretionary {\unhbox \voidb@x \hbox {\relax \fontsize  {7}{8}\selectfont  $\DOTSB \leftarrow \joinrel  \rhook $}}{}{}\_\discretionary {\unhbox \voidb@x \hbox {\relax \fontsize  {7}{8}\selectfont  $\DOTSB \leftarrow \joinrel  \rhook $}}{}{}left()}{101}{paragraph.5.11.2.6}\protected@file@percent }
\newlabel{permutation_8h_a5672b26e5b1014520468657a69f12b2f}{{5.11.2.6}{101}{\texorpdfstring {mzed\+\_\+apply\+\_\+p\+\_\+left()}{mzed\_apply\_p\_left()}}{table.168}{}}
\@writefile{toc}{\contentsline {paragraph}{\numberline {5.11.2.7}mzed\discretionary {\unhbox \voidb@x \hbox {\relax \fontsize  {7}{8}\selectfont  $\DOTSB \leftarrow \joinrel  \rhook $}}{}{}\_\discretionary {\unhbox \voidb@x \hbox {\relax \fontsize  {7}{8}\selectfont  $\DOTSB \leftarrow \joinrel  \rhook $}}{}{}apply\discretionary {\unhbox \voidb@x \hbox {\relax \fontsize  {7}{8}\selectfont  $\DOTSB \leftarrow \joinrel  \rhook $}}{}{}\_\discretionary {\unhbox \voidb@x \hbox {\relax \fontsize  {7}{8}\selectfont  $\DOTSB \leftarrow \joinrel  \rhook $}}{}{}p\discretionary {\unhbox \voidb@x \hbox {\relax \fontsize  {7}{8}\selectfont  $\DOTSB \leftarrow \joinrel  \rhook $}}{}{}\_\discretionary {\unhbox \voidb@x \hbox {\relax \fontsize  {7}{8}\selectfont  $\DOTSB \leftarrow \joinrel  \rhook $}}{}{}left\discretionary {\unhbox \voidb@x \hbox {\relax \fontsize  {7}{8}\selectfont  $\DOTSB \leftarrow \joinrel  \rhook $}}{}{}\_\discretionary {\unhbox \voidb@x \hbox {\relax \fontsize  {7}{8}\selectfont  $\DOTSB \leftarrow \joinrel  \rhook $}}{}{}trans()}{101}{paragraph.5.11.2.7}\protected@file@percent }
\newlabel{permutation_8h_af2ce4f78d2b039a6fc63aa878f905b00}{{5.11.2.7}{101}{\texorpdfstring {mzed\+\_\+apply\+\_\+p\+\_\+left\+\_\+trans()}{mzed\_apply\_p\_left\_trans()}}{table.169}{}}
\@writefile{toc}{\contentsline {paragraph}{\numberline {5.11.2.8}mzed\discretionary {\unhbox \voidb@x \hbox {\relax \fontsize  {7}{8}\selectfont  $\DOTSB \leftarrow \joinrel  \rhook $}}{}{}\_\discretionary {\unhbox \voidb@x \hbox {\relax \fontsize  {7}{8}\selectfont  $\DOTSB \leftarrow \joinrel  \rhook $}}{}{}apply\discretionary {\unhbox \voidb@x \hbox {\relax \fontsize  {7}{8}\selectfont  $\DOTSB \leftarrow \joinrel  \rhook $}}{}{}\_\discretionary {\unhbox \voidb@x \hbox {\relax \fontsize  {7}{8}\selectfont  $\DOTSB \leftarrow \joinrel  \rhook $}}{}{}p\discretionary {\unhbox \voidb@x \hbox {\relax \fontsize  {7}{8}\selectfont  $\DOTSB \leftarrow \joinrel  \rhook $}}{}{}\_\discretionary {\unhbox \voidb@x \hbox {\relax \fontsize  {7}{8}\selectfont  $\DOTSB \leftarrow \joinrel  \rhook $}}{}{}right()}{101}{paragraph.5.11.2.8}\protected@file@percent }
\gdef \LT@clxx {\LT@entry 
    {3}{18.80287pt}\LT@entry 
    {3}{63.10486pt}}
\gdef \LT@clxxi {\LT@entry 
    {3}{18.80287pt}\LT@entry 
    {3}{63.10486pt}}
\newlabel{permutation_8h_a6fa90ba072c86a053df8ad2809ad9858}{{5.11.2.8}{102}{\texorpdfstring {mzed\+\_\+apply\+\_\+p\+\_\+right()}{mzed\_apply\_p\_right()}}{table.170}{}}
\@writefile{toc}{\contentsline {paragraph}{\numberline {5.11.2.9}mzed\discretionary {\unhbox \voidb@x \hbox {\relax \fontsize  {7}{8}\selectfont  $\DOTSB \leftarrow \joinrel  \rhook $}}{}{}\_\discretionary {\unhbox \voidb@x \hbox {\relax \fontsize  {7}{8}\selectfont  $\DOTSB \leftarrow \joinrel  \rhook $}}{}{}apply\discretionary {\unhbox \voidb@x \hbox {\relax \fontsize  {7}{8}\selectfont  $\DOTSB \leftarrow \joinrel  \rhook $}}{}{}\_\discretionary {\unhbox \voidb@x \hbox {\relax \fontsize  {7}{8}\selectfont  $\DOTSB \leftarrow \joinrel  \rhook $}}{}{}p\discretionary {\unhbox \voidb@x \hbox {\relax \fontsize  {7}{8}\selectfont  $\DOTSB \leftarrow \joinrel  \rhook $}}{}{}\_\discretionary {\unhbox \voidb@x \hbox {\relax \fontsize  {7}{8}\selectfont  $\DOTSB \leftarrow \joinrel  \rhook $}}{}{}right\discretionary {\unhbox \voidb@x \hbox {\relax \fontsize  {7}{8}\selectfont  $\DOTSB \leftarrow \joinrel  \rhook $}}{}{}\_\discretionary {\unhbox \voidb@x \hbox {\relax \fontsize  {7}{8}\selectfont  $\DOTSB \leftarrow \joinrel  \rhook $}}{}{}trans()}{102}{paragraph.5.11.2.9}\protected@file@percent }
\@writefile{toc}{\contentsline {subsection}{\numberline {5.12}ple.\discretionary {\unhbox \voidb@x \hbox {\relax \fontsize  {7}{8}\selectfont  $\DOTSB \leftarrow \joinrel  \rhook $}}{}{}h File Reference}{102}{subsection.5.12}\protected@file@percent }
\newlabel{ple_8h}{{5.12}{102}{ple.\+h File Reference}{subsection.5.12}{}}
\@writefile{toc}{\contentsline {subsubsection}{\numberline {5.12.1}Detailed Description}{103}{subsubsection.5.12.1}\protected@file@percent }
\@writefile{toc}{\contentsline {subsubsection}{\numberline {5.12.2}Macro Definition Documentation}{103}{subsubsection.5.12.2}\protected@file@percent }
\newlabel{ple_8h_ac4d8c5d5397e4d6e0ea91a705b1f097a}{{5.12.2}{103}{Macro Definition Documentation}{subsubsection.5.12.2}{}}
\@writefile{toc}{\contentsline {paragraph}{\numberline {5.12.2.1}\discretionary {\unhbox \voidb@x \hbox {\relax \fontsize  {7}{8}\selectfont  $\DOTSB \leftarrow \joinrel  \rhook $}}{}{}\_\discretionary {\unhbox \voidb@x \hbox {\relax \fontsize  {7}{8}\selectfont  $\DOTSB \leftarrow \joinrel  \rhook $}}{}{}\discretionary {\unhbox \voidb@x \hbox {\relax \fontsize  {7}{8}\selectfont  $\DOTSB \leftarrow \joinrel  \rhook $}}{}{}\_\discretionary {\unhbox \voidb@x \hbox {\relax \fontsize  {7}{8}\selectfont  $\DOTSB \leftarrow \joinrel  \rhook $}}{}{}\discretionary {\unhbox \voidb@x \hbox {\relax \fontsize  {7}{8}\selectfont  $\DOTSB \leftarrow \joinrel  \rhook $}}{}{}M4\discretionary {\unhbox \voidb@x \hbox {\relax \fontsize  {7}{8}\selectfont  $\DOTSB \leftarrow \joinrel  \rhook $}}{}{}R\discretionary {\unhbox \voidb@x \hbox {\relax \fontsize  {7}{8}\selectfont  $\DOTSB \leftarrow \joinrel  \rhook $}}{}{}I\discretionary {\unhbox \voidb@x \hbox {\relax \fontsize  {7}{8}\selectfont  $\DOTSB \leftarrow \joinrel  \rhook $}}{}{}E\discretionary {\unhbox \voidb@x \hbox {\relax \fontsize  {7}{8}\selectfont  $\DOTSB \leftarrow \joinrel  \rhook $}}{}{}\_\discretionary {\unhbox \voidb@x \hbox {\relax \fontsize  {7}{8}\selectfont  $\DOTSB \leftarrow \joinrel  \rhook $}}{}{}\discretionary {\unhbox \voidb@x \hbox {\relax \fontsize  {7}{8}\selectfont  $\DOTSB \leftarrow \joinrel  \rhook $}}{}{}P\discretionary {\unhbox \voidb@x \hbox {\relax \fontsize  {7}{8}\selectfont  $\DOTSB \leftarrow \joinrel  \rhook $}}{}{}L\discretionary {\unhbox \voidb@x \hbox {\relax \fontsize  {7}{8}\selectfont  $\DOTSB \leftarrow \joinrel  \rhook $}}{}{}E\discretionary {\unhbox \voidb@x \hbox {\relax \fontsize  {7}{8}\selectfont  $\DOTSB \leftarrow \joinrel  \rhook $}}{}{}\_\discretionary {\unhbox \voidb@x \hbox {\relax \fontsize  {7}{8}\selectfont  $\DOTSB \leftarrow \joinrel  \rhook $}}{}{}\discretionary {\unhbox \voidb@x \hbox {\relax \fontsize  {7}{8}\selectfont  $\DOTSB \leftarrow \joinrel  \rhook $}}{}{}C\discretionary {\unhbox \voidb@x \hbox {\relax \fontsize  {7}{8}\selectfont  $\DOTSB \leftarrow \joinrel  \rhook $}}{}{}U\discretionary {\unhbox \voidb@x \hbox {\relax \fontsize  {7}{8}\selectfont  $\DOTSB \leftarrow \joinrel  \rhook $}}{}{}T\discretionary {\unhbox \voidb@x \hbox {\relax \fontsize  {7}{8}\selectfont  $\DOTSB \leftarrow \joinrel  \rhook $}}{}{}O\discretionary {\unhbox \voidb@x \hbox {\relax \fontsize  {7}{8}\selectfont  $\DOTSB \leftarrow \joinrel  \rhook $}}{}{}FF}{103}{paragraph.5.12.2.1}\protected@file@percent }
\@writefile{toc}{\contentsline {subsection}{\numberline {5.13}strassen.\discretionary {\unhbox \voidb@x \hbox {\relax \fontsize  {7}{8}\selectfont  $\DOTSB \leftarrow \joinrel  \rhook $}}{}{}h File Reference}{103}{subsection.5.13}\protected@file@percent }
\newlabel{strassen_8h}{{5.13}{103}{strassen.\+h File Reference}{subsection.5.13}{}}
\@writefile{toc}{\contentsline {subsubsection}{\numberline {5.13.1}Detailed Description}{103}{subsubsection.5.13.1}\protected@file@percent }
\@writefile{toc}{\contentsline {subsection}{\numberline {5.14}trsm.\discretionary {\unhbox \voidb@x \hbox {\relax \fontsize  {7}{8}\selectfont  $\DOTSB \leftarrow \joinrel  \rhook $}}{}{}h File Reference}{103}{subsection.5.14}\protected@file@percent }
\newlabel{trsm_8h}{{5.14}{103}{trsm.\+h File Reference}{subsection.5.14}{}}
\@writefile{toc}{\contentsline {subsubsection}{\numberline {5.14.1}Detailed Description}{104}{subsubsection.5.14.1}\protected@file@percent }
\@writefile{toc}{\contentsline {subsubsection}{\numberline {5.14.2}Macro Definition Documentation}{104}{subsubsection.5.14.2}\protected@file@percent }
\newlabel{trsm_8h_aa043ff2fed34a23572a81ac702e58e6c}{{5.14.2}{104}{Macro Definition Documentation}{subsubsection.5.14.2}{}}
\@writefile{toc}{\contentsline {paragraph}{\numberline {5.14.2.1}M\discretionary {\unhbox \voidb@x \hbox {\relax \fontsize  {7}{8}\selectfont  $\DOTSB \leftarrow \joinrel  \rhook $}}{}{}Z\discretionary {\unhbox \voidb@x \hbox {\relax \fontsize  {7}{8}\selectfont  $\DOTSB \leftarrow \joinrel  \rhook $}}{}{}E\discretionary {\unhbox \voidb@x \hbox {\relax \fontsize  {7}{8}\selectfont  $\DOTSB \leftarrow \joinrel  \rhook $}}{}{}D\discretionary {\unhbox \voidb@x \hbox {\relax \fontsize  {7}{8}\selectfont  $\DOTSB \leftarrow \joinrel  \rhook $}}{}{}\_\discretionary {\unhbox \voidb@x \hbox {\relax \fontsize  {7}{8}\selectfont  $\DOTSB \leftarrow \joinrel  \rhook $}}{}{}\discretionary {\unhbox \voidb@x \hbox {\relax \fontsize  {7}{8}\selectfont  $\DOTSB \leftarrow \joinrel  \rhook $}}{}{}T\discretionary {\unhbox \voidb@x \hbox {\relax \fontsize  {7}{8}\selectfont  $\DOTSB \leftarrow \joinrel  \rhook $}}{}{}R\discretionary {\unhbox \voidb@x \hbox {\relax \fontsize  {7}{8}\selectfont  $\DOTSB \leftarrow \joinrel  \rhook $}}{}{}S\discretionary {\unhbox \voidb@x \hbox {\relax \fontsize  {7}{8}\selectfont  $\DOTSB \leftarrow \joinrel  \rhook $}}{}{}M\discretionary {\unhbox \voidb@x \hbox {\relax \fontsize  {7}{8}\selectfont  $\DOTSB \leftarrow \joinrel  \rhook $}}{}{}\_\discretionary {\unhbox \voidb@x \hbox {\relax \fontsize  {7}{8}\selectfont  $\DOTSB \leftarrow \joinrel  \rhook $}}{}{}\discretionary {\unhbox \voidb@x \hbox {\relax \fontsize  {7}{8}\selectfont  $\DOTSB \leftarrow \joinrel  \rhook $}}{}{}C\discretionary {\unhbox \voidb@x \hbox {\relax \fontsize  {7}{8}\selectfont  $\DOTSB \leftarrow \joinrel  \rhook $}}{}{}U\discretionary {\unhbox \voidb@x \hbox {\relax \fontsize  {7}{8}\selectfont  $\DOTSB \leftarrow \joinrel  \rhook $}}{}{}T\discretionary {\unhbox \voidb@x \hbox {\relax \fontsize  {7}{8}\selectfont  $\DOTSB \leftarrow \joinrel  \rhook $}}{}{}O\discretionary {\unhbox \voidb@x \hbox {\relax \fontsize  {7}{8}\selectfont  $\DOTSB \leftarrow \joinrel  \rhook $}}{}{}FF}{104}{paragraph.5.14.2.1}\protected@file@percent }
\@writefile{toc}{\contentsline {section}{\numberline {6}Example Documentation}{105}{section.6}\protected@file@percent }
\@writefile{toc}{\contentsline {subsection}{\numberline {6.1}tests/test\discretionary {\unhbox \voidb@x \hbox {\relax \fontsize  {7}{8}\selectfont  $\DOTSB \leftarrow \joinrel  \rhook $}}{}{}\_\discretionary {\unhbox \voidb@x \hbox {\relax \fontsize  {7}{8}\selectfont  $\DOTSB \leftarrow \joinrel  \rhook $}}{}{}multiplication.\discretionary {\unhbox \voidb@x \hbox {\relax \fontsize  {7}{8}\selectfont  $\DOTSB \leftarrow \joinrel  \rhook $}}{}{}c}{105}{subsection.6.1}\protected@file@percent }
\@writefile{toc}{\contentsline {section}{Index}{109}{section*.51}\protected@file@percent }
