0000000000016170 <gf2x_mul3>:
   17af9:	75 12                	jne    17b0d <gf2x_mul3+0x199d>
   20266:	e8 05 5f ff ff       	callq  16170 <gf2x_mul3>
   20280:	e8 eb 5e ff ff       	callq  16170 <gf2x_mul3>
   2029a:	e8 d1 5e ff ff       	callq  16170 <gf2x_mul3>
   202b4:	e8 b7 5e ff ff       	callq  16170 <gf2x_mul3>
   202ce:	e8 9d 5e ff ff       	callq  16170 <gf2x_mul3>
   202e8:	e8 83 5e ff ff       	callq  16170 <gf2x_mul3>
   20302:	e8 69 5e ff ff       	callq  16170 <gf2x_mul3>
   2031c:	e8 4f 5e ff ff       	callq  16170 <gf2x_mul3>
   20336:	e8 35 5e ff ff       	callq  16170 <gf2x_mul3>
   20350:	e8 1b 5e ff ff       	callq  16170 <gf2x_mul3>
   2036a:	e8 01 5e ff ff       	callq  16170 <gf2x_mul3>
   20384:	e8 e7 5d ff ff       	callq  16170 <gf2x_mul3>
   2039e:	e8 cd 5d ff ff       	callq  16170 <gf2x_mul3>
   203b8:	e8 b3 5d ff ff       	callq  16170 <gf2x_mul3>
   203d2:	e8 99 5d ff ff       	callq  16170 <gf2x_mul3>
   203ec:	e8 7f 5d ff ff       	callq  16170 <gf2x_mul3>
   20406:	e8 65 5d ff ff       	callq  16170 <gf2x_mul3>
   20420:	e8 4b 5d ff ff       	callq  16170 <gf2x_mul3>
   20551:	e8 1a 5c ff ff       	callq  16170 <gf2x_mul3>
   2056b:	e8 00 5c ff ff       	callq  16170 <gf2x_mul3>
   20585:	e8 e6 5b ff ff       	callq  16170 <gf2x_mul3>
   2059c:	e8 cf 5b ff ff       	callq  16170 <gf2x_mul3>
   205b3:	e8 b8 5b ff ff       	callq  16170 <gf2x_mul3>
   205cd:	e8 9e 5b ff ff       	callq  16170 <gf2x_mul3>
   205e7:	e8 84 5b ff ff       	callq  16170 <gf2x_mul3>
   205fe:	e8 6d 5b ff ff       	callq  16170 <gf2x_mul3>
   20618:	e8 53 5b ff ff       	callq  16170 <gf2x_mul3>
   20632:	e8 39 5b ff ff       	callq  16170 <gf2x_mul3>
   2064c:	e8 1f 5b ff ff       	callq  16170 <gf2x_mul3>
   20666:	e8 05 5b ff ff       	callq  16170 <gf2x_mul3>
   20680:	e8 eb 5a ff ff       	callq  16170 <gf2x_mul3>
   2069a:	e8 d1 5a ff ff       	callq  16170 <gf2x_mul3>
   206b4:	e8 b7 5a ff ff       	callq  16170 <gf2x_mul3>
   206ce:	e8 9d 5a ff ff       	callq  16170 <gf2x_mul3>
   206e8:	e8 83 5a ff ff       	callq  16170 <gf2x_mul3>
   20702:	e8 69 5a ff ff       	callq  16170 <gf2x_mul3>
   2071c:	e8 4f 5a ff ff       	callq  16170 <gf2x_mul3>
   20736:	e8 35 5a ff ff       	callq  16170 <gf2x_mul3>
   20750:	e8 1b 5a ff ff       	callq  16170 <gf2x_mul3>
   2076a:	e8 01 5a ff ff       	callq  16170 <gf2x_mul3>
   20784:	e8 e7 59 ff ff       	callq  16170 <gf2x_mul3>
   2079e:	e8 cd 59 ff ff       	callq  16170 <gf2x_mul3>
   207b8:	e8 b3 59 ff ff       	callq  16170 <gf2x_mul3>
   207d2:	e8 99 59 ff ff       	callq  16170 <gf2x_mul3>
   207ec:	e8 7f 59 ff ff       	callq  16170 <gf2x_mul3>
   20806:	e8 65 59 ff ff       	callq  16170 <gf2x_mul3>
   20820:	e8 4b 59 ff ff       	callq  16170 <gf2x_mul3>
   2083a:	e8 31 59 ff ff       	callq  16170 <gf2x_mul3>
   20854:	e8 17 59 ff ff       	callq  16170 <gf2x_mul3>
   2086e:	e8 fd 58 ff ff       	callq  16170 <gf2x_mul3>
   20888:	e8 e3 58 ff ff       	callq  16170 <gf2x_mul3>
   208a2:	e8 c9 58 ff ff       	callq  16170 <gf2x_mul3>
   20a63:	e8 08 57 ff ff       	callq  16170 <gf2x_mul3>
   20a7d:	e8 ee 56 ff ff       	callq  16170 <gf2x_mul3>
   20a97:	e8 d4 56 ff ff       	callq  16170 <gf2x_mul3>
   20ab1:	e8 ba 56 ff ff       	callq  16170 <gf2x_mul3>
   20acb:	e8 a0 56 ff ff       	callq  16170 <gf2x_mul3>
   20ae5:	e8 86 56 ff ff       	callq  16170 <gf2x_mul3>
   20aff:	e8 6c 56 ff ff       	callq  16170 <gf2x_mul3>
   20b19:	e8 52 56 ff ff       	callq  16170 <gf2x_mul3>
   20b33:	e8 38 56 ff ff       	callq  16170 <gf2x_mul3>
   20b4d:	e8 1e 56 ff ff       	callq  16170 <gf2x_mul3>
   20b67:	e8 04 56 ff ff       	callq  16170 <gf2x_mul3>
   20b81:	e8 ea 55 ff ff       	callq  16170 <gf2x_mul3>
   20b9b:	e8 d0 55 ff ff       	callq  16170 <gf2x_mul3>
   20bb5:	e8 b6 55 ff ff       	callq  16170 <gf2x_mul3>
   20bcf:	e8 9c 55 ff ff       	callq  16170 <gf2x_mul3>
   20be9:	e8 82 55 ff ff       	callq  16170 <gf2x_mul3>
   20c03:	e8 68 55 ff ff       	callq  16170 <gf2x_mul3>
   20d70:	e8 fb 53 ff ff       	callq  16170 <gf2x_mul3>
   20d8a:	e8 e1 53 ff ff       	callq  16170 <gf2x_mul3>
   20da4:	e8 c7 53 ff ff       	callq  16170 <gf2x_mul3>
   20dbb:	e8 b0 53 ff ff       	callq  16170 <gf2x_mul3>
   20dd2:	e8 99 53 ff ff       	callq  16170 <gf2x_mul3>
   20dec:	e8 7f 53 ff ff       	callq  16170 <gf2x_mul3>
   20e06:	e8 65 53 ff ff       	callq  16170 <gf2x_mul3>
   20e1d:	e8 4e 53 ff ff       	callq  16170 <gf2x_mul3>
   20e37:	e8 34 53 ff ff       	callq  16170 <gf2x_mul3>
   23961:	e8 0a 28 ff ff       	callq  16170 <gf2x_mul3>
   2397b:	e8 f0 27 ff ff       	callq  16170 <gf2x_mul3>
   23995:	e8 d6 27 ff ff       	callq  16170 <gf2x_mul3>
   239af:	e8 bc 27 ff ff       	callq  16170 <gf2x_mul3>
   239c9:	e8 a2 27 ff ff       	callq  16170 <gf2x_mul3>
   239e3:	e8 88 27 ff ff       	callq  16170 <gf2x_mul3>
   239fd:	e8 6e 27 ff ff       	callq  16170 <gf2x_mul3>
   23a17:	e8 54 27 ff ff       	callq  16170 <gf2x_mul3>
   23a31:	e8 3a 27 ff ff       	callq  16170 <gf2x_mul3>
   23a4b:	e8 20 27 ff ff       	callq  16170 <gf2x_mul3>
   23a65:	e8 06 27 ff ff       	callq  16170 <gf2x_mul3>
   23a7f:	e8 ec 26 ff ff       	callq  16170 <gf2x_mul3>
   23a99:	e8 d2 26 ff ff       	callq  16170 <gf2x_mul3>
   23ab3:	e8 b8 26 ff ff       	callq  16170 <gf2x_mul3>
   23acd:	e8 9e 26 ff ff       	callq  16170 <gf2x_mul3>
   23ae7:	e8 84 26 ff ff       	callq  16170 <gf2x_mul3>
   23b01:	e8 6a 26 ff ff       	callq  16170 <gf2x_mul3>
   23b1b:	e8 50 26 ff ff       	callq  16170 <gf2x_mul3>
   23c4c:	e8 1f 25 ff ff       	callq  16170 <gf2x_mul3>
   23c66:	e8 05 25 ff ff       	callq  16170 <gf2x_mul3>
   23c80:	e8 eb 24 ff ff       	callq  16170 <gf2x_mul3>
   23c97:	e8 d4 24 ff ff       	callq  16170 <gf2x_mul3>
   23cae:	e8 bd 24 ff ff       	callq  16170 <gf2x_mul3>
   23cc8:	e8 a3 24 ff ff       	callq  16170 <gf2x_mul3>
   23ce2:	e8 89 24 ff ff       	callq  16170 <gf2x_mul3>
   23cf9:	e8 72 24 ff ff       	callq  16170 <gf2x_mul3>
   23d13:	e8 58 24 ff ff       	callq  16170 <gf2x_mul3>
   23d2d:	e8 3e 24 ff ff       	callq  16170 <gf2x_mul3>
   23d47:	e8 24 24 ff ff       	callq  16170 <gf2x_mul3>
   23d61:	e8 0a 24 ff ff       	callq  16170 <gf2x_mul3>
   23d7b:	e8 f0 23 ff ff       	callq  16170 <gf2x_mul3>
   23d95:	e8 d6 23 ff ff       	callq  16170 <gf2x_mul3>
   23daf:	e8 bc 23 ff ff       	callq  16170 <gf2x_mul3>
   23dc9:	e8 a2 23 ff ff       	callq  16170 <gf2x_mul3>
   23de3:	e8 88 23 ff ff       	callq  16170 <gf2x_mul3>
   23dfd:	e8 6e 23 ff ff       	callq  16170 <gf2x_mul3>
   23e17:	e8 54 23 ff ff       	callq  16170 <gf2x_mul3>
   23e31:	e8 3a 23 ff ff       	callq  16170 <gf2x_mul3>
   23e4b:	e8 20 23 ff ff       	callq  16170 <gf2x_mul3>
   23e65:	e8 06 23 ff ff       	callq  16170 <gf2x_mul3>
   23e7f:	e8 ec 22 ff ff       	callq  16170 <gf2x_mul3>
   23e99:	e8 d2 22 ff ff       	callq  16170 <gf2x_mul3>
   23eb3:	e8 b8 22 ff ff       	callq  16170 <gf2x_mul3>
   23ecd:	e8 9e 22 ff ff       	callq  16170 <gf2x_mul3>
   23ee7:	e8 84 22 ff ff       	callq  16170 <gf2x_mul3>
   23f01:	e8 6a 22 ff ff       	callq  16170 <gf2x_mul3>
   23f1b:	e8 50 22 ff ff       	callq  16170 <gf2x_mul3>
   23f35:	e8 36 22 ff ff       	callq  16170 <gf2x_mul3>
   23f4f:	e8 1c 22 ff ff       	callq  16170 <gf2x_mul3>
   23f69:	e8 02 22 ff ff       	callq  16170 <gf2x_mul3>
   23f83:	e8 e8 21 ff ff       	callq  16170 <gf2x_mul3>
   23f9d:	e8 ce 21 ff ff       	callq  16170 <gf2x_mul3>
   2415e:	e8 0d 20 ff ff       	callq  16170 <gf2x_mul3>
   24178:	e8 f3 1f ff ff       	callq  16170 <gf2x_mul3>
   24192:	e8 d9 1f ff ff       	callq  16170 <gf2x_mul3>
   241ac:	e8 bf 1f ff ff       	callq  16170 <gf2x_mul3>
   241c6:	e8 a5 1f ff ff       	callq  16170 <gf2x_mul3>
   241e0:	e8 8b 1f ff ff       	callq  16170 <gf2x_mul3>
   241fa:	e8 71 1f ff ff       	callq  16170 <gf2x_mul3>
   24214:	e8 57 1f ff ff       	callq  16170 <gf2x_mul3>
   2422e:	e8 3d 1f ff ff       	callq  16170 <gf2x_mul3>
   24248:	e8 23 1f ff ff       	callq  16170 <gf2x_mul3>
   24262:	e8 09 1f ff ff       	callq  16170 <gf2x_mul3>
   2427c:	e8 ef 1e ff ff       	callq  16170 <gf2x_mul3>
   24296:	e8 d5 1e ff ff       	callq  16170 <gf2x_mul3>
   242b0:	e8 bb 1e ff ff       	callq  16170 <gf2x_mul3>
   242ca:	e8 a1 1e ff ff       	callq  16170 <gf2x_mul3>
   242e4:	e8 87 1e ff ff       	callq  16170 <gf2x_mul3>
   242fe:	e8 6d 1e ff ff       	callq  16170 <gf2x_mul3>
   2446b:	e8 00 1d ff ff       	callq  16170 <gf2x_mul3>
   24485:	e8 e6 1c ff ff       	callq  16170 <gf2x_mul3>
   2449f:	e8 cc 1c ff ff       	callq  16170 <gf2x_mul3>
   244b6:	e8 b5 1c ff ff       	callq  16170 <gf2x_mul3>
   244cd:	e8 9e 1c ff ff       	callq  16170 <gf2x_mul3>
   244e7:	e8 84 1c ff ff       	callq  16170 <gf2x_mul3>
   24501:	e8 6a 1c ff ff       	callq  16170 <gf2x_mul3>
   24518:	e8 53 1c ff ff       	callq  16170 <gf2x_mul3>
   24532:	e8 39 1c ff ff       	callq  16170 <gf2x_mul3>
   29126:	e8 45 d0 fe ff       	callq  16170 <gf2x_mul3>
   29140:	e8 2b d0 fe ff       	callq  16170 <gf2x_mul3>
   2915a:	e8 11 d0 fe ff       	callq  16170 <gf2x_mul3>
   29174:	e8 f7 cf fe ff       	callq  16170 <gf2x_mul3>
   2918e:	e8 dd cf fe ff       	callq  16170 <gf2x_mul3>
   291a8:	e8 c3 cf fe ff       	callq  16170 <gf2x_mul3>
   291c2:	e8 a9 cf fe ff       	callq  16170 <gf2x_mul3>
   291dc:	e8 8f cf fe ff       	callq  16170 <gf2x_mul3>
   291f6:	e8 75 cf fe ff       	callq  16170 <gf2x_mul3>
   29210:	e8 5b cf fe ff       	callq  16170 <gf2x_mul3>
   2922a:	e8 41 cf fe ff       	callq  16170 <gf2x_mul3>
   29244:	e8 27 cf fe ff       	callq  16170 <gf2x_mul3>
   2925e:	e8 0d cf fe ff       	callq  16170 <gf2x_mul3>
   29278:	e8 f3 ce fe ff       	callq  16170 <gf2x_mul3>
   29292:	e8 d9 ce fe ff       	callq  16170 <gf2x_mul3>
   292ac:	e8 bf ce fe ff       	callq  16170 <gf2x_mul3>
   292c6:	e8 a5 ce fe ff       	callq  16170 <gf2x_mul3>
   292e0:	e8 8b ce fe ff       	callq  16170 <gf2x_mul3>
   294ce:	e8 9d cc fe ff       	callq  16170 <gf2x_mul3>
   294e8:	e8 83 cc fe ff       	callq  16170 <gf2x_mul3>
   29502:	e8 69 cc fe ff       	callq  16170 <gf2x_mul3>
   29519:	e8 52 cc fe ff       	callq  16170 <gf2x_mul3>
   29530:	e8 3b cc fe ff       	callq  16170 <gf2x_mul3>
   2954a:	e8 21 cc fe ff       	callq  16170 <gf2x_mul3>
   29564:	e8 07 cc fe ff       	callq  16170 <gf2x_mul3>
   2957b:	e8 f0 cb fe ff       	callq  16170 <gf2x_mul3>
   29595:	e8 d6 cb fe ff       	callq  16170 <gf2x_mul3>
   295af:	e8 bc cb fe ff       	callq  16170 <gf2x_mul3>
   295c9:	e8 a2 cb fe ff       	callq  16170 <gf2x_mul3>
   295e3:	e8 88 cb fe ff       	callq  16170 <gf2x_mul3>
   295fd:	e8 6e cb fe ff       	callq  16170 <gf2x_mul3>
   29617:	e8 54 cb fe ff       	callq  16170 <gf2x_mul3>
   29631:	e8 3a cb fe ff       	callq  16170 <gf2x_mul3>
   2964b:	e8 20 cb fe ff       	callq  16170 <gf2x_mul3>
   29665:	e8 06 cb fe ff       	callq  16170 <gf2x_mul3>
   2967f:	e8 ec ca fe ff       	callq  16170 <gf2x_mul3>
   29699:	e8 d2 ca fe ff       	callq  16170 <gf2x_mul3>
   296b3:	e8 b8 ca fe ff       	callq  16170 <gf2x_mul3>
   296cd:	e8 9e ca fe ff       	callq  16170 <gf2x_mul3>
   296e7:	e8 84 ca fe ff       	callq  16170 <gf2x_mul3>
   29701:	e8 6a ca fe ff       	callq  16170 <gf2x_mul3>
   2971b:	e8 50 ca fe ff       	callq  16170 <gf2x_mul3>
   29735:	e8 36 ca fe ff       	callq  16170 <gf2x_mul3>
   2974f:	e8 1c ca fe ff       	callq  16170 <gf2x_mul3>
   29769:	e8 02 ca fe ff       	callq  16170 <gf2x_mul3>
   29783:	e8 e8 c9 fe ff       	callq  16170 <gf2x_mul3>
   2979d:	e8 ce c9 fe ff       	callq  16170 <gf2x_mul3>
   297b7:	e8 b4 c9 fe ff       	callq  16170 <gf2x_mul3>
   297d1:	e8 9a c9 fe ff       	callq  16170 <gf2x_mul3>
   297eb:	e8 80 c9 fe ff       	callq  16170 <gf2x_mul3>
   29805:	e8 66 c9 fe ff       	callq  16170 <gf2x_mul3>
   2981f:	e8 4c c9 fe ff       	callq  16170 <gf2x_mul3>
   29adb:	e8 90 c6 fe ff       	callq  16170 <gf2x_mul3>
   29af5:	e8 76 c6 fe ff       	callq  16170 <gf2x_mul3>
   29b0f:	e8 5c c6 fe ff       	callq  16170 <gf2x_mul3>
   29b29:	e8 42 c6 fe ff       	callq  16170 <gf2x_mul3>
   29b43:	e8 28 c6 fe ff       	callq  16170 <gf2x_mul3>
   29b5d:	e8 0e c6 fe ff       	callq  16170 <gf2x_mul3>
   29b77:	e8 f4 c5 fe ff       	callq  16170 <gf2x_mul3>
   29b91:	e8 da c5 fe ff       	callq  16170 <gf2x_mul3>
   29bab:	e8 c0 c5 fe ff       	callq  16170 <gf2x_mul3>
   29bc5:	e8 a6 c5 fe ff       	callq  16170 <gf2x_mul3>
   29bdf:	e8 8c c5 fe ff       	callq  16170 <gf2x_mul3>
   29bf9:	e8 72 c5 fe ff       	callq  16170 <gf2x_mul3>
   29c13:	e8 58 c5 fe ff       	callq  16170 <gf2x_mul3>
   29c2d:	e8 3e c5 fe ff       	callq  16170 <gf2x_mul3>
   29c47:	e8 24 c5 fe ff       	callq  16170 <gf2x_mul3>
   29c61:	e8 0a c5 fe ff       	callq  16170 <gf2x_mul3>
   29c7b:	e8 f0 c4 fe ff       	callq  16170 <gf2x_mul3>
   29e69:	e8 02 c3 fe ff       	callq  16170 <gf2x_mul3>
   29e83:	e8 e8 c2 fe ff       	callq  16170 <gf2x_mul3>
   29e9d:	e8 ce c2 fe ff       	callq  16170 <gf2x_mul3>
   29eb4:	e8 b7 c2 fe ff       	callq  16170 <gf2x_mul3>
   29ecb:	e8 a0 c2 fe ff       	callq  16170 <gf2x_mul3>
   29ee5:	e8 86 c2 fe ff       	callq  16170 <gf2x_mul3>
   29eff:	e8 6c c2 fe ff       	callq  16170 <gf2x_mul3>
   29f16:	e8 55 c2 fe ff       	callq  16170 <gf2x_mul3>
   29f30:	e8 3b c2 fe ff       	callq  16170 <gf2x_mul3>
   2d8bc:	e8 af 88 fe ff       	callq  16170 <gf2x_mul3>
   2d8d6:	e8 95 88 fe ff       	callq  16170 <gf2x_mul3>
   2d8f0:	e8 7b 88 fe ff       	callq  16170 <gf2x_mul3>
   2d90a:	e8 61 88 fe ff       	callq  16170 <gf2x_mul3>
   2d924:	e8 47 88 fe ff       	callq  16170 <gf2x_mul3>
   2d93e:	e8 2d 88 fe ff       	callq  16170 <gf2x_mul3>
   2d958:	e8 13 88 fe ff       	callq  16170 <gf2x_mul3>
   2d972:	e8 f9 87 fe ff       	callq  16170 <gf2x_mul3>
   2d98c:	e8 df 87 fe ff       	callq  16170 <gf2x_mul3>
   2da17:	e8 54 87 fe ff       	callq  16170 <gf2x_mul3>
   2da31:	e8 3a 87 fe ff       	callq  16170 <gf2x_mul3>
   2da4b:	e8 20 87 fe ff       	callq  16170 <gf2x_mul3>
   2da65:	e8 06 87 fe ff       	callq  16170 <gf2x_mul3>
   2dac4:	e8 a7 86 fe ff       	callq  16170 <gf2x_mul3>
   2dade:	e8 8d 86 fe ff       	callq  16170 <gf2x_mul3>
   2daf8:	e8 73 86 fe ff       	callq  16170 <gf2x_mul3>
   2db12:	e8 59 86 fe ff       	callq  16170 <gf2x_mul3>
   2db2c:	e8 3f 86 fe ff       	callq  16170 <gf2x_mul3>
   2dbd6:	e8 95 85 fe ff       	callq  16170 <gf2x_mul3>
   2dbf0:	e8 7b 85 fe ff       	callq  16170 <gf2x_mul3>
   2dc0a:	e8 61 85 fe ff       	callq  16170 <gf2x_mul3>
   2dc24:	e8 47 85 fe ff       	callq  16170 <gf2x_mul3>
   2dc3e:	e8 2d 85 fe ff       	callq  16170 <gf2x_mul3>
   2dc58:	e8 13 85 fe ff       	callq  16170 <gf2x_mul3>
   2dc72:	e8 f9 84 fe ff       	callq  16170 <gf2x_mul3>
   2dc8c:	e8 df 84 fe ff       	callq  16170 <gf2x_mul3>
   2dca6:	e8 c5 84 fe ff       	callq  16170 <gf2x_mul3>
   2dd31:	e8 3a 84 fe ff       	callq  16170 <gf2x_mul3>
   2dd4b:	e8 20 84 fe ff       	callq  16170 <gf2x_mul3>
   2dd65:	e8 06 84 fe ff       	callq  16170 <gf2x_mul3>
   2dd7f:	e8 ec 83 fe ff       	callq  16170 <gf2x_mul3>
   2dd99:	e8 d2 83 fe ff       	callq  16170 <gf2x_mul3>
   2ddb3:	e8 b8 83 fe ff       	callq  16170 <gf2x_mul3>
   2ddcd:	e8 9e 83 fe ff       	callq  16170 <gf2x_mul3>
   2dde7:	e8 84 83 fe ff       	callq  16170 <gf2x_mul3>
   2de01:	e8 6a 83 fe ff       	callq  16170 <gf2x_mul3>
   2e4d5:	e8 96 7c fe ff       	callq  16170 <gf2x_mul3>
   2e4ef:	e8 7c 7c fe ff       	callq  16170 <gf2x_mul3>
   2e509:	e8 62 7c fe ff       	callq  16170 <gf2x_mul3>
   2e520:	e8 4b 7c fe ff       	callq  16170 <gf2x_mul3>
   2e537:	e8 34 7c fe ff       	callq  16170 <gf2x_mul3>
   2e551:	e8 1a 7c fe ff       	callq  16170 <gf2x_mul3>
   2e56b:	e8 00 7c fe ff       	callq  16170 <gf2x_mul3>
   2e582:	e8 e9 7b fe ff       	callq  16170 <gf2x_mul3>
   2e59c:	e8 cf 7b fe ff       	callq  16170 <gf2x_mul3>
   2e9a6:	e8 c5 77 fe ff       	callq  16170 <gf2x_mul3>
   2e9c0:	e8 ab 77 fe ff       	callq  16170 <gf2x_mul3>
   2e9da:	e8 91 77 fe ff       	callq  16170 <gf2x_mul3>
   2e9f1:	e8 7a 77 fe ff       	callq  16170 <gf2x_mul3>
   2ea08:	e8 63 77 fe ff       	callq  16170 <gf2x_mul3>
   2ea22:	e8 49 77 fe ff       	callq  16170 <gf2x_mul3>
   2ea3c:	e8 2f 77 fe ff       	callq  16170 <gf2x_mul3>
   2ea53:	e8 18 77 fe ff       	callq  16170 <gf2x_mul3>
   2ea6d:	e8 fe 76 fe ff       	callq  16170 <gf2x_mul3>
   2faa6:	e8 c5 66 fe ff       	callq  16170 <gf2x_mul3>
   2fac0:	e8 ab 66 fe ff       	callq  16170 <gf2x_mul3>
   2fada:	e8 91 66 fe ff       	callq  16170 <gf2x_mul3>
   2faf4:	e8 77 66 fe ff       	callq  16170 <gf2x_mul3>
   2fb0e:	e8 5d 66 fe ff       	callq  16170 <gf2x_mul3>
   2fb28:	e8 43 66 fe ff       	callq  16170 <gf2x_mul3>
   2fb42:	e8 29 66 fe ff       	callq  16170 <gf2x_mul3>
   2fb5c:	e8 0f 66 fe ff       	callq  16170 <gf2x_mul3>
   2fb76:	e8 f5 65 fe ff       	callq  16170 <gf2x_mul3>
   2fc01:	e8 6a 65 fe ff       	callq  16170 <gf2x_mul3>
   2fc1b:	e8 50 65 fe ff       	callq  16170 <gf2x_mul3>
   2fc35:	e8 36 65 fe ff       	callq  16170 <gf2x_mul3>
   2fc4f:	e8 1c 65 fe ff       	callq  16170 <gf2x_mul3>
   2fc69:	e8 02 65 fe ff       	callq  16170 <gf2x_mul3>
   2fc83:	e8 e8 64 fe ff       	callq  16170 <gf2x_mul3>
   2fc9d:	e8 ce 64 fe ff       	callq  16170 <gf2x_mul3>
   2fcb7:	e8 b4 64 fe ff       	callq  16170 <gf2x_mul3>
   2fcd1:	e8 9a 64 fe ff       	callq  16170 <gf2x_mul3>
   2ffbb:	e8 b0 61 fe ff       	callq  16170 <gf2x_mul3>
   2ffd5:	e8 96 61 fe ff       	callq  16170 <gf2x_mul3>
   2ffef:	e8 7c 61 fe ff       	callq  16170 <gf2x_mul3>
   30006:	e8 65 61 fe ff       	callq  16170 <gf2x_mul3>
   3001d:	e8 4e 61 fe ff       	callq  16170 <gf2x_mul3>
   30037:	e8 34 61 fe ff       	callq  16170 <gf2x_mul3>
   30051:	e8 1a 61 fe ff       	callq  16170 <gf2x_mul3>
   30068:	e8 03 61 fe ff       	callq  16170 <gf2x_mul3>
   30082:	e8 e9 60 fe ff       	callq  16170 <gf2x_mul3>
   31ef3:	e8 78 42 fe ff       	callq  16170 <gf2x_mul3>
   31f0d:	e8 5e 42 fe ff       	callq  16170 <gf2x_mul3>
   31f27:	e8 44 42 fe ff       	callq  16170 <gf2x_mul3>
   31f41:	e8 2a 42 fe ff       	callq  16170 <gf2x_mul3>
   31f5b:	e8 10 42 fe ff       	callq  16170 <gf2x_mul3>
   31f75:	e8 f6 41 fe ff       	callq  16170 <gf2x_mul3>
   31f8f:	e8 dc 41 fe ff       	callq  16170 <gf2x_mul3>
   31fa9:	e8 c2 41 fe ff       	callq  16170 <gf2x_mul3>
   31fc3:	e8 a8 41 fe ff       	callq  16170 <gf2x_mul3>
   31fdd:	e8 8e 41 fe ff       	callq  16170 <gf2x_mul3>
   31ff7:	e8 74 41 fe ff       	callq  16170 <gf2x_mul3>
   32011:	e8 5a 41 fe ff       	callq  16170 <gf2x_mul3>
   3202b:	e8 40 41 fe ff       	callq  16170 <gf2x_mul3>
   32045:	e8 26 41 fe ff       	callq  16170 <gf2x_mul3>
   3205f:	e8 0c 41 fe ff       	callq  16170 <gf2x_mul3>
   32079:	e8 f2 40 fe ff       	callq  16170 <gf2x_mul3>
   32093:	e8 d8 40 fe ff       	callq  16170 <gf2x_mul3>
   320ad:	e8 be 40 fe ff       	callq  16170 <gf2x_mul3>
   321e2:	e8 89 3f fe ff       	callq  16170 <gf2x_mul3>
   321fc:	e8 6f 3f fe ff       	callq  16170 <gf2x_mul3>
   32216:	e8 55 3f fe ff       	callq  16170 <gf2x_mul3>
   3222d:	e8 3e 3f fe ff       	callq  16170 <gf2x_mul3>
   32244:	e8 27 3f fe ff       	callq  16170 <gf2x_mul3>
   3225e:	e8 0d 3f fe ff       	callq  16170 <gf2x_mul3>
   32278:	e8 f3 3e fe ff       	callq  16170 <gf2x_mul3>
   3228f:	e8 dc 3e fe ff       	callq  16170 <gf2x_mul3>
   322a9:	e8 c2 3e fe ff       	callq  16170 <gf2x_mul3>
   322c3:	e8 a8 3e fe ff       	callq  16170 <gf2x_mul3>
   322dd:	e8 8e 3e fe ff       	callq  16170 <gf2x_mul3>
   322f7:	e8 74 3e fe ff       	callq  16170 <gf2x_mul3>
   32311:	e8 5a 3e fe ff       	callq  16170 <gf2x_mul3>
   3232b:	e8 40 3e fe ff       	callq  16170 <gf2x_mul3>
   32345:	e8 26 3e fe ff       	callq  16170 <gf2x_mul3>
   3235f:	e8 0c 3e fe ff       	callq  16170 <gf2x_mul3>
   32379:	e8 f2 3d fe ff       	callq  16170 <gf2x_mul3>
   32393:	e8 d8 3d fe ff       	callq  16170 <gf2x_mul3>
   323ad:	e8 be 3d fe ff       	callq  16170 <gf2x_mul3>
   323c7:	e8 a4 3d fe ff       	callq  16170 <gf2x_mul3>
   323e1:	e8 8a 3d fe ff       	callq  16170 <gf2x_mul3>
   323fb:	e8 70 3d fe ff       	callq  16170 <gf2x_mul3>
   32415:	e8 56 3d fe ff       	callq  16170 <gf2x_mul3>
   3242f:	e8 3c 3d fe ff       	callq  16170 <gf2x_mul3>
   32449:	e8 22 3d fe ff       	callq  16170 <gf2x_mul3>
   32463:	e8 08 3d fe ff       	callq  16170 <gf2x_mul3>
   3247d:	e8 ee 3c fe ff       	callq  16170 <gf2x_mul3>
   32497:	e8 d4 3c fe ff       	callq  16170 <gf2x_mul3>
   324b1:	e8 ba 3c fe ff       	callq  16170 <gf2x_mul3>
   324cb:	e8 a0 3c fe ff       	callq  16170 <gf2x_mul3>
   324e5:	e8 86 3c fe ff       	callq  16170 <gf2x_mul3>
   324ff:	e8 6c 3c fe ff       	callq  16170 <gf2x_mul3>
   32519:	e8 52 3c fe ff       	callq  16170 <gf2x_mul3>
   32533:	e8 38 3c fe ff       	callq  16170 <gf2x_mul3>
   32919:	e8 52 38 fe ff       	callq  16170 <gf2x_mul3>
   32933:	e8 38 38 fe ff       	callq  16170 <gf2x_mul3>
   3294d:	e8 1e 38 fe ff       	callq  16170 <gf2x_mul3>
   32967:	e8 04 38 fe ff       	callq  16170 <gf2x_mul3>
   32981:	e8 ea 37 fe ff       	callq  16170 <gf2x_mul3>
   3299b:	e8 d0 37 fe ff       	callq  16170 <gf2x_mul3>
   329b5:	e8 b6 37 fe ff       	callq  16170 <gf2x_mul3>
   329cf:	e8 9c 37 fe ff       	callq  16170 <gf2x_mul3>
   329e9:	e8 82 37 fe ff       	callq  16170 <gf2x_mul3>
   32a03:	e8 68 37 fe ff       	callq  16170 <gf2x_mul3>
   32a1d:	e8 4e 37 fe ff       	callq  16170 <gf2x_mul3>
   32a37:	e8 34 37 fe ff       	callq  16170 <gf2x_mul3>
   32a51:	e8 1a 37 fe ff       	callq  16170 <gf2x_mul3>
   32a6b:	e8 00 37 fe ff       	callq  16170 <gf2x_mul3>
   32a85:	e8 e6 36 fe ff       	callq  16170 <gf2x_mul3>
   32a9f:	e8 cc 36 fe ff       	callq  16170 <gf2x_mul3>
   32ab9:	e8 b2 36 fe ff       	callq  16170 <gf2x_mul3>
   32dc7:	e8 a4 33 fe ff       	callq  16170 <gf2x_mul3>
   32de1:	e8 8a 33 fe ff       	callq  16170 <gf2x_mul3>
   32dfb:	e8 70 33 fe ff       	callq  16170 <gf2x_mul3>
   32e12:	e8 59 33 fe ff       	callq  16170 <gf2x_mul3>
   32e29:	e8 42 33 fe ff       	callq  16170 <gf2x_mul3>
   32e43:	e8 28 33 fe ff       	callq  16170 <gf2x_mul3>
   32e5d:	e8 0e 33 fe ff       	callq  16170 <gf2x_mul3>
   32e74:	e8 f7 32 fe ff       	callq  16170 <gf2x_mul3>
   32e8e:	e8 dd 32 fe ff       	callq  16170 <gf2x_mul3>
   37b39:	e8 32 e6 fd ff       	callq  16170 <gf2x_mul3>
   37b50:	e8 1b e6 fd ff       	callq  16170 <gf2x_mul3>
   37b6a:	e8 01 e6 fd ff       	callq  16170 <gf2x_mul3>
   37b84:	e8 e7 e5 fd ff       	callq  16170 <gf2x_mul3>
   37b9e:	e8 cd e5 fd ff       	callq  16170 <gf2x_mul3>
   37bb8:	e8 b3 e5 fd ff       	callq  16170 <gf2x_mul3>
   37bd2:	e8 99 e5 fd ff       	callq  16170 <gf2x_mul3>
   37bec:	e8 7f e5 fd ff       	callq  16170 <gf2x_mul3>
   37c77:	e8 f4 e4 fd ff       	callq  16170 <gf2x_mul3>
   37c91:	e8 da e4 fd ff       	callq  16170 <gf2x_mul3>
   37cab:	e8 c0 e4 fd ff       	callq  16170 <gf2x_mul3>
   37cc5:	e8 a6 e4 fd ff       	callq  16170 <gf2x_mul3>
   37d24:	e8 47 e4 fd ff       	callq  16170 <gf2x_mul3>
   37d3e:	e8 2d e4 fd ff       	callq  16170 <gf2x_mul3>
   37d58:	e8 13 e4 fd ff       	callq  16170 <gf2x_mul3>
   37d72:	e8 f9 e3 fd ff       	callq  16170 <gf2x_mul3>
   37d8c:	e8 df e3 fd ff       	callq  16170 <gf2x_mul3>
   37e36:	e8 35 e3 fd ff       	callq  16170 <gf2x_mul3>
   37e50:	e8 1b e3 fd ff       	callq  16170 <gf2x_mul3>
   37e6a:	e8 01 e3 fd ff       	callq  16170 <gf2x_mul3>
   37e84:	e8 e7 e2 fd ff       	callq  16170 <gf2x_mul3>
   37e9e:	e8 cd e2 fd ff       	callq  16170 <gf2x_mul3>
   37eb8:	e8 b3 e2 fd ff       	callq  16170 <gf2x_mul3>
   37ed2:	e8 99 e2 fd ff       	callq  16170 <gf2x_mul3>
   37eec:	e8 7f e2 fd ff       	callq  16170 <gf2x_mul3>
   37f06:	e8 65 e2 fd ff       	callq  16170 <gf2x_mul3>
   37f91:	e8 da e1 fd ff       	callq  16170 <gf2x_mul3>
   37fab:	e8 c0 e1 fd ff       	callq  16170 <gf2x_mul3>
   37fc5:	e8 a6 e1 fd ff       	callq  16170 <gf2x_mul3>
   37fdf:	e8 8c e1 fd ff       	callq  16170 <gf2x_mul3>
   37ff9:	e8 72 e1 fd ff       	callq  16170 <gf2x_mul3>
   38013:	e8 58 e1 fd ff       	callq  16170 <gf2x_mul3>
   3802d:	e8 3e e1 fd ff       	callq  16170 <gf2x_mul3>
   38047:	e8 24 e1 fd ff       	callq  16170 <gf2x_mul3>
   38061:	e8 0a e1 fd ff       	callq  16170 <gf2x_mul3>
   38735:	e8 36 da fd ff       	callq  16170 <gf2x_mul3>
   3874f:	e8 1c da fd ff       	callq  16170 <gf2x_mul3>
   38769:	e8 02 da fd ff       	callq  16170 <gf2x_mul3>
   38780:	e8 eb d9 fd ff       	callq  16170 <gf2x_mul3>
   38797:	e8 d4 d9 fd ff       	callq  16170 <gf2x_mul3>
   387b1:	e8 ba d9 fd ff       	callq  16170 <gf2x_mul3>
   387cb:	e8 a0 d9 fd ff       	callq  16170 <gf2x_mul3>
   387e2:	e8 89 d9 fd ff       	callq  16170 <gf2x_mul3>
   387fc:	e8 6f d9 fd ff       	callq  16170 <gf2x_mul3>
   389a9:	e8 c2 d7 fd ff       	callq  16170 <gf2x_mul3>
   389c3:	e8 a8 d7 fd ff       	callq  16170 <gf2x_mul3>
   389dd:	e8 8e d7 fd ff       	callq  16170 <gf2x_mul3>
   389f4:	e8 77 d7 fd ff       	callq  16170 <gf2x_mul3>
   38a0b:	e8 60 d7 fd ff       	callq  16170 <gf2x_mul3>
   38a25:	e8 46 d7 fd ff       	callq  16170 <gf2x_mul3>
   38a3f:	e8 2c d7 fd ff       	callq  16170 <gf2x_mul3>
   38a56:	e8 15 d7 fd ff       	callq  16170 <gf2x_mul3>
   38a70:	e8 fb d6 fd ff       	callq  16170 <gf2x_mul3>
   39aa9:	e8 c2 c6 fd ff       	callq  16170 <gf2x_mul3>
   39ac3:	e8 a8 c6 fd ff       	callq  16170 <gf2x_mul3>
   39add:	e8 8e c6 fd ff       	callq  16170 <gf2x_mul3>
   39af7:	e8 74 c6 fd ff       	callq  16170 <gf2x_mul3>
   39b11:	e8 5a c6 fd ff       	callq  16170 <gf2x_mul3>
   39b2b:	e8 40 c6 fd ff       	callq  16170 <gf2x_mul3>
   39b45:	e8 26 c6 fd ff       	callq  16170 <gf2x_mul3>
   39b5f:	e8 0c c6 fd ff       	callq  16170 <gf2x_mul3>
   39b79:	e8 f2 c5 fd ff       	callq  16170 <gf2x_mul3>
   39c04:	e8 67 c5 fd ff       	callq  16170 <gf2x_mul3>
   39c1e:	e8 4d c5 fd ff       	callq  16170 <gf2x_mul3>
   39c38:	e8 33 c5 fd ff       	callq  16170 <gf2x_mul3>
   39c52:	e8 19 c5 fd ff       	callq  16170 <gf2x_mul3>
   39c6c:	e8 ff c4 fd ff       	callq  16170 <gf2x_mul3>
   39c86:	e8 e5 c4 fd ff       	callq  16170 <gf2x_mul3>
   39ca0:	e8 cb c4 fd ff       	callq  16170 <gf2x_mul3>
   39cba:	e8 b1 c4 fd ff       	callq  16170 <gf2x_mul3>
   39cd4:	e8 97 c4 fd ff       	callq  16170 <gf2x_mul3>
   39fbe:	e8 ad c1 fd ff       	callq  16170 <gf2x_mul3>
   39fd8:	e8 93 c1 fd ff       	callq  16170 <gf2x_mul3>
   39ff2:	e8 79 c1 fd ff       	callq  16170 <gf2x_mul3>
   3a009:	e8 62 c1 fd ff       	callq  16170 <gf2x_mul3>
   3a020:	e8 4b c1 fd ff       	callq  16170 <gf2x_mul3>
   3a03a:	e8 31 c1 fd ff       	callq  16170 <gf2x_mul3>
   3a054:	e8 17 c1 fd ff       	callq  16170 <gf2x_mul3>
   3a06b:	e8 00 c1 fd ff       	callq  16170 <gf2x_mul3>
   3a085:	e8 e6 c0 fd ff       	callq  16170 <gf2x_mul3>
   3cd4d:	e8 1e 94 fd ff       	callq  16170 <gf2x_mul3>
   3cd67:	e8 04 94 fd ff       	callq  16170 <gf2x_mul3>
   3cd81:	e8 ea 93 fd ff       	callq  16170 <gf2x_mul3>
   3cd9b:	e8 d0 93 fd ff       	callq  16170 <gf2x_mul3>
   3cdb5:	e8 b6 93 fd ff       	callq  16170 <gf2x_mul3>
   3cdcf:	e8 9c 93 fd ff       	callq  16170 <gf2x_mul3>
   3cde9:	e8 82 93 fd ff       	callq  16170 <gf2x_mul3>
   3ce03:	e8 68 93 fd ff       	callq  16170 <gf2x_mul3>
   3ce1d:	e8 4e 93 fd ff       	callq  16170 <gf2x_mul3>
   3cea8:	e8 c3 92 fd ff       	callq  16170 <gf2x_mul3>
   3cec2:	e8 a9 92 fd ff       	callq  16170 <gf2x_mul3>
   3cedc:	e8 8f 92 fd ff       	callq  16170 <gf2x_mul3>
   3cef6:	e8 75 92 fd ff       	callq  16170 <gf2x_mul3>
   3cf55:	e8 16 92 fd ff       	callq  16170 <gf2x_mul3>
   3cf6f:	e8 fc 91 fd ff       	callq  16170 <gf2x_mul3>
   3cf89:	e8 e2 91 fd ff       	callq  16170 <gf2x_mul3>
   3cfa3:	e8 c8 91 fd ff       	callq  16170 <gf2x_mul3>
   3cfbd:	e8 ae 91 fd ff       	callq  16170 <gf2x_mul3>
   3d067:	e8 04 91 fd ff       	callq  16170 <gf2x_mul3>
   3d081:	e8 ea 90 fd ff       	callq  16170 <gf2x_mul3>
   3d09b:	e8 d0 90 fd ff       	callq  16170 <gf2x_mul3>
   3d0b5:	e8 b6 90 fd ff       	callq  16170 <gf2x_mul3>
   3d0cf:	e8 9c 90 fd ff       	callq  16170 <gf2x_mul3>
   3d0e9:	e8 82 90 fd ff       	callq  16170 <gf2x_mul3>
   3d103:	e8 68 90 fd ff       	callq  16170 <gf2x_mul3>
   3d11d:	e8 4e 90 fd ff       	callq  16170 <gf2x_mul3>
   3d137:	e8 34 90 fd ff       	callq  16170 <gf2x_mul3>
   3d1c2:	e8 a9 8f fd ff       	callq  16170 <gf2x_mul3>
   3d1dc:	e8 8f 8f fd ff       	callq  16170 <gf2x_mul3>
   3d1f6:	e8 75 8f fd ff       	callq  16170 <gf2x_mul3>
   3d210:	e8 5b 8f fd ff       	callq  16170 <gf2x_mul3>
   3d22a:	e8 41 8f fd ff       	callq  16170 <gf2x_mul3>
   3d244:	e8 27 8f fd ff       	callq  16170 <gf2x_mul3>
   3d25e:	e8 0d 8f fd ff       	callq  16170 <gf2x_mul3>
   3d278:	e8 f3 8e fd ff       	callq  16170 <gf2x_mul3>
   3d292:	e8 d9 8e fd ff       	callq  16170 <gf2x_mul3>
   3d966:	e8 05 88 fd ff       	callq  16170 <gf2x_mul3>
   3d980:	e8 eb 87 fd ff       	callq  16170 <gf2x_mul3>
   3d99a:	e8 d1 87 fd ff       	callq  16170 <gf2x_mul3>
   3d9b1:	e8 ba 87 fd ff       	callq  16170 <gf2x_mul3>
   3d9c8:	e8 a3 87 fd ff       	callq  16170 <gf2x_mul3>
   3d9e2:	e8 89 87 fd ff       	callq  16170 <gf2x_mul3>
   3d9fc:	e8 6f 87 fd ff       	callq  16170 <gf2x_mul3>
   3da13:	e8 58 87 fd ff       	callq  16170 <gf2x_mul3>
   3da2d:	e8 3e 87 fd ff       	callq  16170 <gf2x_mul3>
   3de37:	e8 34 83 fd ff       	callq  16170 <gf2x_mul3>
   3de51:	e8 1a 83 fd ff       	callq  16170 <gf2x_mul3>
   3de6b:	e8 00 83 fd ff       	callq  16170 <gf2x_mul3>
   3de82:	e8 e9 82 fd ff       	callq  16170 <gf2x_mul3>
   3de99:	e8 d2 82 fd ff       	callq  16170 <gf2x_mul3>
   3deb3:	e8 b8 82 fd ff       	callq  16170 <gf2x_mul3>
   3decd:	e8 9e 82 fd ff       	callq  16170 <gf2x_mul3>
   3dee4:	e8 87 82 fd ff       	callq  16170 <gf2x_mul3>
   3defe:	e8 6d 82 fd ff       	callq  16170 <gf2x_mul3>
   3ef37:	e8 34 72 fd ff       	callq  16170 <gf2x_mul3>
   3ef51:	e8 1a 72 fd ff       	callq  16170 <gf2x_mul3>
   3ef6b:	e8 00 72 fd ff       	callq  16170 <gf2x_mul3>
   3ef85:	e8 e6 71 fd ff       	callq  16170 <gf2x_mul3>
   3ef9f:	e8 cc 71 fd ff       	callq  16170 <gf2x_mul3>
   3efb9:	e8 b2 71 fd ff       	callq  16170 <gf2x_mul3>
   3efd3:	e8 98 71 fd ff       	callq  16170 <gf2x_mul3>
   3efed:	e8 7e 71 fd ff       	callq  16170 <gf2x_mul3>
   3f007:	e8 64 71 fd ff       	callq  16170 <gf2x_mul3>
   3f092:	e8 d9 70 fd ff       	callq  16170 <gf2x_mul3>
   3f0ac:	e8 bf 70 fd ff       	callq  16170 <gf2x_mul3>
   3f0c6:	e8 a5 70 fd ff       	callq  16170 <gf2x_mul3>
   3f0e0:	e8 8b 70 fd ff       	callq  16170 <gf2x_mul3>
   3f0fa:	e8 71 70 fd ff       	callq  16170 <gf2x_mul3>
   3f114:	e8 57 70 fd ff       	callq  16170 <gf2x_mul3>
   3f12e:	e8 3d 70 fd ff       	callq  16170 <gf2x_mul3>
   3f148:	e8 23 70 fd ff       	callq  16170 <gf2x_mul3>
   3f162:	e8 09 70 fd ff       	callq  16170 <gf2x_mul3>
   3f44c:	e8 1f 6d fd ff       	callq  16170 <gf2x_mul3>
   3f466:	e8 05 6d fd ff       	callq  16170 <gf2x_mul3>
   3f480:	e8 eb 6c fd ff       	callq  16170 <gf2x_mul3>
   3f497:	e8 d4 6c fd ff       	callq  16170 <gf2x_mul3>
   3f4ae:	e8 bd 6c fd ff       	callq  16170 <gf2x_mul3>
   3f4c8:	e8 a3 6c fd ff       	callq  16170 <gf2x_mul3>
   3f4e2:	e8 89 6c fd ff       	callq  16170 <gf2x_mul3>
   3f4f9:	e8 72 6c fd ff       	callq  16170 <gf2x_mul3>
   3f513:	e8 58 6c fd ff       	callq  16170 <gf2x_mul3>
   41384:	e8 e7 4d fd ff       	callq  16170 <gf2x_mul3>
   4139e:	e8 cd 4d fd ff       	callq  16170 <gf2x_mul3>
   413b8:	e8 b3 4d fd ff       	callq  16170 <gf2x_mul3>
   413d2:	e8 99 4d fd ff       	callq  16170 <gf2x_mul3>
   413ec:	e8 7f 4d fd ff       	callq  16170 <gf2x_mul3>
   41406:	e8 65 4d fd ff       	callq  16170 <gf2x_mul3>
   41420:	e8 4b 4d fd ff       	callq  16170 <gf2x_mul3>
   4143a:	e8 31 4d fd ff       	callq  16170 <gf2x_mul3>
   41454:	e8 17 4d fd ff       	callq  16170 <gf2x_mul3>
   4146e:	e8 fd 4c fd ff       	callq  16170 <gf2x_mul3>
   41488:	e8 e3 4c fd ff       	callq  16170 <gf2x_mul3>
   414a2:	e8 c9 4c fd ff       	callq  16170 <gf2x_mul3>
   414bc:	e8 af 4c fd ff       	callq  16170 <gf2x_mul3>
   414d6:	e8 95 4c fd ff       	callq  16170 <gf2x_mul3>
   414f0:	e8 7b 4c fd ff       	callq  16170 <gf2x_mul3>
   4150a:	e8 61 4c fd ff       	callq  16170 <gf2x_mul3>
   41524:	e8 47 4c fd ff       	callq  16170 <gf2x_mul3>
   4153e:	e8 2d 4c fd ff       	callq  16170 <gf2x_mul3>
   41673:	e8 f8 4a fd ff       	callq  16170 <gf2x_mul3>
   4168d:	e8 de 4a fd ff       	callq  16170 <gf2x_mul3>
   416a7:	e8 c4 4a fd ff       	callq  16170 <gf2x_mul3>
   416be:	e8 ad 4a fd ff       	callq  16170 <gf2x_mul3>
   416d5:	e8 96 4a fd ff       	callq  16170 <gf2x_mul3>
   416ef:	e8 7c 4a fd ff       	callq  16170 <gf2x_mul3>
   41709:	e8 62 4a fd ff       	callq  16170 <gf2x_mul3>
   41720:	e8 4b 4a fd ff       	callq  16170 <gf2x_mul3>
   4173a:	e8 31 4a fd ff       	callq  16170 <gf2x_mul3>
   41754:	e8 17 4a fd ff       	callq  16170 <gf2x_mul3>
   4176e:	e8 fd 49 fd ff       	callq  16170 <gf2x_mul3>
   41788:	e8 e3 49 fd ff       	callq  16170 <gf2x_mul3>
   417a2:	e8 c9 49 fd ff       	callq  16170 <gf2x_mul3>
   417bc:	e8 af 49 fd ff       	callq  16170 <gf2x_mul3>
   417d6:	e8 95 49 fd ff       	callq  16170 <gf2x_mul3>
   417f0:	e8 7b 49 fd ff       	callq  16170 <gf2x_mul3>
   4180a:	e8 61 49 fd ff       	callq  16170 <gf2x_mul3>
   41824:	e8 47 49 fd ff       	callq  16170 <gf2x_mul3>
   4183e:	e8 2d 49 fd ff       	callq  16170 <gf2x_mul3>
   41858:	e8 13 49 fd ff       	callq  16170 <gf2x_mul3>
   41872:	e8 f9 48 fd ff       	callq  16170 <gf2x_mul3>
   4188c:	e8 df 48 fd ff       	callq  16170 <gf2x_mul3>
   418a6:	e8 c5 48 fd ff       	callq  16170 <gf2x_mul3>
   418c0:	e8 ab 48 fd ff       	callq  16170 <gf2x_mul3>
   418da:	e8 91 48 fd ff       	callq  16170 <gf2x_mul3>
   418f4:	e8 77 48 fd ff       	callq  16170 <gf2x_mul3>
   4190e:	e8 5d 48 fd ff       	callq  16170 <gf2x_mul3>
   41928:	e8 43 48 fd ff       	callq  16170 <gf2x_mul3>
   41942:	e8 29 48 fd ff       	callq  16170 <gf2x_mul3>
   4195c:	e8 0f 48 fd ff       	callq  16170 <gf2x_mul3>
   41976:	e8 f5 47 fd ff       	callq  16170 <gf2x_mul3>
   41990:	e8 db 47 fd ff       	callq  16170 <gf2x_mul3>
   419aa:	e8 c1 47 fd ff       	callq  16170 <gf2x_mul3>
   419c4:	e8 a7 47 fd ff       	callq  16170 <gf2x_mul3>
   41daa:	e8 c1 43 fd ff       	callq  16170 <gf2x_mul3>
   41dc4:	e8 a7 43 fd ff       	callq  16170 <gf2x_mul3>
   41dde:	e8 8d 43 fd ff       	callq  16170 <gf2x_mul3>
   41df8:	e8 73 43 fd ff       	callq  16170 <gf2x_mul3>
   41e12:	e8 59 43 fd ff       	callq  16170 <gf2x_mul3>
   41e2c:	e8 3f 43 fd ff       	callq  16170 <gf2x_mul3>
   41e46:	e8 25 43 fd ff       	callq  16170 <gf2x_mul3>
   41e60:	e8 0b 43 fd ff       	callq  16170 <gf2x_mul3>
   41e7a:	e8 f1 42 fd ff       	callq  16170 <gf2x_mul3>
   41e94:	e8 d7 42 fd ff       	callq  16170 <gf2x_mul3>
   41eae:	e8 bd 42 fd ff       	callq  16170 <gf2x_mul3>
   41ec8:	e8 a3 42 fd ff       	callq  16170 <gf2x_mul3>
   41ee2:	e8 89 42 fd ff       	callq  16170 <gf2x_mul3>
   41efc:	e8 6f 42 fd ff       	callq  16170 <gf2x_mul3>
   41f16:	e8 55 42 fd ff       	callq  16170 <gf2x_mul3>
   41f30:	e8 3b 42 fd ff       	callq  16170 <gf2x_mul3>
   41f4a:	e8 21 42 fd ff       	callq  16170 <gf2x_mul3>
   42258:	e8 13 3f fd ff       	callq  16170 <gf2x_mul3>
   42272:	e8 f9 3e fd ff       	callq  16170 <gf2x_mul3>
   4228c:	e8 df 3e fd ff       	callq  16170 <gf2x_mul3>
   422a3:	e8 c8 3e fd ff       	callq  16170 <gf2x_mul3>
   422ba:	e8 b1 3e fd ff       	callq  16170 <gf2x_mul3>
   422d4:	e8 97 3e fd ff       	callq  16170 <gf2x_mul3>
   422ee:	e8 7d 3e fd ff       	callq  16170 <gf2x_mul3>
   42305:	e8 66 3e fd ff       	callq  16170 <gf2x_mul3>
   4231f:	e8 4c 3e fd ff       	callq  16170 <gf2x_mul3>
   46fca:	e8 a1 f1 fc ff       	callq  16170 <gf2x_mul3>
   46fe1:	e8 8a f1 fc ff       	callq  16170 <gf2x_mul3>
   46ffb:	e8 70 f1 fc ff       	callq  16170 <gf2x_mul3>
   47015:	e8 56 f1 fc ff       	callq  16170 <gf2x_mul3>
   4702f:	e8 3c f1 fc ff       	callq  16170 <gf2x_mul3>
   47049:	e8 22 f1 fc ff       	callq  16170 <gf2x_mul3>
   47063:	e8 08 f1 fc ff       	callq  16170 <gf2x_mul3>
   4707d:	e8 ee f0 fc ff       	callq  16170 <gf2x_mul3>
   47108:	e8 63 f0 fc ff       	callq  16170 <gf2x_mul3>
   47122:	e8 49 f0 fc ff       	callq  16170 <gf2x_mul3>
   4713c:	e8 2f f0 fc ff       	callq  16170 <gf2x_mul3>
   47156:	e8 15 f0 fc ff       	callq  16170 <gf2x_mul3>
   471b5:	e8 b6 ef fc ff       	callq  16170 <gf2x_mul3>
   471cf:	e8 9c ef fc ff       	callq  16170 <gf2x_mul3>
   471e9:	e8 82 ef fc ff       	callq  16170 <gf2x_mul3>
   47203:	e8 68 ef fc ff       	callq  16170 <gf2x_mul3>
   4721d:	e8 4e ef fc ff       	callq  16170 <gf2x_mul3>
   472c7:	e8 a4 ee fc ff       	callq  16170 <gf2x_mul3>
   472e1:	e8 8a ee fc ff       	callq  16170 <gf2x_mul3>
   472fb:	e8 70 ee fc ff       	callq  16170 <gf2x_mul3>
   47315:	e8 56 ee fc ff       	callq  16170 <gf2x_mul3>
   4732f:	e8 3c ee fc ff       	callq  16170 <gf2x_mul3>
   47349:	e8 22 ee fc ff       	callq  16170 <gf2x_mul3>
   47363:	e8 08 ee fc ff       	callq  16170 <gf2x_mul3>
   4737d:	e8 ee ed fc ff       	callq  16170 <gf2x_mul3>
   47397:	e8 d4 ed fc ff       	callq  16170 <gf2x_mul3>
   47422:	e8 49 ed fc ff       	callq  16170 <gf2x_mul3>
   4743c:	e8 2f ed fc ff       	callq  16170 <gf2x_mul3>
   47456:	e8 15 ed fc ff       	callq  16170 <gf2x_mul3>
   47470:	e8 fb ec fc ff       	callq  16170 <gf2x_mul3>
   4748a:	e8 e1 ec fc ff       	callq  16170 <gf2x_mul3>
   474a4:	e8 c7 ec fc ff       	callq  16170 <gf2x_mul3>
   474be:	e8 ad ec fc ff       	callq  16170 <gf2x_mul3>
   474d8:	e8 93 ec fc ff       	callq  16170 <gf2x_mul3>
   474f2:	e8 79 ec fc ff       	callq  16170 <gf2x_mul3>
   47bc6:	e8 a5 e5 fc ff       	callq  16170 <gf2x_mul3>
   47be0:	e8 8b e5 fc ff       	callq  16170 <gf2x_mul3>
   47bfa:	e8 71 e5 fc ff       	callq  16170 <gf2x_mul3>
   47c11:	e8 5a e5 fc ff       	callq  16170 <gf2x_mul3>
   47c28:	e8 43 e5 fc ff       	callq  16170 <gf2x_mul3>
   47c42:	e8 29 e5 fc ff       	callq  16170 <gf2x_mul3>
   47c5c:	e8 0f e5 fc ff       	callq  16170 <gf2x_mul3>
   47c73:	e8 f8 e4 fc ff       	callq  16170 <gf2x_mul3>
   47c8d:	e8 de e4 fc ff       	callq  16170 <gf2x_mul3>
   47e3a:	e8 31 e3 fc ff       	callq  16170 <gf2x_mul3>
   47e54:	e8 17 e3 fc ff       	callq  16170 <gf2x_mul3>
   47e6e:	e8 fd e2 fc ff       	callq  16170 <gf2x_mul3>
   47e85:	e8 e6 e2 fc ff       	callq  16170 <gf2x_mul3>
   47e9c:	e8 cf e2 fc ff       	callq  16170 <gf2x_mul3>
   47eb6:	e8 b5 e2 fc ff       	callq  16170 <gf2x_mul3>
   47ed0:	e8 9b e2 fc ff       	callq  16170 <gf2x_mul3>
   47ee7:	e8 84 e2 fc ff       	callq  16170 <gf2x_mul3>
   47f01:	e8 6a e2 fc ff       	callq  16170 <gf2x_mul3>
   48f3a:	e8 31 d2 fc ff       	callq  16170 <gf2x_mul3>
   48f54:	e8 17 d2 fc ff       	callq  16170 <gf2x_mul3>
   48f6e:	e8 fd d1 fc ff       	callq  16170 <gf2x_mul3>
   48f88:	e8 e3 d1 fc ff       	callq  16170 <gf2x_mul3>
   48fa2:	e8 c9 d1 fc ff       	callq  16170 <gf2x_mul3>
   48fbc:	e8 af d1 fc ff       	callq  16170 <gf2x_mul3>
   48fd6:	e8 95 d1 fc ff       	callq  16170 <gf2x_mul3>
   48ff0:	e8 7b d1 fc ff       	callq  16170 <gf2x_mul3>
   4900a:	e8 61 d1 fc ff       	callq  16170 <gf2x_mul3>
   49095:	e8 d6 d0 fc ff       	callq  16170 <gf2x_mul3>
   490af:	e8 bc d0 fc ff       	callq  16170 <gf2x_mul3>
   490c9:	e8 a2 d0 fc ff       	callq  16170 <gf2x_mul3>
   490e3:	e8 88 d0 fc ff       	callq  16170 <gf2x_mul3>
   490fd:	e8 6e d0 fc ff       	callq  16170 <gf2x_mul3>
   49117:	e8 54 d0 fc ff       	callq  16170 <gf2x_mul3>
   49131:	e8 3a d0 fc ff       	callq  16170 <gf2x_mul3>
   4914b:	e8 20 d0 fc ff       	callq  16170 <gf2x_mul3>
   49165:	e8 06 d0 fc ff       	callq  16170 <gf2x_mul3>
   4944f:	e8 1c cd fc ff       	callq  16170 <gf2x_mul3>
   49469:	e8 02 cd fc ff       	callq  16170 <gf2x_mul3>
   49483:	e8 e8 cc fc ff       	callq  16170 <gf2x_mul3>
   4949a:	e8 d1 cc fc ff       	callq  16170 <gf2x_mul3>
   494b1:	e8 ba cc fc ff       	callq  16170 <gf2x_mul3>
   494cb:	e8 a0 cc fc ff       	callq  16170 <gf2x_mul3>
   494e5:	e8 86 cc fc ff       	callq  16170 <gf2x_mul3>
   494fc:	e8 6f cc fc ff       	callq  16170 <gf2x_mul3>
   49516:	e8 55 cc fc ff       	callq  16170 <gf2x_mul3>
   4c1de:	e8 8d 9f fc ff       	callq  16170 <gf2x_mul3>
   4c1f8:	e8 73 9f fc ff       	callq  16170 <gf2x_mul3>
   4c212:	e8 59 9f fc ff       	callq  16170 <gf2x_mul3>
   4c271:	e8 fa 9e fc ff       	callq  16170 <gf2x_mul3>
   4c28b:	e8 e0 9e fc ff       	callq  16170 <gf2x_mul3>
   4c2a5:	e8 c6 9e fc ff       	callq  16170 <gf2x_mul3>
   4c304:	e8 67 9e fc ff       	callq  16170 <gf2x_mul3>
   4c31e:	e8 4d 9e fc ff       	callq  16170 <gf2x_mul3>
   4c395:	e8 d6 9d fc ff       	callq  16170 <gf2x_mul3>
   4c3af:	e8 bc 9d fc ff       	callq  16170 <gf2x_mul3>
   4c3c9:	e8 a2 9d fc ff       	callq  16170 <gf2x_mul3>
   4c3e3:	e8 88 9d fc ff       	callq  16170 <gf2x_mul3>
   4c442:	e8 29 9d fc ff       	callq  16170 <gf2x_mul3>
   4c45c:	e8 0f 9d fc ff       	callq  16170 <gf2x_mul3>
   4c476:	e8 f5 9c fc ff       	callq  16170 <gf2x_mul3>
   4c4d5:	e8 96 9c fc ff       	callq  16170 <gf2x_mul3>
   4c4ef:	e8 7c 9c fc ff       	callq  16170 <gf2x_mul3>
   4c566:	e8 05 9c fc ff       	callq  16170 <gf2x_mul3>
   4c5d5:	e8 96 9b fc ff       	callq  16170 <gf2x_mul3>
   4c5ef:	e8 7c 9b fc ff       	callq  16170 <gf2x_mul3>
   4c609:	e8 62 9b fc ff       	callq  16170 <gf2x_mul3>
   4c668:	e8 03 9b fc ff       	callq  16170 <gf2x_mul3>
   4c682:	e8 e9 9a fc ff       	callq  16170 <gf2x_mul3>
   4c69c:	e8 cf 9a fc ff       	callq  16170 <gf2x_mul3>
   4c6fb:	e8 70 9a fc ff       	callq  16170 <gf2x_mul3>
   4c715:	e8 56 9a fc ff       	callq  16170 <gf2x_mul3>
   4c78c:	e8 df 99 fc ff       	callq  16170 <gf2x_mul3>
   4c7fb:	e8 70 99 fc ff       	callq  16170 <gf2x_mul3>
   4c815:	e8 56 99 fc ff       	callq  16170 <gf2x_mul3>
   4c82f:	e8 3c 99 fc ff       	callq  16170 <gf2x_mul3>
   4c88e:	e8 dd 98 fc ff       	callq  16170 <gf2x_mul3>
   4c8a8:	e8 c3 98 fc ff       	callq  16170 <gf2x_mul3>
   4c8c2:	e8 a9 98 fc ff       	callq  16170 <gf2x_mul3>
   4c921:	e8 4a 98 fc ff       	callq  16170 <gf2x_mul3>
   4c93b:	e8 30 98 fc ff       	callq  16170 <gf2x_mul3>
   4c9b2:	e8 b9 97 fc ff       	callq  16170 <gf2x_mul3>
   4ca21:	e8 4a 97 fc ff       	callq  16170 <gf2x_mul3>
   4ca3b:	e8 30 97 fc ff       	callq  16170 <gf2x_mul3>
   4ca55:	e8 16 97 fc ff       	callq  16170 <gf2x_mul3>
   4cab4:	e8 b7 96 fc ff       	callq  16170 <gf2x_mul3>
   4cace:	e8 9d 96 fc ff       	callq  16170 <gf2x_mul3>
   4cae8:	e8 83 96 fc ff       	callq  16170 <gf2x_mul3>
   4cb47:	e8 24 96 fc ff       	callq  16170 <gf2x_mul3>
   4cb61:	e8 0a 96 fc ff       	callq  16170 <gf2x_mul3>
   4cbd8:	e8 93 95 fc ff       	callq  16170 <gf2x_mul3>
   4cc47:	e8 24 95 fc ff       	callq  16170 <gf2x_mul3>
   4cc61:	e8 0a 95 fc ff       	callq  16170 <gf2x_mul3>
   4cc7b:	e8 f0 94 fc ff       	callq  16170 <gf2x_mul3>
   4ccda:	e8 91 94 fc ff       	callq  16170 <gf2x_mul3>
   4ccf4:	e8 77 94 fc ff       	callq  16170 <gf2x_mul3>
   4cd0e:	e8 5d 94 fc ff       	callq  16170 <gf2x_mul3>
   4cd6d:	e8 fe 93 fc ff       	callq  16170 <gf2x_mul3>
   4cd87:	e8 e4 93 fc ff       	callq  16170 <gf2x_mul3>
   4cdfe:	e8 6d 93 fc ff       	callq  16170 <gf2x_mul3>
   4ce6d:	e8 fe 92 fc ff       	callq  16170 <gf2x_mul3>
   4ce87:	e8 e4 92 fc ff       	callq  16170 <gf2x_mul3>
   4cea1:	e8 ca 92 fc ff       	callq  16170 <gf2x_mul3>
   4cf00:	e8 6b 92 fc ff       	callq  16170 <gf2x_mul3>
   4cf1a:	e8 51 92 fc ff       	callq  16170 <gf2x_mul3>
   4cf34:	e8 37 92 fc ff       	callq  16170 <gf2x_mul3>
   4cf93:	e8 d8 91 fc ff       	callq  16170 <gf2x_mul3>
   4cfad:	e8 be 91 fc ff       	callq  16170 <gf2x_mul3>
   4d024:	e8 47 91 fc ff       	callq  16170 <gf2x_mul3>
   4d093:	e8 d8 90 fc ff       	callq  16170 <gf2x_mul3>
   4d0ad:	e8 be 90 fc ff       	callq  16170 <gf2x_mul3>
   4d0c7:	e8 a4 90 fc ff       	callq  16170 <gf2x_mul3>
   4d126:	e8 45 90 fc ff       	callq  16170 <gf2x_mul3>
   4d140:	e8 2b 90 fc ff       	callq  16170 <gf2x_mul3>
   4d15a:	e8 11 90 fc ff       	callq  16170 <gf2x_mul3>
   4d1b9:	e8 b2 8f fc ff       	callq  16170 <gf2x_mul3>
   4d1d3:	e8 98 8f fc ff       	callq  16170 <gf2x_mul3>
   4e227:	e8 44 7f fc ff       	callq  16170 <gf2x_mul3>
   4e241:	e8 2a 7f fc ff       	callq  16170 <gf2x_mul3>
   4e258:	e8 13 7f fc ff       	callq  16170 <gf2x_mul3>
   4e2b7:	e8 b4 7e fc ff       	callq  16170 <gf2x_mul3>
   4e2d1:	e8 9a 7e fc ff       	callq  16170 <gf2x_mul3>
   4e2eb:	e8 80 7e fc ff       	callq  16170 <gf2x_mul3>
   4e347:	e8 24 7e fc ff       	callq  16170 <gf2x_mul3>
   4e35e:	e8 0d 7e fc ff       	callq  16170 <gf2x_mul3>
   4e3d5:	e8 96 7d fc ff       	callq  16170 <gf2x_mul3>
   4e959:	e8 12 78 fc ff       	callq  16170 <gf2x_mul3>
   4e973:	e8 f8 77 fc ff       	callq  16170 <gf2x_mul3>
   4e98a:	e8 e1 77 fc ff       	callq  16170 <gf2x_mul3>
   4e9e9:	e8 82 77 fc ff       	callq  16170 <gf2x_mul3>
   4ea03:	e8 68 77 fc ff       	callq  16170 <gf2x_mul3>
   4ea1d:	e8 4e 77 fc ff       	callq  16170 <gf2x_mul3>
   4ea79:	e8 f2 76 fc ff       	callq  16170 <gf2x_mul3>
   4ea90:	e8 db 76 fc ff       	callq  16170 <gf2x_mul3>
   4eb07:	e8 64 76 fc ff       	callq  16170 <gf2x_mul3>
   4f08b:	e8 e0 70 fc ff       	callq  16170 <gf2x_mul3>
   4f0a5:	e8 c6 70 fc ff       	callq  16170 <gf2x_mul3>
   4f0bc:	e8 af 70 fc ff       	callq  16170 <gf2x_mul3>
   4f11b:	e8 50 70 fc ff       	callq  16170 <gf2x_mul3>
   4f135:	e8 36 70 fc ff       	callq  16170 <gf2x_mul3>
   4f14f:	e8 1c 70 fc ff       	callq  16170 <gf2x_mul3>
   4f1ab:	e8 c0 6f fc ff       	callq  16170 <gf2x_mul3>
   4f1c2:	e8 a9 6f fc ff       	callq  16170 <gf2x_mul3>
   4f239:	e8 32 6f fc ff       	callq  16170 <gf2x_mul3>
   4f7bd:	e8 ae 69 fc ff       	callq  16170 <gf2x_mul3>
   4f7d7:	e8 94 69 fc ff       	callq  16170 <gf2x_mul3>
   4f7ee:	e8 7d 69 fc ff       	callq  16170 <gf2x_mul3>
   4f84d:	e8 1e 69 fc ff       	callq  16170 <gf2x_mul3>
   4f867:	e8 04 69 fc ff       	callq  16170 <gf2x_mul3>
   4f881:	e8 ea 68 fc ff       	callq  16170 <gf2x_mul3>
   4f8dd:	e8 8e 68 fc ff       	callq  16170 <gf2x_mul3>
   4f8f4:	e8 77 68 fc ff       	callq  16170 <gf2x_mul3>
   4f96b:	e8 00 68 fc ff       	callq  16170 <gf2x_mul3>
   50d49:	e8 22 54 fc ff       	callq  16170 <gf2x_mul3>
   50d63:	e8 08 54 fc ff       	callq  16170 <gf2x_mul3>
   50d7d:	e8 ee 53 fc ff       	callq  16170 <gf2x_mul3>
   50ddc:	e8 8f 53 fc ff       	callq  16170 <gf2x_mul3>
   50df6:	e8 75 53 fc ff       	callq  16170 <gf2x_mul3>
   50e10:	e8 5b 53 fc ff       	callq  16170 <gf2x_mul3>
   50e6f:	e8 fc 52 fc ff       	callq  16170 <gf2x_mul3>
   50e89:	e8 e2 52 fc ff       	callq  16170 <gf2x_mul3>
   50f00:	e8 6b 52 fc ff       	callq  16170 <gf2x_mul3>
   50f1a:	e8 51 52 fc ff       	callq  16170 <gf2x_mul3>
   50f34:	e8 37 52 fc ff       	callq  16170 <gf2x_mul3>
   50f4e:	e8 1d 52 fc ff       	callq  16170 <gf2x_mul3>
   50fad:	e8 be 51 fc ff       	callq  16170 <gf2x_mul3>
   50fc7:	e8 a4 51 fc ff       	callq  16170 <gf2x_mul3>
   50fe1:	e8 8a 51 fc ff       	callq  16170 <gf2x_mul3>
   51040:	e8 2b 51 fc ff       	callq  16170 <gf2x_mul3>
   5105a:	e8 11 51 fc ff       	callq  16170 <gf2x_mul3>
   510d1:	e8 9a 50 fc ff       	callq  16170 <gf2x_mul3>
   513c2:	e8 a9 4d fc ff       	callq  16170 <gf2x_mul3>
   513dc:	e8 8f 4d fc ff       	callq  16170 <gf2x_mul3>
   513f3:	e8 78 4d fc ff       	callq  16170 <gf2x_mul3>
   51452:	e8 19 4d fc ff       	callq  16170 <gf2x_mul3>
   5146c:	e8 ff 4c fc ff       	callq  16170 <gf2x_mul3>
   51486:	e8 e5 4c fc ff       	callq  16170 <gf2x_mul3>
   514e2:	e8 89 4c fc ff       	callq  16170 <gf2x_mul3>
   514f9:	e8 72 4c fc ff       	callq  16170 <gf2x_mul3>
   51570:	e8 fb 4b fc ff       	callq  16170 <gf2x_mul3>
   52396:	e8 d5 3d fc ff       	callq  16170 <gf2x_mul3>
   523b0:	e8 bb 3d fc ff       	callq  16170 <gf2x_mul3>
   523ca:	e8 a1 3d fc ff       	callq  16170 <gf2x_mul3>
   52429:	e8 42 3d fc ff       	callq  16170 <gf2x_mul3>
   52443:	e8 28 3d fc ff       	callq  16170 <gf2x_mul3>
   5245d:	e8 0e 3d fc ff       	callq  16170 <gf2x_mul3>
   524bc:	e8 af 3c fc ff       	callq  16170 <gf2x_mul3>
   524d6:	e8 95 3c fc ff       	callq  16170 <gf2x_mul3>
   5254d:	e8 1e 3c fc ff       	callq  16170 <gf2x_mul3>
   52567:	e8 04 3c fc ff       	callq  16170 <gf2x_mul3>
   52581:	e8 ea 3b fc ff       	callq  16170 <gf2x_mul3>
   5259b:	e8 d0 3b fc ff       	callq  16170 <gf2x_mul3>
   525fa:	e8 71 3b fc ff       	callq  16170 <gf2x_mul3>
   52614:	e8 57 3b fc ff       	callq  16170 <gf2x_mul3>
   5262e:	e8 3d 3b fc ff       	callq  16170 <gf2x_mul3>
   5268d:	e8 de 3a fc ff       	callq  16170 <gf2x_mul3>
   526a7:	e8 c4 3a fc ff       	callq  16170 <gf2x_mul3>
   5271e:	e8 4d 3a fc ff       	callq  16170 <gf2x_mul3>
   52a0f:	e8 5c 37 fc ff       	callq  16170 <gf2x_mul3>
   52a29:	e8 42 37 fc ff       	callq  16170 <gf2x_mul3>
   52a40:	e8 2b 37 fc ff       	callq  16170 <gf2x_mul3>
   52a9f:	e8 cc 36 fc ff       	callq  16170 <gf2x_mul3>
   52ab9:	e8 b2 36 fc ff       	callq  16170 <gf2x_mul3>
   52ad3:	e8 98 36 fc ff       	callq  16170 <gf2x_mul3>
   52b2f:	e8 3c 36 fc ff       	callq  16170 <gf2x_mul3>
   52b46:	e8 25 36 fc ff       	callq  16170 <gf2x_mul3>
   52bbd:	e8 ae 35 fc ff       	callq  16170 <gf2x_mul3>
   54d84:	e8 e7 13 fc ff       	callq  16170 <gf2x_mul3>
   54d9e:	e8 cd 13 fc ff       	callq  16170 <gf2x_mul3>
   54db8:	e8 b3 13 fc ff       	callq  16170 <gf2x_mul3>
   54dd2:	e8 99 13 fc ff       	callq  16170 <gf2x_mul3>
   54dec:	e8 7f 13 fc ff       	callq  16170 <gf2x_mul3>
   54e06:	e8 65 13 fc ff       	callq  16170 <gf2x_mul3>
   54e20:	e8 4b 13 fc ff       	callq  16170 <gf2x_mul3>
   54e3a:	e8 31 13 fc ff       	callq  16170 <gf2x_mul3>
   54e54:	e8 17 13 fc ff       	callq  16170 <gf2x_mul3>
   54edf:	e8 8c 12 fc ff       	callq  16170 <gf2x_mul3>
   54ef9:	e8 72 12 fc ff       	callq  16170 <gf2x_mul3>
   54f13:	e8 58 12 fc ff       	callq  16170 <gf2x_mul3>
   54f2d:	e8 3e 12 fc ff       	callq  16170 <gf2x_mul3>
   54f8c:	e8 df 11 fc ff       	callq  16170 <gf2x_mul3>
   54fa6:	e8 c5 11 fc ff       	callq  16170 <gf2x_mul3>
   54fc0:	e8 ab 11 fc ff       	callq  16170 <gf2x_mul3>
   54fda:	e8 91 11 fc ff       	callq  16170 <gf2x_mul3>
   54ff4:	e8 77 11 fc ff       	callq  16170 <gf2x_mul3>
   5509e:	e8 cd 10 fc ff       	callq  16170 <gf2x_mul3>
   550b8:	e8 b3 10 fc ff       	callq  16170 <gf2x_mul3>
   550d2:	e8 99 10 fc ff       	callq  16170 <gf2x_mul3>
   550ec:	e8 7f 10 fc ff       	callq  16170 <gf2x_mul3>
   55106:	e8 65 10 fc ff       	callq  16170 <gf2x_mul3>
   55120:	e8 4b 10 fc ff       	callq  16170 <gf2x_mul3>
   5513a:	e8 31 10 fc ff       	callq  16170 <gf2x_mul3>
   55154:	e8 17 10 fc ff       	callq  16170 <gf2x_mul3>
   5516e:	e8 fd 0f fc ff       	callq  16170 <gf2x_mul3>
   551f9:	e8 72 0f fc ff       	callq  16170 <gf2x_mul3>
   55213:	e8 58 0f fc ff       	callq  16170 <gf2x_mul3>
   5522d:	e8 3e 0f fc ff       	callq  16170 <gf2x_mul3>
   55247:	e8 24 0f fc ff       	callq  16170 <gf2x_mul3>
   55261:	e8 0a 0f fc ff       	callq  16170 <gf2x_mul3>
   5527b:	e8 f0 0e fc ff       	callq  16170 <gf2x_mul3>
   55295:	e8 d6 0e fc ff       	callq  16170 <gf2x_mul3>
   552af:	e8 bc 0e fc ff       	callq  16170 <gf2x_mul3>
   552c9:	e8 a2 0e fc ff       	callq  16170 <gf2x_mul3>
   555c1:	e8 aa 0b fc ff       	callq  16170 <gf2x_mul3>
   555db:	e8 90 0b fc ff       	callq  16170 <gf2x_mul3>
   555f5:	e8 76 0b fc ff       	callq  16170 <gf2x_mul3>
   5560c:	e8 5f 0b fc ff       	callq  16170 <gf2x_mul3>
   55623:	e8 48 0b fc ff       	callq  16170 <gf2x_mul3>
   5563d:	e8 2e 0b fc ff       	callq  16170 <gf2x_mul3>
   55657:	e8 14 0b fc ff       	callq  16170 <gf2x_mul3>
   5566e:	e8 fd 0a fc ff       	callq  16170 <gf2x_mul3>
   55688:	e8 e3 0a fc ff       	callq  16170 <gf2x_mul3>
   55972:	e8 f9 07 fc ff       	callq  16170 <gf2x_mul3>
   5598c:	e8 df 07 fc ff       	callq  16170 <gf2x_mul3>
   559a6:	e8 c5 07 fc ff       	callq  16170 <gf2x_mul3>
   559bd:	e8 ae 07 fc ff       	callq  16170 <gf2x_mul3>
   559d4:	e8 97 07 fc ff       	callq  16170 <gf2x_mul3>
   559ee:	e8 7d 07 fc ff       	callq  16170 <gf2x_mul3>
   55a08:	e8 63 07 fc ff       	callq  16170 <gf2x_mul3>
   55a1f:	e8 4c 07 fc ff       	callq  16170 <gf2x_mul3>
   55a39:	e8 32 07 fc ff       	callq  16170 <gf2x_mul3>
   56510:	e8 5b fc fb ff       	callq  16170 <gf2x_mul3>
   5652a:	e8 41 fc fb ff       	callq  16170 <gf2x_mul3>
   56544:	e8 27 fc fb ff       	callq  16170 <gf2x_mul3>
   5655e:	e8 0d fc fb ff       	callq  16170 <gf2x_mul3>
   56578:	e8 f3 fb fb ff       	callq  16170 <gf2x_mul3>
   56592:	e8 d9 fb fb ff       	callq  16170 <gf2x_mul3>
   565ac:	e8 bf fb fb ff       	callq  16170 <gf2x_mul3>
   565c6:	e8 a5 fb fb ff       	callq  16170 <gf2x_mul3>
   565e0:	e8 8b fb fb ff       	callq  16170 <gf2x_mul3>
   5666b:	e8 00 fb fb ff       	callq  16170 <gf2x_mul3>
   56685:	e8 e6 fa fb ff       	callq  16170 <gf2x_mul3>
   5669f:	e8 cc fa fb ff       	callq  16170 <gf2x_mul3>
   566b9:	e8 b2 fa fb ff       	callq  16170 <gf2x_mul3>
   566d3:	e8 98 fa fb ff       	callq  16170 <gf2x_mul3>
   566ed:	e8 7e fa fb ff       	callq  16170 <gf2x_mul3>
   56707:	e8 64 fa fb ff       	callq  16170 <gf2x_mul3>
   56721:	e8 4a fa fb ff       	callq  16170 <gf2x_mul3>
   5673b:	e8 30 fa fb ff       	callq  16170 <gf2x_mul3>
   56a25:	e8 46 f7 fb ff       	callq  16170 <gf2x_mul3>
   56a3f:	e8 2c f7 fb ff       	callq  16170 <gf2x_mul3>
   56a59:	e8 12 f7 fb ff       	callq  16170 <gf2x_mul3>
   56a70:	e8 fb f6 fb ff       	callq  16170 <gf2x_mul3>
   56a87:	e8 e4 f6 fb ff       	callq  16170 <gf2x_mul3>
   56aa1:	e8 ca f6 fb ff       	callq  16170 <gf2x_mul3>
   56abb:	e8 b0 f6 fb ff       	callq  16170 <gf2x_mul3>
   56ad2:	e8 99 f6 fb ff       	callq  16170 <gf2x_mul3>
   56aec:	e8 7f f6 fb ff       	callq  16170 <gf2x_mul3>
   597b4:	e8 b7 c9 fb ff       	callq  16170 <gf2x_mul3>
   597ce:	e8 9d c9 fb ff       	callq  16170 <gf2x_mul3>
   597e8:	e8 83 c9 fb ff       	callq  16170 <gf2x_mul3>
   59802:	e8 69 c9 fb ff       	callq  16170 <gf2x_mul3>
   5981c:	e8 4f c9 fb ff       	callq  16170 <gf2x_mul3>
   59836:	e8 35 c9 fb ff       	callq  16170 <gf2x_mul3>
   59850:	e8 1b c9 fb ff       	callq  16170 <gf2x_mul3>
   5986a:	e8 01 c9 fb ff       	callq  16170 <gf2x_mul3>
   59884:	e8 e7 c8 fb ff       	callq  16170 <gf2x_mul3>
   5989e:	e8 cd c8 fb ff       	callq  16170 <gf2x_mul3>
   598b8:	e8 b3 c8 fb ff       	callq  16170 <gf2x_mul3>
   598d2:	e8 99 c8 fb ff       	callq  16170 <gf2x_mul3>
   598ec:	e8 7f c8 fb ff       	callq  16170 <gf2x_mul3>
   59906:	e8 65 c8 fb ff       	callq  16170 <gf2x_mul3>
   59920:	e8 4b c8 fb ff       	callq  16170 <gf2x_mul3>
   5993a:	e8 31 c8 fb ff       	callq  16170 <gf2x_mul3>
   59954:	e8 17 c8 fb ff       	callq  16170 <gf2x_mul3>
   5996e:	e8 fd c7 fb ff       	callq  16170 <gf2x_mul3>
   59a9f:	e8 cc c6 fb ff       	callq  16170 <gf2x_mul3>
   59ab9:	e8 b2 c6 fb ff       	callq  16170 <gf2x_mul3>
   59ad3:	e8 98 c6 fb ff       	callq  16170 <gf2x_mul3>
   59aea:	e8 81 c6 fb ff       	callq  16170 <gf2x_mul3>
   59b01:	e8 6a c6 fb ff       	callq  16170 <gf2x_mul3>
   59b1b:	e8 50 c6 fb ff       	callq  16170 <gf2x_mul3>
   59b35:	e8 36 c6 fb ff       	callq  16170 <gf2x_mul3>
   59b4c:	e8 1f c6 fb ff       	callq  16170 <gf2x_mul3>
   59b66:	e8 05 c6 fb ff       	callq  16170 <gf2x_mul3>
   59b80:	e8 eb c5 fb ff       	callq  16170 <gf2x_mul3>
   59b9a:	e8 d1 c5 fb ff       	callq  16170 <gf2x_mul3>
   59bb4:	e8 b7 c5 fb ff       	callq  16170 <gf2x_mul3>
   59bce:	e8 9d c5 fb ff       	callq  16170 <gf2x_mul3>
   59be8:	e8 83 c5 fb ff       	callq  16170 <gf2x_mul3>
   59c02:	e8 69 c5 fb ff       	callq  16170 <gf2x_mul3>
   59c1c:	e8 4f c5 fb ff       	callq  16170 <gf2x_mul3>
   59c36:	e8 35 c5 fb ff       	callq  16170 <gf2x_mul3>
   59c50:	e8 1b c5 fb ff       	callq  16170 <gf2x_mul3>
   59c6a:	e8 01 c5 fb ff       	callq  16170 <gf2x_mul3>
   59c84:	e8 e7 c4 fb ff       	callq  16170 <gf2x_mul3>
   59c9e:	e8 cd c4 fb ff       	callq  16170 <gf2x_mul3>
   59cb8:	e8 b3 c4 fb ff       	callq  16170 <gf2x_mul3>
   59cd2:	e8 99 c4 fb ff       	callq  16170 <gf2x_mul3>
   59cec:	e8 7f c4 fb ff       	callq  16170 <gf2x_mul3>
   59d06:	e8 65 c4 fb ff       	callq  16170 <gf2x_mul3>
   59d20:	e8 4b c4 fb ff       	callq  16170 <gf2x_mul3>
   59d3a:	e8 31 c4 fb ff       	callq  16170 <gf2x_mul3>
   59d54:	e8 17 c4 fb ff       	callq  16170 <gf2x_mul3>
   59d6e:	e8 fd c3 fb ff       	callq  16170 <gf2x_mul3>
   59d88:	e8 e3 c3 fb ff       	callq  16170 <gf2x_mul3>
   59da2:	e8 c9 c3 fb ff       	callq  16170 <gf2x_mul3>
   59dbc:	e8 af c3 fb ff       	callq  16170 <gf2x_mul3>
   59dd6:	e8 95 c3 fb ff       	callq  16170 <gf2x_mul3>
   59df0:	e8 7b c3 fb ff       	callq  16170 <gf2x_mul3>
   59fb1:	e8 ba c1 fb ff       	callq  16170 <gf2x_mul3>
   59fcb:	e8 a0 c1 fb ff       	callq  16170 <gf2x_mul3>
   59fe5:	e8 86 c1 fb ff       	callq  16170 <gf2x_mul3>
   59fff:	e8 6c c1 fb ff       	callq  16170 <gf2x_mul3>
   5a019:	e8 52 c1 fb ff       	callq  16170 <gf2x_mul3>
   5a033:	e8 38 c1 fb ff       	callq  16170 <gf2x_mul3>
   5a04d:	e8 1e c1 fb ff       	callq  16170 <gf2x_mul3>
   5a067:	e8 04 c1 fb ff       	callq  16170 <gf2x_mul3>
   5a081:	e8 ea c0 fb ff       	callq  16170 <gf2x_mul3>
   5a09b:	e8 d0 c0 fb ff       	callq  16170 <gf2x_mul3>
   5a0b5:	e8 b6 c0 fb ff       	callq  16170 <gf2x_mul3>
   5a0cf:	e8 9c c0 fb ff       	callq  16170 <gf2x_mul3>
   5a0e9:	e8 82 c0 fb ff       	callq  16170 <gf2x_mul3>
   5a103:	e8 68 c0 fb ff       	callq  16170 <gf2x_mul3>
   5a11d:	e8 4e c0 fb ff       	callq  16170 <gf2x_mul3>
   5a137:	e8 34 c0 fb ff       	callq  16170 <gf2x_mul3>
   5a151:	e8 1a c0 fb ff       	callq  16170 <gf2x_mul3>
   5a2be:	e8 ad be fb ff       	callq  16170 <gf2x_mul3>
   5a2d8:	e8 93 be fb ff       	callq  16170 <gf2x_mul3>
   5a2f2:	e8 79 be fb ff       	callq  16170 <gf2x_mul3>
   5a309:	e8 62 be fb ff       	callq  16170 <gf2x_mul3>
   5a320:	e8 4b be fb ff       	callq  16170 <gf2x_mul3>
   5a33a:	e8 31 be fb ff       	callq  16170 <gf2x_mul3>
   5a354:	e8 17 be fb ff       	callq  16170 <gf2x_mul3>
   5a36b:	e8 00 be fb ff       	callq  16170 <gf2x_mul3>
   5a385:	e8 e6 bd fb ff       	callq  16170 <gf2x_mul3>
   5ceaf:	e8 bc 92 fb ff       	callq  16170 <gf2x_mul3>
   5cec9:	e8 a2 92 fb ff       	callq  16170 <gf2x_mul3>
   5cee3:	e8 88 92 fb ff       	callq  16170 <gf2x_mul3>
   5cefd:	e8 6e 92 fb ff       	callq  16170 <gf2x_mul3>
   5cf17:	e8 54 92 fb ff       	callq  16170 <gf2x_mul3>
   5cf31:	e8 3a 92 fb ff       	callq  16170 <gf2x_mul3>
   5cf4b:	e8 20 92 fb ff       	callq  16170 <gf2x_mul3>
   5cf65:	e8 06 92 fb ff       	callq  16170 <gf2x_mul3>
   5cf7f:	e8 ec 91 fb ff       	callq  16170 <gf2x_mul3>
   5cf99:	e8 d2 91 fb ff       	callq  16170 <gf2x_mul3>
   5cfb3:	e8 b8 91 fb ff       	callq  16170 <gf2x_mul3>
   5cfcd:	e8 9e 91 fb ff       	callq  16170 <gf2x_mul3>
   5cfe7:	e8 84 91 fb ff       	callq  16170 <gf2x_mul3>
   5d001:	e8 6a 91 fb ff       	callq  16170 <gf2x_mul3>
   5d01b:	e8 50 91 fb ff       	callq  16170 <gf2x_mul3>
   5d035:	e8 36 91 fb ff       	callq  16170 <gf2x_mul3>
   5d04f:	e8 1c 91 fb ff       	callq  16170 <gf2x_mul3>
   5d069:	e8 02 91 fb ff       	callq  16170 <gf2x_mul3>
   5d19a:	e8 d1 8f fb ff       	callq  16170 <gf2x_mul3>
   5d1b4:	e8 b7 8f fb ff       	callq  16170 <gf2x_mul3>
   5d1ce:	e8 9d 8f fb ff       	callq  16170 <gf2x_mul3>
   5d1e5:	e8 86 8f fb ff       	callq  16170 <gf2x_mul3>
   5d1fc:	e8 6f 8f fb ff       	callq  16170 <gf2x_mul3>
   5d216:	e8 55 8f fb ff       	callq  16170 <gf2x_mul3>
   5d230:	e8 3b 8f fb ff       	callq  16170 <gf2x_mul3>
   5d247:	e8 24 8f fb ff       	callq  16170 <gf2x_mul3>
   5d261:	e8 0a 8f fb ff       	callq  16170 <gf2x_mul3>
   5d27b:	e8 f0 8e fb ff       	callq  16170 <gf2x_mul3>
   5d295:	e8 d6 8e fb ff       	callq  16170 <gf2x_mul3>
   5d2af:	e8 bc 8e fb ff       	callq  16170 <gf2x_mul3>
   5d2c9:	e8 a2 8e fb ff       	callq  16170 <gf2x_mul3>
   5d2e3:	e8 88 8e fb ff       	callq  16170 <gf2x_mul3>
   5d2fd:	e8 6e 8e fb ff       	callq  16170 <gf2x_mul3>
   5d317:	e8 54 8e fb ff       	callq  16170 <gf2x_mul3>
   5d331:	e8 3a 8e fb ff       	callq  16170 <gf2x_mul3>
   5d34b:	e8 20 8e fb ff       	callq  16170 <gf2x_mul3>
   5d365:	e8 06 8e fb ff       	callq  16170 <gf2x_mul3>
   5d37f:	e8 ec 8d fb ff       	callq  16170 <gf2x_mul3>
   5d399:	e8 d2 8d fb ff       	callq  16170 <gf2x_mul3>
   5d3b3:	e8 b8 8d fb ff       	callq  16170 <gf2x_mul3>
   5d3cd:	e8 9e 8d fb ff       	callq  16170 <gf2x_mul3>
   5d3e7:	e8 84 8d fb ff       	callq  16170 <gf2x_mul3>
   5d401:	e8 6a 8d fb ff       	callq  16170 <gf2x_mul3>
   5d41b:	e8 50 8d fb ff       	callq  16170 <gf2x_mul3>
   5d435:	e8 36 8d fb ff       	callq  16170 <gf2x_mul3>
   5d44f:	e8 1c 8d fb ff       	callq  16170 <gf2x_mul3>
   5d469:	e8 02 8d fb ff       	callq  16170 <gf2x_mul3>
   5d483:	e8 e8 8c fb ff       	callq  16170 <gf2x_mul3>
   5d49d:	e8 ce 8c fb ff       	callq  16170 <gf2x_mul3>
   5d4b7:	e8 b4 8c fb ff       	callq  16170 <gf2x_mul3>
   5d4d1:	e8 9a 8c fb ff       	callq  16170 <gf2x_mul3>
   5d4eb:	e8 80 8c fb ff       	callq  16170 <gf2x_mul3>
   5d6ac:	e8 bf 8a fb ff       	callq  16170 <gf2x_mul3>
   5d6c6:	e8 a5 8a fb ff       	callq  16170 <gf2x_mul3>
   5d6e0:	e8 8b 8a fb ff       	callq  16170 <gf2x_mul3>
   5d6fa:	e8 71 8a fb ff       	callq  16170 <gf2x_mul3>
   5d714:	e8 57 8a fb ff       	callq  16170 <gf2x_mul3>
   5d72e:	e8 3d 8a fb ff       	callq  16170 <gf2x_mul3>
   5d748:	e8 23 8a fb ff       	callq  16170 <gf2x_mul3>
   5d762:	e8 09 8a fb ff       	callq  16170 <gf2x_mul3>
   5d77c:	e8 ef 89 fb ff       	callq  16170 <gf2x_mul3>
   5d796:	e8 d5 89 fb ff       	callq  16170 <gf2x_mul3>
   5d7b0:	e8 bb 89 fb ff       	callq  16170 <gf2x_mul3>
   5d7ca:	e8 a1 89 fb ff       	callq  16170 <gf2x_mul3>
   5d7e4:	e8 87 89 fb ff       	callq  16170 <gf2x_mul3>
   5d7fe:	e8 6d 89 fb ff       	callq  16170 <gf2x_mul3>
   5d818:	e8 53 89 fb ff       	callq  16170 <gf2x_mul3>
   5d832:	e8 39 89 fb ff       	callq  16170 <gf2x_mul3>
   5d84c:	e8 1f 89 fb ff       	callq  16170 <gf2x_mul3>
   5d9b9:	e8 b2 87 fb ff       	callq  16170 <gf2x_mul3>
   5d9d3:	e8 98 87 fb ff       	callq  16170 <gf2x_mul3>
   5d9ed:	e8 7e 87 fb ff       	callq  16170 <gf2x_mul3>
   5da04:	e8 67 87 fb ff       	callq  16170 <gf2x_mul3>
   5da1b:	e8 50 87 fb ff       	callq  16170 <gf2x_mul3>
   5da35:	e8 36 87 fb ff       	callq  16170 <gf2x_mul3>
   5da4f:	e8 1c 87 fb ff       	callq  16170 <gf2x_mul3>
   5da66:	e8 05 87 fb ff       	callq  16170 <gf2x_mul3>
   5da80:	e8 eb 86 fb ff       	callq  16170 <gf2x_mul3>
   62674:	e8 f7 3a fb ff       	callq  16170 <gf2x_mul3>
   6268e:	e8 dd 3a fb ff       	callq  16170 <gf2x_mul3>
   626a8:	e8 c3 3a fb ff       	callq  16170 <gf2x_mul3>
   626c2:	e8 a9 3a fb ff       	callq  16170 <gf2x_mul3>
   626dc:	e8 8f 3a fb ff       	callq  16170 <gf2x_mul3>
   626f6:	e8 75 3a fb ff       	callq  16170 <gf2x_mul3>
   62710:	e8 5b 3a fb ff       	callq  16170 <gf2x_mul3>
   6272a:	e8 41 3a fb ff       	callq  16170 <gf2x_mul3>
   62744:	e8 27 3a fb ff       	callq  16170 <gf2x_mul3>
   6275e:	e8 0d 3a fb ff       	callq  16170 <gf2x_mul3>
   62778:	e8 f3 39 fb ff       	callq  16170 <gf2x_mul3>
   62792:	e8 d9 39 fb ff       	callq  16170 <gf2x_mul3>
   627ac:	e8 bf 39 fb ff       	callq  16170 <gf2x_mul3>
   627c6:	e8 a5 39 fb ff       	callq  16170 <gf2x_mul3>
   627e0:	e8 8b 39 fb ff       	callq  16170 <gf2x_mul3>
   627fa:	e8 71 39 fb ff       	callq  16170 <gf2x_mul3>
   62814:	e8 57 39 fb ff       	callq  16170 <gf2x_mul3>
   6282e:	e8 3d 39 fb ff       	callq  16170 <gf2x_mul3>
   62a1c:	e8 4f 37 fb ff       	callq  16170 <gf2x_mul3>
   62a36:	e8 35 37 fb ff       	callq  16170 <gf2x_mul3>
   62a50:	e8 1b 37 fb ff       	callq  16170 <gf2x_mul3>
   62a67:	e8 04 37 fb ff       	callq  16170 <gf2x_mul3>
   62a7e:	e8 ed 36 fb ff       	callq  16170 <gf2x_mul3>
   62a98:	e8 d3 36 fb ff       	callq  16170 <gf2x_mul3>
   62ab2:	e8 b9 36 fb ff       	callq  16170 <gf2x_mul3>
   62ac9:	e8 a2 36 fb ff       	callq  16170 <gf2x_mul3>
   62ae3:	e8 88 36 fb ff       	callq  16170 <gf2x_mul3>
   62afd:	e8 6e 36 fb ff       	callq  16170 <gf2x_mul3>
   62b17:	e8 54 36 fb ff       	callq  16170 <gf2x_mul3>
   62b31:	e8 3a 36 fb ff       	callq  16170 <gf2x_mul3>
   62b4b:	e8 20 36 fb ff       	callq  16170 <gf2x_mul3>
   62b65:	e8 06 36 fb ff       	callq  16170 <gf2x_mul3>
   62b7f:	e8 ec 35 fb ff       	callq  16170 <gf2x_mul3>
   62b99:	e8 d2 35 fb ff       	callq  16170 <gf2x_mul3>
   62bb3:	e8 b8 35 fb ff       	callq  16170 <gf2x_mul3>
   62bcd:	e8 9e 35 fb ff       	callq  16170 <gf2x_mul3>
   62be7:	e8 84 35 fb ff       	callq  16170 <gf2x_mul3>
   62c01:	e8 6a 35 fb ff       	callq  16170 <gf2x_mul3>
   62c1b:	e8 50 35 fb ff       	callq  16170 <gf2x_mul3>
   62c35:	e8 36 35 fb ff       	callq  16170 <gf2x_mul3>
   62c4f:	e8 1c 35 fb ff       	callq  16170 <gf2x_mul3>
   62c69:	e8 02 35 fb ff       	callq  16170 <gf2x_mul3>
   62c83:	e8 e8 34 fb ff       	callq  16170 <gf2x_mul3>
   62c9d:	e8 ce 34 fb ff       	callq  16170 <gf2x_mul3>
   62cb7:	e8 b4 34 fb ff       	callq  16170 <gf2x_mul3>
   62cd1:	e8 9a 34 fb ff       	callq  16170 <gf2x_mul3>
   62ceb:	e8 80 34 fb ff       	callq  16170 <gf2x_mul3>
   62d05:	e8 66 34 fb ff       	callq  16170 <gf2x_mul3>
   62d1f:	e8 4c 34 fb ff       	callq  16170 <gf2x_mul3>
   62d39:	e8 32 34 fb ff       	callq  16170 <gf2x_mul3>
   62d53:	e8 18 34 fb ff       	callq  16170 <gf2x_mul3>
   62d6d:	e8 fe 33 fb ff       	callq  16170 <gf2x_mul3>
   63029:	e8 42 31 fb ff       	callq  16170 <gf2x_mul3>
   63043:	e8 28 31 fb ff       	callq  16170 <gf2x_mul3>
   6305d:	e8 0e 31 fb ff       	callq  16170 <gf2x_mul3>
   63077:	e8 f4 30 fb ff       	callq  16170 <gf2x_mul3>
   63091:	e8 da 30 fb ff       	callq  16170 <gf2x_mul3>
   630ab:	e8 c0 30 fb ff       	callq  16170 <gf2x_mul3>
   630c5:	e8 a6 30 fb ff       	callq  16170 <gf2x_mul3>
   630df:	e8 8c 30 fb ff       	callq  16170 <gf2x_mul3>
   630f9:	e8 72 30 fb ff       	callq  16170 <gf2x_mul3>
   63113:	e8 58 30 fb ff       	callq  16170 <gf2x_mul3>
   6312d:	e8 3e 30 fb ff       	callq  16170 <gf2x_mul3>
   63147:	e8 24 30 fb ff       	callq  16170 <gf2x_mul3>
   63161:	e8 0a 30 fb ff       	callq  16170 <gf2x_mul3>
   6317b:	e8 f0 2f fb ff       	callq  16170 <gf2x_mul3>
   63195:	e8 d6 2f fb ff       	callq  16170 <gf2x_mul3>
   631af:	e8 bc 2f fb ff       	callq  16170 <gf2x_mul3>
   631c9:	e8 a2 2f fb ff       	callq  16170 <gf2x_mul3>
   633b7:	e8 b4 2d fb ff       	callq  16170 <gf2x_mul3>
   633d1:	e8 9a 2d fb ff       	callq  16170 <gf2x_mul3>
   633eb:	e8 80 2d fb ff       	callq  16170 <gf2x_mul3>
   63402:	e8 69 2d fb ff       	callq  16170 <gf2x_mul3>
   63419:	e8 52 2d fb ff       	callq  16170 <gf2x_mul3>
   63433:	e8 38 2d fb ff       	callq  16170 <gf2x_mul3>
   6344d:	e8 1e 2d fb ff       	callq  16170 <gf2x_mul3>
   63464:	e8 07 2d fb ff       	callq  16170 <gf2x_mul3>
   6347e:	e8 ed 2c fb ff       	callq  16170 <gf2x_mul3>
